%!PS-Adobe-3.0 EPSF-3.0 
%%BoundingBox: 0 0 502 340
%%Pages: 0
%%Creator: LibreOffice 3.5
%%Title: none
%%CreationDate: none
%%LanguageLevel: 2
%%EndComments
%%BeginProlog
%%BeginResource: procset SDRes-Prolog 1.0 0
/b4_inc_state save def
/dict_count countdictstack def
/op_count count 1 sub def
userdict begin
0 setgray 0 setlinecap 1 setlinewidth 0 setlinejoin 10 setmiterlimit[] 0 setdash newpath
/languagelevel where {pop languagelevel 1 ne {false setstrokeadjust false setoverprint} if} if
/bdef {bind def} bind def
/c {setrgbcolor} bdef
/l {neg lineto} bdef
/rl {neg rlineto} bdef
/lc {setlinecap} bdef
/lj {setlinejoin} bdef
/lw {setlinewidth} bdef
/ml {setmiterlimit} bdef
/ld {setdash} bdef
/m {neg moveto} bdef
/ct {6 2 roll neg 6 2 roll neg 6 2 roll neg curveto} bdef
/r {rotate} bdef
/t {neg translate} bdef
/s {scale} bdef
/sw {show} bdef
/gs {gsave} bdef
/gr {grestore} bdef
/f {findfont dup length dict begin
{1 index /FID ne {def} {pop pop} ifelse} forall /Encoding ISOLatin1Encoding def
currentdict end /NFont exch definefont pop /NFont findfont} bdef
/p {closepath} bdef
/sf {scalefont setfont} bdef
/ef {eofill}bdef
/pc {closepath stroke}bdef
/ps {stroke}bdef
/pum {matrix currentmatrix}bdef
/pom {setmatrix}bdef
/bs {/aString exch def /nXOfs exch def /nWidth exch def currentpoint nXOfs 0 rmoveto pum nWidth aString stringwidth pop div 1 scale aString show pom moveto} bdef
%%EndResource
%%EndProlog
%%BeginSetup
%%EndSetup
%%Page: 1 1
%%BeginPageSetup
%%EndPageSetup
pum
0.02837 0.0283 s 
0 -12012 t
/tm matrix currentmatrix def
tm setmatrix
-1889 -1434 t 
1 1 s 

gs
tm setmatrix
0 0 t 
1 1 s 
gs
gs
0 0 m 17691 0 l 17691 12011 l 0 12011 l 0 0 l eoclip newpath
gs
0 0 m 17691 0 l 17691 12011 l 0 12011 l 0 0 l eoclip newpath
1.000 1.000 1.000 c 8846 12012 m  0 12012 l  0 0 l  17692 0 l  17692 12012 l 
8846 12012 l  p ef



0 lw 1 lj 0.703 0.703 0.703 c 9265 10707 m  1468 10707 l  1468 869 l  17061 869 l 
17061 10707 l  9265 10707 l  pc
17061 10706 m  1468 10706 l  ps
17061 9300 m  1468 9300 l  ps
17061 7895 m  1468 7895 l  ps
17061 6489 m  1468 6489 l  ps
17061 5084 m  1468 5084 l  ps
17061 3678 m  1468 3678 l  ps
17061 2273 m  1468 2273 l  ps
17061 868 m  1468 868 l  ps

1468 10856 m  1468 10706 l  ps
1468 10856 m  1468 10706 l  ps
6665 10856 m  6665 10706 l  ps
6665 10856 m  6665 10706 l  ps
11863 10856 m  11863 10706 l  ps
11863 10856 m  11863 10706 l  ps
17061 10856 m  17061 10706 l  ps
17061 10856 m  17061 10706 l  ps
1468 10706 m  17061 10706 l  ps
1318 10706 m  1468 10706 l  ps
1318 10706 m  1468 10706 l  ps
1318 9300 m  1468 9300 l  ps
1318 9300 m  1468 9300 l  ps
1318 7895 m  1468 7895 l  ps
1318 7895 m  1468 7895 l  ps
1318 6489 m  1468 6489 l  ps
1318 6489 m  1468 6489 l  ps
1318 5084 m  1468 5084 l  ps
1318 5084 m  1468 5084 l  ps
1318 3678 m  1468 3678 l  ps
1318 3678 m  1468 3678 l  ps
1318 2273 m  1468 2273 l  ps
1318 2273 m  1468 2273 l  ps
1318 868 m  1468 868 l  ps
1318 868 m  1468 868 l  ps
1468 10706 m  1468 868 l  ps
80 lw 0.003 0.273 0.527 c 1468 10538 m  6665 9787 l  11863 8827 l  17061 1482 l 
ps
1343 10413 m  1343 10663 l  1593 10663 l  1593 10413 l  1343 10413 l  p ef
0 lw 1343 10413 m  1343 10663 l  1593 10663 l  1593 10413 l  1343 10413 l 
pc
6540 9662 m  6540 9912 l  6790 9912 l  6790 9662 l  6540 9662 l  p ef
6540 9662 m  6540 9912 l  6790 9912 l  6790 9662 l  6540 9662 l  pc
11738 8702 m  11738 8952 l  11988 8952 l  11988 8702 l  11738 8702 l  p ef
11738 8702 m  11738 8952 l  11988 8952 l  11988 8702 l  11738 8702 l  pc
16936 1357 m  16936 1607 l  17186 1607 l  17186 1357 l  16936 1357 l  p ef
16936 1357 m  16936 1607 l  17186 1607 l  17186 1357 l  16936 1357 l  pc
80 lw 1.000 0.261 0.058 c 1468 10287 m  6665 10166 l  11863 9920 l  17061 8337 l 
ps
1343 10287 m  1468 10412 l  1593 10287 l  1468 10162 l  1343 10287 l  p ef
0 lw 1343 10287 m  1468 10412 l  1593 10287 l  1468 10162 l  1343 10287 l 
pc
6540 10166 m  6665 10291 l  6790 10166 l  6665 10041 l  6540 10166 l  p ef
6540 10166 m  6665 10291 l  6790 10166 l  6665 10041 l  6540 10166 l  pc
11738 9920 m  11863 10045 l  11988 9920 l  11863 9795 l  11738 9920 l 
p ef
11738 9920 m  11863 10045 l  11988 9920 l  11863 9795 l  11738 9920 l 
pc
16936 8337 m  17061 8462 l  17186 8337 l  17061 8212 l  16936 8337 l  p ef
16936 8337 m  17061 8462 l  17186 8337 l  17061 8212 l  16936 8337 l  pc

pum
967 11326 t
0.003 0.003 0.003 c 311 -147 m  311 -128 309 -110 304 -94 ct 299 -77 292 -63 283 -50 ct 
273 -38 262 -27 249 -19 ct 235 -10 220 -5 203 -1 ct 206 7 209 13 213 18 ct 216 23 221 27 225 30 ct 
230 33 235 35 241 36 ct 246 37 252 38 258 38 ct 262 38 266 37 271 37 ct 275 37 279 36 283 35 ct 
283 77 l  275 79 267 80 259 81 ct 251 82 242 83 233 83 ct 219 83 208 81 198 77 ct 
189 73 180 68 173 61 ct 166 53 159 45 154 35 ct 149 25 145 14 141 2 ct 121 0 103 -5 87 -13 ct 
72 -21 59 -32 48 -45 ct 38 -58 30 -74 25 -91 ct 20 -108 17 -127 17 -147 ct 17 -170 21 -191 27 -209 ct 
33 -227 43 -243 55 -256 ct 68 -269 83 -279 101 -286 ct 120 -293 141 -296 164 -296 ct 
188 -296 209 -292 227 -285 ct 245 -278 261 -268 273 -255 ct 286 -243 295 -227 302 -209 ct 
308 -190 311 -170 311 -147 ct p
249 -147 m  249 -163 247 -176 244 -189 ct 240 -201 235 -212 227 -221 ct 220 -229 211 -236 201 -241 ct 
190 -246 178 -248 164 -248 ct 150 -248 138 -246 127 -241 ct 116 -236 107 -229 100 -221 ct 
93 -212 88 -201 84 -189 ct 80 -176 79 -163 79 -147 ct 79 -132 81 -118 84 -106 ct 
88 -93 93 -82 100 -73 ct 108 -64 116 -57 127 -52 ct 138 -46 150 -44 164 -44 ct 
179 -44 191 -47 202 -52 ct 213 -57 222 -64 229 -73 ct 236 -82 241 -93 244 -106 ct 
247 -119 249 -132 249 -147 ct p ef
482 -44 m  494 -44 504 -46 512 -49 ct 520 -52 527 -56 534 -62 ct 540 -67 545 -73 549 -79 ct 
553 -86 556 -93 559 -99 ct 612 -79 l  608 -69 602 -59 595 -49 ct 588 -38 580 -30 569 -22 ct 
559 -14 547 -8 533 -3 ct 518 2 501 4 482 4 ct 457 4 435 0 417 -7 ct 398 -15 383 -25 371 -39 ct 
359 -52 350 -68 344 -87 ct 338 -105 335 -125 335 -147 ct 335 -170 338 -191 344 -209 ct 
350 -227 359 -243 371 -256 ct 383 -269 397 -279 416 -286 ct 434 -293 455 -296 480 -296 ct 
499 -296 515 -294 529 -290 ct 544 -286 556 -280 566 -273 ct 577 -266 585 -257 592 -247 ct 
599 -238 604 -227 608 -215 ct 554 -200 l  553 -206 550 -212 546 -218 ct 542 -224 537 -229 530 -233 ct 
524 -238 517 -241 509 -244 ct 501 -247 491 -248 481 -248 ct 466 -248 453 -246 443 -241 ct 
432 -236 423 -229 417 -220 ct 410 -212 405 -201 402 -189 ct 398 -176 397 -163 397 -147 ct 
397 -132 398 -118 402 -106 ct 405 -93 410 -82 417 -73 ct 424 -64 432 -57 443 -52 ct 
454 -47 467 -44 482 -44 ct p ef
663 0 m  663 -292 l  724 -292 l  724 0 l  663 0 l  p ef
830 -244 m  830 -154 l  979 -154 l  979 -107 l  830 -107 l  830 0 l  769 0 l 
769 -291 l  984 -291 l  984 -244 l  830 -244 l  p ef
pom

pum
6045 11326 t
311 -147 m  311 -128 309 -110 304 -94 ct 299 -77 292 -63 283 -50 ct 273 -38 262 -27 249 -19 ct 
235 -10 220 -5 203 -1 ct 206 7 209 13 213 18 ct 216 23 221 27 225 30 ct 230 33 235 35 241 36 ct 
246 37 252 38 258 38 ct 262 38 266 37 271 37 ct 275 37 279 36 283 35 ct 283 77 l 
275 79 267 80 259 81 ct 251 82 242 83 233 83 ct 219 83 208 81 198 77 ct 189 73 180 68 173 61 ct 
166 53 159 45 154 35 ct 149 25 145 14 141 2 ct 121 0 103 -5 87 -13 ct 72 -21 59 -32 48 -45 ct 
38 -58 30 -74 25 -91 ct 20 -108 17 -127 17 -147 ct 17 -170 21 -191 27 -209 ct 33 -227 43 -243 55 -256 ct 
68 -269 83 -279 101 -286 ct 120 -293 141 -296 164 -296 ct 188 -296 209 -292 227 -285 ct 
245 -278 261 -268 273 -255 ct 286 -243 295 -227 302 -209 ct 308 -190 311 -170 311 -147 ct 
p
249 -147 m  249 -163 247 -176 244 -189 ct 240 -201 235 -212 227 -221 ct 220 -229 211 -236 201 -241 ct 
190 -246 178 -248 164 -248 ct 150 -248 138 -246 127 -241 ct 116 -236 107 -229 100 -221 ct 
93 -212 88 -201 84 -189 ct 80 -176 79 -163 79 -147 ct 79 -132 81 -118 84 -106 ct 
88 -93 93 -82 100 -73 ct 108 -64 116 -57 127 -52 ct 138 -46 150 -44 164 -44 ct 
179 -44 191 -47 202 -52 ct 213 -57 222 -64 229 -73 ct 236 -82 241 -93 244 -106 ct 
247 -119 249 -132 249 -147 ct p ef
490 0 m  429 0 l  321 -292 l  385 -292 l  444 -104 l  446 -98 448 -92 450 -85 ct 
452 -79 453 -73 455 -67 ct 457 -61 458 -55 460 -49 ct 461 -55 463 -61 464 -67 ct 
465 -72 467 -78 469 -85 ct 471 -91 473 -98 475 -104 ct 534 -292 l  597 -292 l 
490 0 l  p ef
775 -44 m  784 -44 793 -44 801 -46 ct 809 -47 817 -49 823 -51 ct 830 -54 837 -56 842 -59 ct 
848 -62 852 -65 856 -68 ct 856 -109 l  785 -109 l  785 -154 l  912 -154 l 
912 -47 l  905 -40 897 -33 888 -27 ct 878 -21 868 -16 856 -11 ct 845 -7 832 -3 818 0 ct 
804 3 789 4 774 4 ct 748 4 726 0 707 -7 ct 689 -15 673 -25 661 -39 ct 649 -52 641 -68 635 -87 ct 
629 -105 626 -125 626 -147 ct 626 -170 629 -191 635 -209 ct 642 -227 651 -243 663 -256 ct 
675 -269 691 -279 709 -286 ct 728 -293 750 -296 775 -296 ct 794 -296 810 -294 824 -291 ct 
838 -287 851 -282 861 -275 ct 872 -269 881 -261 888 -251 ct 896 -242 901 -232 906 -220 ct 
849 -203 l  847 -209 844 -215 840 -220 ct 835 -226 830 -231 824 -235 ct 818 -239 811 -242 803 -244 ct 
795 -247 786 -248 775 -248 ct 760 -248 747 -246 736 -241 ct 725 -236 716 -229 709 -220 ct 
702 -212 696 -201 693 -189 ct 689 -176 688 -163 688 -147 ct 688 -132 689 -118 693 -105 ct 
696 -93 702 -82 709 -73 ct 716 -64 725 -57 736 -51 ct 747 -46 760 -44 775 -44 ct 
p ef
1160 1 m  1134 -74 l  1023 -74 l  997 1 l  937 1 l  1043 -291 l  1115 -291 l 
1220 1 l  1160 1 l  p
1092 -204 m  1090 -209 1089 -213 1087 -218 ct 1085 -223 1084 -228 1083 -232 ct 
1082 -236 1081 -239 1080 -242 ct 1079 -244 1079 -246 1079 -246 ct 1079 -246 1078 -244 1077 -242 ct 
1077 -239 1076 -236 1075 -232 ct 1073 -228 1072 -223 1070 -218 ct 1069 -213 1067 -209 1066 -204 ct 
1037 -120 l  1121 -120 l  1092 -204 l  p ef
pom

pum
11401 11326 t
172 0 m  111 0 l  3 -292 l  67 -292 l  126 -104 l  128 -98 130 -92 132 -85 ct 
134 -79 135 -73 137 -67 ct 139 -61 140 -55 142 -49 ct 143 -55 145 -61 146 -67 ct 
147 -72 149 -78 151 -85 ct 153 -91 155 -98 157 -104 ct 216 -292 l  279 -292 l 
172 0 l  p ef
457 -44 m  466 -44 475 -44 483 -46 ct 491 -47 499 -49 505 -51 ct 512 -54 519 -56 524 -59 ct 
530 -62 534 -65 538 -68 ct 538 -109 l  467 -109 l  467 -154 l  594 -154 l 
594 -47 l  587 -40 579 -33 570 -27 ct 560 -21 550 -16 538 -11 ct 527 -7 514 -3 500 0 ct 
486 3 471 4 456 4 ct 430 4 408 0 389 -7 ct 371 -15 355 -25 343 -39 ct 331 -52 323 -68 317 -87 ct 
311 -105 308 -125 308 -147 ct 308 -170 311 -191 317 -209 ct 324 -227 333 -243 345 -256 ct 
357 -269 373 -279 391 -286 ct 410 -293 432 -296 457 -296 ct 476 -296 492 -294 506 -291 ct 
520 -287 533 -282 543 -275 ct 554 -269 563 -261 570 -251 ct 578 -242 583 -232 588 -220 ct 
531 -203 l  529 -209 526 -215 522 -220 ct 517 -226 512 -231 506 -235 ct 500 -239 493 -242 485 -244 ct 
477 -247 468 -248 457 -248 ct 442 -248 429 -246 418 -241 ct 407 -236 398 -229 391 -220 ct 
384 -212 378 -201 375 -189 ct 371 -176 370 -163 370 -147 ct 370 -132 371 -118 375 -105 ct 
378 -93 384 -82 391 -73 ct 398 -64 407 -57 418 -51 ct 429 -46 442 -44 457 -44 ct 
p ef
843 1 m  817 -74 l  706 -74 l  680 1 l  620 1 l  726 -291 l  798 -291 l 
903 1 l  843 1 l  p
775 -204 m  773 -209 772 -213 770 -218 ct 768 -223 767 -228 766 -232 ct 765 -236 764 -239 763 -242 ct 
762 -244 762 -246 762 -246 ct 762 -246 761 -244 760 -242 ct 760 -239 759 -236 758 -232 ct 
756 -228 755 -223 753 -218 ct 752 -213 750 -209 749 -204 ct 720 -120 l  804 -120 l 
775 -204 l  p ef
pom

pum
16599 11326 t
214 0 m  141 -116 l  68 0 l  4 0 l  105 -153 l  12 -292 l  77 -292 l  141 -188 l 
206 -292 l  270 -292 l  182 -153 l  278 0 l  214 0 l  p ef
457 -44 m  466 -44 475 -44 483 -46 ct 491 -47 499 -49 505 -51 ct 512 -54 519 -56 524 -59 ct 
530 -62 534 -65 538 -68 ct 538 -109 l  467 -109 l  467 -154 l  594 -154 l 
594 -47 l  587 -40 579 -33 570 -27 ct 560 -21 550 -16 538 -11 ct 527 -7 514 -3 500 0 ct 
486 3 471 4 456 4 ct 430 4 408 0 389 -7 ct 371 -15 355 -25 343 -39 ct 331 -52 323 -68 317 -87 ct 
311 -105 308 -125 308 -147 ct 308 -170 311 -191 317 -209 ct 324 -227 333 -243 345 -256 ct 
357 -269 373 -279 391 -286 ct 410 -293 432 -296 457 -296 ct 476 -296 492 -294 506 -291 ct 
520 -287 533 -282 543 -275 ct 554 -269 563 -261 570 -251 ct 578 -242 583 -232 588 -220 ct 
531 -203 l  529 -209 526 -215 522 -220 ct 517 -226 512 -231 506 -235 ct 500 -239 493 -242 485 -244 ct 
477 -247 468 -248 457 -248 ct 442 -248 429 -246 418 -241 ct 407 -236 398 -229 391 -220 ct 
384 -212 378 -201 375 -189 ct 371 -176 370 -163 370 -147 ct 370 -132 371 -118 375 -105 ct 
378 -93 384 -82 391 -73 ct 398 -64 407 -57 418 -51 ct 429 -46 442 -44 457 -44 ct 
p ef
843 1 m  817 -74 l  706 -74 l  680 1 l  620 1 l  726 -291 l  798 -291 l 
903 1 l  843 1 l  p
775 -204 m  773 -209 772 -213 770 -218 ct 768 -223 767 -228 766 -232 ct 765 -236 764 -239 763 -242 ct 
762 -244 762 -246 762 -246 ct 762 -246 761 -244 760 -242 ct 760 -239 759 -236 758 -232 ct 
756 -228 755 -223 753 -218 ct 752 -213 750 -209 749 -204 ct 720 -120 l  804 -120 l 
775 -204 l  p ef
pom

pum
981 10852 t
218 -146 m  218 -118 215 -95 210 -76 ct 205 -56 198 -41 189 -29 ct 180 -17 169 -9 157 -4 ct 
145 1 131 4 117 4 ct 102 4 89 1 76 -4 ct 64 -9 54 -17 45 -29 ct 36 -41 29 -56 24 -75 ct 
19 -94 17 -118 17 -146 ct 17 -175 19 -200 24 -219 ct 29 -238 36 -254 45 -265 ct 
54 -276 64 -284 77 -289 ct 89 -294 103 -296 118 -296 ct 133 -296 146 -294 158 -289 ct 
170 -284 181 -276 190 -265 ct 198 -254 205 -238 210 -219 ct 215 -200 218 -175 218 -146 ct 
p
160 -146 m  160 -167 159 -184 157 -197 ct 156 -210 153 -221 150 -229 ct 147 -237 143 -243 137 -246 ct 
132 -249 126 -250 118 -250 ct 110 -250 103 -249 97 -246 ct 92 -242 88 -237 84 -229 ct 
81 -221 78 -210 77 -197 ct 75 -183 75 -166 75 -146 ct 75 -126 76 -109 77 -96 ct 
79 -83 81 -72 84 -64 ct 88 -56 92 -50 97 -47 ct 103 -43 109 -42 117 -42 ct 125 -42 131 -43 137 -47 ct 
142 -50 146 -56 150 -64 ct 153 -72 156 -83 157 -96 ct 159 -109 160 -126 160 -146 ct 
p ef
pom

pum
637 9446 t
218 -146 m  218 -118 215 -95 210 -76 ct 205 -56 198 -41 189 -29 ct 180 -17 169 -9 157 -4 ct 
145 1 131 4 117 4 ct 102 4 89 1 76 -4 ct 64 -9 54 -17 45 -29 ct 36 -41 29 -56 24 -75 ct 
19 -94 17 -118 17 -146 ct 17 -175 19 -200 24 -219 ct 29 -238 36 -254 45 -265 ct 
54 -276 64 -284 77 -289 ct 89 -294 103 -296 118 -296 ct 133 -296 146 -294 158 -289 ct 
170 -284 181 -276 190 -265 ct 198 -254 205 -238 210 -219 ct 215 -200 218 -175 218 -146 ct 
p
160 -146 m  160 -167 159 -184 157 -197 ct 156 -210 153 -221 150 -229 ct 147 -237 143 -243 137 -246 ct 
132 -249 126 -250 118 -250 ct 110 -250 103 -249 97 -246 ct 92 -242 88 -237 84 -229 ct 
81 -221 78 -210 77 -197 ct 75 -183 75 -166 75 -146 ct 75 -126 76 -109 77 -96 ct 
79 -83 81 -72 84 -64 ct 88 -56 92 -50 97 -47 ct 103 -43 109 -42 117 -42 ct 125 -42 131 -43 137 -47 ct 
142 -50 146 -56 150 -64 ct 153 -72 156 -83 157 -96 ct 159 -109 160 -126 160 -146 ct 
p ef
267 0 m  267 -63 l  326 -63 l  326 0 l  267 0 l  p ef
359 0 m  359 -40 l  365 -55 373 -68 383 -80 ct 392 -91 402 -102 413 -112 ct 
423 -121 433 -130 444 -139 ct 454 -147 463 -155 471 -163 ct 480 -171 486 -179 491 -187 ct 
496 -194 499 -203 499 -212 ct 499 -225 496 -234 489 -240 ct 483 -247 473 -250 461 -250 ct 
448 -250 439 -246 432 -240 ct 426 -234 422 -224 420 -211 ct 361 -211 l  363 -223 365 -234 370 -244 ct 
374 -254 380 -263 388 -271 ct 396 -279 406 -285 418 -289 ct 430 -294 444 -296 460 -296 ct 
476 -296 490 -294 502 -291 ct 514 -287 524 -282 533 -274 ct 541 -267 547 -259 551 -249 ct 
556 -239 558 -227 558 -214 ct 558 -200 555 -188 550 -177 ct 544 -166 537 -156 529 -146 ct 
521 -137 511 -128 501 -120 ct 491 -112 481 -104 471 -96 ct 462 -89 453 -81 445 -73 ct 
437 -65 431 -57 427 -48 ct 562 -48 l  562 0 l  359 0 l  p ef
pom

pum
637 8041 t
218 -146 m  218 -118 215 -95 210 -76 ct 205 -56 198 -41 189 -29 ct 180 -17 169 -9 157 -4 ct 
145 1 131 4 117 4 ct 102 4 89 1 76 -4 ct 64 -9 54 -17 45 -29 ct 36 -41 29 -56 24 -75 ct 
19 -94 17 -118 17 -146 ct 17 -175 19 -200 24 -219 ct 29 -238 36 -254 45 -265 ct 
54 -276 64 -284 77 -289 ct 89 -294 103 -296 118 -296 ct 133 -296 146 -294 158 -289 ct 
170 -284 181 -276 190 -265 ct 198 -254 205 -238 210 -219 ct 215 -200 218 -175 218 -146 ct 
p
160 -146 m  160 -167 159 -184 157 -197 ct 156 -210 153 -221 150 -229 ct 147 -237 143 -243 137 -246 ct 
132 -249 126 -250 118 -250 ct 110 -250 103 -249 97 -246 ct 92 -242 88 -237 84 -229 ct 
81 -221 78 -210 77 -197 ct 75 -183 75 -166 75 -146 ct 75 -126 76 -109 77 -96 ct 
79 -83 81 -72 84 -64 ct 88 -56 92 -50 97 -47 ct 103 -43 109 -42 117 -42 ct 125 -42 131 -43 137 -47 ct 
142 -50 146 -56 150 -64 ct 153 -72 156 -83 157 -96 ct 159 -109 160 -126 160 -146 ct 
p ef
267 0 m  267 -63 l  326 -63 l  326 0 l  267 0 l  p ef
538 -59 m  538 1 l  483 1 l  483 -59 l  350 -59 l  350 -103 l  473 -291 l 
538 -291 l  538 -102 l  577 -102 l  577 -59 l  538 -59 l  p
483 -198 m  483 -200 483 -203 483 -207 ct 483 -211 483 -214 483 -218 ct 484 -222 484 -226 484 -230 ct 
484 -234 484 -236 485 -238 ct 484 -237 483 -235 481 -232 ct 480 -229 478 -226 476 -223 ct 
474 -220 473 -216 471 -213 ct 469 -210 467 -207 465 -205 ct 398 -102 l  483 -102 l 
483 -198 l  p ef
pom

pum
637 6635 t
218 -146 m  218 -118 215 -95 210 -76 ct 205 -56 198 -41 189 -29 ct 180 -17 169 -9 157 -4 ct 
145 1 131 4 117 4 ct 102 4 89 1 76 -4 ct 64 -9 54 -17 45 -29 ct 36 -41 29 -56 24 -75 ct 
19 -94 17 -118 17 -146 ct 17 -175 19 -200 24 -219 ct 29 -238 36 -254 45 -265 ct 
54 -276 64 -284 77 -289 ct 89 -294 103 -296 118 -296 ct 133 -296 146 -294 158 -289 ct 
170 -284 181 -276 190 -265 ct 198 -254 205 -238 210 -219 ct 215 -200 218 -175 218 -146 ct 
p
160 -146 m  160 -167 159 -184 157 -197 ct 156 -210 153 -221 150 -229 ct 147 -237 143 -243 137 -246 ct 
132 -249 126 -250 118 -250 ct 110 -250 103 -249 97 -246 ct 92 -242 88 -237 84 -229 ct 
81 -221 78 -210 77 -197 ct 75 -183 75 -166 75 -146 ct 75 -126 76 -109 77 -96 ct 
79 -83 81 -72 84 -64 ct 88 -56 92 -50 97 -47 ct 103 -43 109 -42 117 -42 ct 125 -42 131 -43 137 -47 ct 
142 -50 146 -56 150 -64 ct 153 -72 156 -83 157 -96 ct 159 -109 160 -126 160 -146 ct 
p ef
267 0 m  267 -63 l  326 -63 l  326 0 l  267 0 l  p ef
564 -96 m  564 -81 562 -68 558 -55 ct 554 -43 547 -33 539 -24 ct 531 -15 521 -8 509 -3 ct 
496 2 482 4 466 4 ct 432 4 405 -8 387 -32 ct 369 -56 359 -92 359 -139 ct 359 -191 369 -230 387 -257 ct 
406 -283 433 -296 468 -296 ct 479 -296 490 -295 499 -292 ct 509 -290 517 -286 525 -281 ct 
532 -275 538 -268 544 -260 ct 549 -251 553 -241 556 -229 ct 501 -221 l  499 -232 494 -239 488 -243 ct 
482 -248 475 -250 466 -250 ct 451 -250 439 -242 430 -227 ct 421 -211 416 -187 416 -156 ct 
422 -166 431 -174 442 -180 ct 453 -185 466 -188 480 -188 ct 492 -188 504 -186 514 -182 ct 
525 -177 534 -171 541 -163 ct 548 -155 554 -146 558 -134 ct 562 -123 564 -110 564 -96 ct 
p
506 -94 m  506 -102 505 -109 503 -115 ct 501 -121 499 -127 495 -131 ct 491 -136 487 -139 481 -141 ct 
476 -144 470 -145 463 -145 ct 458 -145 453 -144 447 -143 ct 442 -141 438 -138 434 -135 ct 
430 -131 427 -126 424 -121 ct 422 -115 420 -108 420 -100 ct 420 -92 421 -84 424 -77 ct 
426 -70 429 -63 432 -58 ct 436 -53 441 -49 446 -46 ct 451 -43 457 -41 464 -41 ct 
477 -41 487 -46 495 -55 ct 502 -65 506 -77 506 -94 ct p ef
pom

pum
637 5231 t
218 -146 m  218 -118 215 -95 210 -76 ct 205 -56 198 -41 189 -29 ct 180 -17 169 -9 157 -4 ct 
145 1 131 4 117 4 ct 102 4 89 1 76 -4 ct 64 -9 54 -17 45 -29 ct 36 -41 29 -56 24 -75 ct 
19 -94 17 -118 17 -146 ct 17 -175 19 -200 24 -219 ct 29 -238 36 -254 45 -265 ct 
54 -276 64 -284 77 -289 ct 89 -294 103 -296 118 -296 ct 133 -296 146 -294 158 -289 ct 
170 -284 181 -276 190 -265 ct 198 -254 205 -238 210 -219 ct 215 -200 218 -175 218 -146 ct 
p
160 -146 m  160 -167 159 -184 157 -197 ct 156 -210 153 -221 150 -229 ct 147 -237 143 -243 137 -246 ct 
132 -249 126 -250 118 -250 ct 110 -250 103 -249 97 -246 ct 92 -242 88 -237 84 -229 ct 
81 -221 78 -210 77 -197 ct 75 -183 75 -166 75 -146 ct 75 -126 76 -109 77 -96 ct 
79 -83 81 -72 84 -64 ct 88 -56 92 -50 97 -47 ct 103 -43 109 -42 117 -42 ct 125 -42 131 -43 137 -47 ct 
142 -50 146 -56 150 -64 ct 153 -72 156 -83 157 -96 ct 159 -109 160 -126 160 -146 ct 
p ef
267 0 m  267 -63 l  326 -63 l  326 0 l  267 0 l  p ef
566 -82 m  566 -70 564 -58 560 -48 ct 556 -37 550 -28 541 -20 ct 533 -13 522 -7 509 -2 ct 
496 2 480 4 462 4 ct 444 4 429 2 415 -2 ct 402 -7 391 -13 383 -20 ct 374 -28 368 -37 364 -48 ct 
359 -58 357 -70 357 -82 ct 357 -93 359 -102 362 -110 ct 366 -119 370 -126 376 -132 ct 
381 -137 387 -142 395 -146 ct 402 -149 409 -152 417 -153 ct 417 -154 l  409 -155 401 -158 395 -163 ct 
388 -167 383 -172 378 -177 ct 374 -183 370 -190 368 -197 ct 365 -204 364 -211 364 -219 ct 
364 -231 366 -241 371 -251 ct 375 -260 381 -268 389 -275 ct 397 -282 407 -287 419 -291 ct 
431 -294 445 -296 461 -296 ct 478 -296 493 -294 505 -290 ct 517 -287 527 -281 535 -274 ct 
543 -268 549 -259 553 -250 ct 557 -240 559 -230 559 -219 ct 559 -211 558 -204 555 -197 ct 
553 -189 550 -183 545 -177 ct 540 -171 535 -167 528 -163 ct 522 -159 514 -156 506 -154 ct 
506 -153 l  515 -152 523 -149 530 -146 ct 537 -142 544 -137 549 -131 ct 554 -126 559 -119 562 -110 ct 
565 -102 566 -93 566 -82 ct p
499 -215 m  499 -221 499 -227 497 -231 ct 496 -236 494 -240 491 -244 ct 488 -248 484 -250 480 -252 ct 
475 -254 469 -255 461 -255 ct 454 -255 448 -254 443 -252 ct 438 -250 434 -248 432 -244 ct 
429 -240 427 -236 425 -231 ct 424 -227 424 -221 424 -215 ct 424 -210 424 -205 425 -200 ct 
426 -195 428 -191 431 -187 ct 434 -183 437 -180 442 -177 ct 447 -175 454 -174 462 -174 ct 
470 -174 476 -175 481 -177 ct 486 -180 490 -183 493 -187 ct 496 -191 497 -196 498 -201 ct 
499 -206 499 -210 499 -215 ct p
506 -87 m  506 -93 505 -99 504 -104 ct 503 -110 501 -115 497 -119 ct 494 -123 489 -127 483 -129 ct 
477 -132 470 -133 461 -133 ct 452 -133 446 -132 440 -129 ct 434 -127 430 -123 427 -119 ct 
423 -115 421 -110 419 -104 ct 418 -98 417 -93 417 -86 ct 417 -79 418 -72 419 -66 ct 
421 -60 423 -55 427 -51 ct 430 -46 435 -43 441 -40 ct 446 -38 454 -37 462 -37 ct 
471 -37 478 -38 484 -41 ct 489 -43 494 -46 497 -51 ct 501 -55 503 -61 504 -67 ct 
505 -73 506 -80 506 -87 ct p ef
pom

pum
981 3825 t
27 0 m  27 -43 l  99 -43 l  99 -242 l  29 -198 l  29 -244 l  102 -292 l 
157 -292 l  157 -43 l  223 -43 l  223 0 l  27 0 l  p ef
pom

pum
637 2420 t
27 0 m  27 -43 l  99 -43 l  99 -242 l  29 -198 l  29 -244 l  102 -292 l 
157 -292 l  157 -43 l  223 -43 l  223 0 l  27 0 l  p ef
267 0 m  267 -63 l  326 -63 l  326 0 l  267 0 l  p ef
359 0 m  359 -40 l  365 -55 373 -68 383 -80 ct 392 -91 402 -102 413 -112 ct 
423 -121 433 -130 444 -139 ct 454 -147 463 -155 471 -163 ct 480 -171 486 -179 491 -187 ct 
496 -194 499 -203 499 -212 ct 499 -225 496 -234 489 -240 ct 483 -247 473 -250 461 -250 ct 
448 -250 439 -246 432 -240 ct 426 -234 422 -224 420 -211 ct 361 -211 l  363 -223 365 -234 370 -244 ct 
374 -254 380 -263 388 -271 ct 396 -279 406 -285 418 -289 ct 430 -294 444 -296 460 -296 ct 
476 -296 490 -294 502 -291 ct 514 -287 524 -282 533 -274 ct 541 -267 547 -259 551 -249 ct 
556 -239 558 -227 558 -214 ct 558 -200 555 -188 550 -177 ct 544 -166 537 -156 529 -146 ct 
521 -137 511 -128 501 -120 ct 491 -112 481 -104 471 -96 ct 462 -89 453 -81 445 -73 ct 
437 -65 431 -57 427 -48 ct 562 -48 l  562 0 l  359 0 l  p ef
pom

pum
637 1015 t
27 0 m  27 -43 l  99 -43 l  99 -242 l  29 -198 l  29 -244 l  102 -292 l 
157 -292 l  157 -43 l  223 -43 l  223 0 l  27 0 l  p ef
267 0 m  267 -63 l  326 -63 l  326 0 l  267 0 l  p ef
538 -59 m  538 1 l  483 1 l  483 -59 l  350 -59 l  350 -103 l  473 -291 l 
538 -291 l  538 -102 l  577 -102 l  577 -59 l  538 -59 l  p
483 -198 m  483 -200 483 -203 483 -207 ct 483 -211 483 -214 483 -218 ct 484 -222 484 -226 484 -230 ct 
484 -234 484 -236 485 -238 ct 484 -237 483 -235 481 -232 ct 480 -229 478 -226 476 -223 ct 
474 -220 473 -216 471 -213 ct 469 -210 467 -207 465 -205 ct 398 -102 l  483 -102 l 
483 -198 l  p ef
pom


80 lw 0.003 0.273 0.527 c 5965 1601 m  6765 1601 l  ps
6217 1453 m  6217 1749 l  6513 1749 l  6513 1453 l  6217 1453 l  p ef
0 lw 6217 1453 m  6217 1749 l  6513 1749 l  6513 1453 l  6217 1453 l  pc

80 lw 1.000 0.261 0.058 c 8296 1601 m  9096 1601 l  ps
8548 1601 m  8696 1749 l  8844 1601 l  8696 1453 l  8548 1601 l  p ef
0 lw 8548 1601 m  8696 1749 l  8844 1601 l  8696 1453 l  8548 1601 l  pc

pum
6874 1774 t
0.003 0.003 0.003 c 192 -51 m  205 -51 217 -53 226 -57 ct 236 -60 245 -65 252 -72 ct 
259 -78 265 -85 270 -92 ct 274 -100 278 -108 281 -116 ct 343 -92 l  338 -80 332 -68 324 -56 ct 
316 -45 306 -34 294 -25 ct 282 -16 267 -9 251 -3 ct 234 2 214 5 192 5 ct 162 5 137 1 115 -8 ct 
94 -17 76 -29 62 -45 ct 48 -61 37 -79 31 -101 ct 24 -122 20 -146 20 -171 ct 20 -198 24 -222 31 -243 ct 
37 -265 48 -283 62 -298 ct 75 -313 93 -325 114 -333 ct 135 -341 160 -345 189 -345 ct 
211 -345 230 -343 247 -338 ct 264 -333 278 -327 290 -318 ct 302 -310 312 -300 320 -288 ct 
328 -277 334 -264 339 -250 ct 276 -233 l  274 -240 270 -247 266 -254 ct 261 -261 255 -267 248 -272 ct 
241 -277 233 -281 223 -284 ct 213 -287 202 -289 190 -289 ct 173 -289 158 -286 146 -281 ct 
133 -275 123 -267 115 -257 ct 107 -247 101 -234 98 -220 ct 94 -205 92 -189 92 -171 ct 
92 -154 94 -138 98 -123 ct 101 -108 107 -95 115 -85 ct 123 -74 134 -66 146 -60 ct 
159 -54 174 -51 192 -51 ct p ef
683 -233 m  683 -218 680 -204 675 -190 ct 670 -177 663 -165 653 -154 ct 643 -144 630 -135 614 -129 ct 
599 -123 580 -120 559 -120 ct 474 -120 l  474 -1 l  403 -1 l  403 -340 l 
556 -340 l  577 -340 596 -338 612 -332 ct 628 -327 641 -320 652 -310 ct 662 -301 670 -290 675 -276 ct 
680 -263 683 -249 683 -233 ct p
611 -231 m  611 -249 606 -262 595 -271 ct 585 -280 569 -285 548 -285 ct 474 -285 l 
474 -175 l  550 -175 l  560 -175 569 -176 577 -179 ct 585 -182 591 -185 596 -190 ct 
601 -195 605 -201 607 -208 ct 610 -215 611 -223 611 -231 ct p ef
888 5 m  867 5 848 2 830 -3 ct 812 -8 797 -16 784 -26 ct 772 -37 762 -51 754 -67 ct 
747 -84 744 -104 744 -127 ct 744 -340 l  815 -340 l  815 -133 l  815 -119 817 -106 820 -96 ct 
824 -85 829 -77 835 -70 ct 842 -64 850 -59 859 -55 ct 869 -52 879 -51 890 -51 ct 
902 -51 913 -52 922 -56 ct 932 -59 940 -64 947 -71 ct 954 -78 960 -87 964 -97 ct 
968 -108 969 -121 969 -135 ct 969 -340 l  1041 -340 l  1041 -131 l  1041 -108 1037 -87 1029 -70 ct 
1022 -53 1011 -39 998 -28 ct 984 -17 968 -8 950 -3 ct 931 2 911 5 888 5 ct p ef
pom

pum
9204 1774 t
192 -51 m  205 -51 217 -53 226 -57 ct 236 -60 245 -65 252 -72 ct 259 -78 265 -85 270 -92 ct 
274 -100 278 -108 281 -116 ct 343 -92 l  338 -80 332 -68 324 -56 ct 316 -45 306 -34 294 -25 ct 
282 -16 267 -9 251 -3 ct 234 2 214 5 192 5 ct 162 5 137 1 115 -8 ct 94 -17 76 -29 62 -45 ct 
48 -61 37 -79 31 -101 ct 24 -122 20 -146 20 -171 ct 20 -198 24 -222 31 -243 ct 
37 -265 48 -283 62 -298 ct 75 -313 93 -325 114 -333 ct 135 -341 160 -345 189 -345 ct 
211 -345 230 -343 247 -338 ct 264 -333 278 -327 290 -318 ct 302 -310 312 -300 320 -288 ct 
328 -277 334 -264 339 -250 ct 276 -233 l  274 -240 270 -247 266 -254 ct 261 -261 255 -267 248 -272 ct 
241 -277 233 -281 223 -284 ct 213 -287 202 -289 190 -289 ct 173 -289 158 -286 146 -281 ct 
133 -275 123 -267 115 -257 ct 107 -247 101 -234 98 -220 ct 94 -205 92 -189 92 -171 ct 
92 -154 94 -138 98 -123 ct 101 -108 107 -95 115 -85 ct 123 -74 134 -66 146 -60 ct 
159 -54 174 -51 192 -51 ct p ef
683 -233 m  683 -218 680 -204 675 -190 ct 670 -177 663 -165 653 -154 ct 643 -144 630 -135 614 -129 ct 
599 -123 580 -120 559 -120 ct 474 -120 l  474 -1 l  403 -1 l  403 -340 l 
556 -340 l  577 -340 596 -338 612 -332 ct 628 -327 641 -320 652 -310 ct 662 -301 670 -290 675 -276 ct 
680 -263 683 -249 683 -233 ct p
611 -231 m  611 -249 606 -262 595 -271 ct 585 -280 569 -285 548 -285 ct 474 -285 l 
474 -175 l  550 -175 l  560 -175 569 -176 577 -179 ct 585 -182 591 -185 596 -190 ct 
601 -195 605 -201 607 -208 ct 610 -215 611 -223 611 -231 ct p ef
888 5 m  867 5 848 2 830 -3 ct 812 -8 797 -16 784 -26 ct 772 -37 762 -51 754 -67 ct 
747 -84 744 -104 744 -127 ct 744 -340 l  815 -340 l  815 -133 l  815 -119 817 -106 820 -96 ct 
824 -85 829 -77 835 -70 ct 842 -64 850 -59 859 -55 ct 869 -52 879 -51 890 -51 ct 
902 -51 913 -52 922 -56 ct 932 -59 940 -64 947 -71 ct 954 -78 960 -87 964 -97 ct 
968 -108 969 -121 969 -135 ct 969 -340 l  1041 -340 l  1041 -131 l  1041 -108 1037 -87 1029 -70 ct 
1022 -53 1011 -39 998 -28 ct 984 -17 968 -8 950 -3 ct 931 2 911 5 888 5 ct p ef
1257 -138 m  1257 -39 l  1202 -39 l  1202 -138 l  1106 -138 l  1106 -192 l 
1202 -192 l  1202 -290 l  1257 -290 l  1257 -192 l  1353 -192 l  1353 -138 l 
1257 -138 l  p ef
1570 -51 m  1581 -51 1591 -52 1600 -53 ct 1610 -55 1618 -57 1626 -60 ct 1635 -62 1642 -65 1648 -69 ct 
1655 -72 1660 -76 1664 -79 ct 1664 -126 l  1582 -126 l  1582 -179 l  1730 -179 l 
1730 -54 l  1722 -46 1713 -39 1702 -32 ct 1691 -24 1678 -18 1665 -13 ct 1651 -7 1636 -3 1620 0 ct 
1604 3 1587 5 1568 5 ct 1538 5 1513 1 1491 -8 ct 1469 -17 1451 -29 1437 -45 ct 
1423 -61 1413 -79 1406 -101 ct 1400 -122 1396 -146 1396 -171 ct 1396 -198 1400 -222 1407 -243 ct 
1414 -265 1425 -283 1439 -298 ct 1453 -313 1472 -325 1493 -333 ct 1515 -341 1541 -345 1570 -345 ct 
1592 -345 1611 -343 1627 -339 ct 1644 -335 1658 -329 1671 -321 ct 1683 -313 1694 -304 1702 -293 ct 
1711 -282 1717 -270 1722 -256 ct 1657 -237 l  1654 -244 1650 -250 1645 -257 ct 
1640 -263 1634 -269 1627 -273 ct 1620 -278 1612 -282 1602 -285 ct 1593 -288 1582 -289 1570 -289 ct 
1552 -289 1537 -286 1524 -281 ct 1511 -275 1501 -267 1493 -257 ct 1484 -247 1478 -234 1474 -220 ct 
1470 -205 1468 -189 1468 -171 ct 1468 -154 1470 -137 1474 -123 ct 1478 -108 1484 -95 1493 -85 ct 
1501 -74 1512 -66 1525 -60 ct 1538 -54 1553 -51 1570 -51 ct p ef
2086 -233 m  2086 -218 2083 -204 2078 -190 ct 2073 -177 2066 -165 2056 -154 ct 
2046 -144 2033 -135 2017 -129 ct 2002 -123 1983 -120 1962 -120 ct 1877 -120 l 
1877 -1 l  1806 -1 l  1806 -340 l  1959 -340 l  1980 -340 1999 -338 2015 -332 ct 
2031 -327 2044 -320 2055 -310 ct 2065 -301 2073 -290 2078 -276 ct 2083 -263 2086 -249 2086 -233 ct 
p
2014 -231 m  2014 -249 2009 -262 1998 -271 ct 1988 -280 1972 -285 1951 -285 ct 
1877 -285 l  1877 -175 l  1953 -175 l  1963 -175 1972 -176 1980 -179 ct 1988 -182 1994 -185 1999 -190 ct 
2004 -195 2008 -201 2010 -208 ct 2013 -215 2014 -223 2014 -231 ct p ef
2291 5 m  2270 5 2251 2 2233 -3 ct 2215 -8 2200 -16 2187 -26 ct 2175 -37 2165 -51 2157 -67 ct 
2150 -84 2147 -104 2147 -127 ct 2147 -340 l  2218 -340 l  2218 -133 l  2218 -119 2220 -106 2223 -96 ct 
2227 -85 2232 -77 2238 -70 ct 2245 -64 2253 -59 2262 -55 ct 2272 -52 2282 -51 2293 -51 ct 
2305 -51 2316 -52 2325 -56 ct 2335 -59 2343 -64 2350 -71 ct 2357 -78 2363 -87 2367 -97 ct 
2371 -108 2372 -121 2372 -135 ct 2372 -340 l  2444 -340 l  2444 -131 l  2444 -108 2440 -87 2432 -70 ct 
2425 -53 2414 -39 2401 -28 ct 2387 -17 2371 -8 2353 -3 ct 2334 2 2314 5 2291 5 ct 
p ef
pom

pum
7759 11759 t
267 0 m  188 -129 l  104 -129 l  104 0 l  33 0 l  33 -340 l  203 -340 l 
224 -340 243 -338 258 -333 ct 274 -328 288 -321 298 -313 ct 309 -304 317 -293 322 -281 ct 
327 -268 330 -254 330 -239 ct 330 -226 328 -214 324 -204 ct 320 -193 315 -184 308 -176 ct 
302 -167 294 -161 285 -155 ct 275 -149 265 -145 255 -143 ct 347 0 l  267 0 l 
p
258 -236 m  258 -252 253 -265 242 -273 ct 231 -281 215 -285 195 -285 ct 104 -285 l 
104 -184 l  197 -184 l  208 -184 217 -186 225 -188 ct 232 -191 239 -194 244 -199 ct 
248 -203 252 -209 254 -215 ct 257 -221 258 -228 258 -236 ct p ef
511 5 m  493 5 476 2 461 -3 ct 446 -9 433 -17 422 -29 ct 411 -40 403 -54 398 -71 ct 
392 -89 389 -109 389 -132 ct 389 -157 393 -177 399 -195 ct 406 -212 415 -225 426 -236 ct 
438 -246 451 -254 466 -259 ct 480 -263 496 -266 512 -266 ct 533 -266 550 -262 565 -255 ct 
580 -248 592 -238 601 -225 ct 610 -212 617 -197 621 -179 ct 626 -161 628 -141 628 -119 ct 
628 -118 l  460 -118 l  460 -107 461 -96 463 -87 ct 465 -78 468 -69 473 -63 ct 
477 -56 483 -50 490 -46 ct 497 -42 505 -40 515 -40 ct 527 -40 536 -43 544 -48 ct 
551 -53 557 -61 560 -72 ct 624 -66 l  621 -59 617 -51 612 -42 ct 607 -34 600 -26 591 -19 ct 
582 -12 571 -6 559 -2 ct 546 3 530 5 511 5 ct p
511 -223 m  504 -223 498 -222 492 -220 ct 486 -217 481 -214 476 -208 ct 472 -203 468 -197 466 -189 ct 
463 -181 461 -171 461 -160 ct 562 -160 l  561 -181 556 -197 547 -207 ct 538 -218 526 -223 511 -223 ct 
p ef
915 -76 m  915 -64 913 -52 908 -42 ct 902 -32 895 -24 885 -17 ct 875 -10 863 -4 848 -1 ct 
834 3 817 5 799 5 ct 782 5 767 4 754 1 ct 741 -1 729 -5 719 -11 ct 709 -16 700 -23 694 -32 ct 
687 -41 682 -52 678 -65 ct 738 -74 l  740 -67 743 -61 746 -56 ct 749 -52 753 -48 758 -46 ct 
763 -44 769 -42 776 -41 ct 783 -40 790 -40 799 -40 ct 806 -40 814 -40 820 -41 ct 
827 -42 833 -44 838 -46 ct 843 -48 846 -51 849 -55 ct 852 -59 853 -64 853 -70 ct 
853 -77 851 -82 847 -86 ct 843 -90 838 -93 831 -96 ct 824 -98 816 -100 807 -102 ct 
798 -104 788 -106 778 -108 ct 767 -111 756 -114 745 -117 ct 735 -121 725 -125 717 -131 ct 
708 -137 702 -144 696 -153 ct 691 -162 689 -173 689 -187 ct 689 -199 691 -210 696 -220 ct 
701 -230 708 -238 717 -245 ct 727 -252 738 -257 752 -261 ct 766 -264 781 -266 799 -266 ct 
813 -266 827 -265 839 -262 ct 851 -260 862 -255 872 -250 ct 881 -244 889 -237 896 -228 ct 
902 -219 907 -208 909 -196 ct 849 -189 l  848 -196 846 -201 843 -205 ct 840 -209 837 -212 833 -215 ct 
828 -217 823 -219 818 -220 ct 812 -221 806 -221 799 -221 ct 783 -221 771 -219 763 -215 ct 
755 -211 751 -204 751 -194 ct 751 -188 753 -183 756 -180 ct 759 -176 764 -173 770 -171 ct 
776 -169 783 -167 791 -165 ct 800 -163 809 -161 819 -159 ct 831 -156 842 -153 854 -150 ct 
866 -146 876 -142 885 -136 ct 894 -130 902 -122 907 -112 ct 913 -103 915 -91 915 -76 ct 
p ef
1235 -131 m  1235 -111 1233 -92 1227 -76 ct 1222 -59 1213 -45 1202 -33 ct 1191 -21 1177 -12 1161 -5 ct 
1144 2 1125 5 1103 5 ct 1082 5 1063 2 1047 -5 ct 1030 -12 1017 -21 1006 -33 ct 
995 -45 986 -59 981 -76 ct 975 -92 972 -111 972 -131 ct 972 -150 975 -168 980 -185 ct 
986 -201 994 -216 1005 -228 ct 1016 -240 1030 -249 1046 -256 ct 1063 -263 1082 -266 1104 -266 ct 
1128 -266 1148 -263 1164 -256 ct 1181 -249 1194 -240 1205 -228 ct 1215 -216 1223 -201 1228 -185 ct 
1233 -168 1235 -150 1235 -131 ct p
1165 -131 m  1165 -162 1159 -184 1149 -198 ct 1139 -212 1125 -219 1105 -219 ct 
1085 -219 1070 -212 1059 -198 ct 1049 -184 1043 -162 1043 -131 ct 1043 -115 1045 -102 1048 -90 ct 
1050 -79 1054 -70 1060 -63 ct 1065 -55 1071 -50 1078 -47 ct 1085 -43 1093 -41 1102 -41 ct 
1112 -41 1121 -43 1129 -47 ct 1137 -50 1143 -55 1148 -63 ct 1154 -70 1158 -79 1160 -90 ct 
1163 -102 1165 -115 1165 -131 ct p ef
1305 0 m  1305 -358 l  1372 -358 l  1372 0 l  1305 0 l  p ef
1500 -261 m  1500 -114 l  1500 -104 1501 -95 1503 -87 ct 1504 -78 1507 -71 1511 -65 ct 
1514 -59 1519 -54 1525 -51 ct 1531 -47 1538 -46 1547 -46 ct 1555 -46 1562 -48 1569 -51 ct 
1576 -55 1581 -60 1586 -67 ct 1591 -73 1595 -81 1598 -90 ct 1600 -100 1601 -110 1601 -121 ct 
1601 -261 l  1669 -261 l  1669 -58 l  1669 -53 1669 -47 1669 -41 ct 1669 -35 1670 -29 1670 -24 ct 
1670 -18 1670 -14 1671 -9 ct 1671 -5 1671 -2 1671 0 ct 1607 0 l  1606 -2 1606 -5 1606 -9 ct 
1605 -13 1605 -18 1605 -23 ct 1605 -28 1604 -34 1604 -39 ct 1604 -44 1604 -48 1604 -52 ct 
1602 -52 l  1593 -32 1582 -18 1568 -9 ct 1554 0 1538 5 1519 5 ct 1503 5 1490 2 1479 -3 ct 
1468 -8 1459 -15 1452 -24 ct 1445 -33 1440 -43 1437 -56 ct 1434 -68 1433 -81 1433 -95 ct 
1433 -261 l  1500 -261 l  p ef
1821 5 m  1801 4 1786 -1 1775 -12 ct 1764 -23 1759 -39 1759 -61 ct 1759 -215 l 
1726 -215 l  1726 -261 l  1762 -261 l  1784 -322 l  1826 -322 l  1826 -261 l 
1876 -261 l  1876 -215 l  1826 -215 l  1826 -79 l  1826 -67 1829 -57 1833 -51 ct 
1838 -45 1846 -42 1856 -42 ct 1860 -42 1864 -43 1867 -43 ct 1871 -44 1874 -45 1878 -46 ct 
1878 -4 l  1870 -1 1861 1 1852 2 ct 1843 4 1832 4 1821 5 ct p ef
1914 -308 m  1914 -358 l  1981 -358 l  1981 -308 l  1914 -308 l  p
1914 0 m  1914 -261 l  1981 -261 l  1981 0 l  1914 0 l  p ef
2293 -131 m  2293 -111 2291 -92 2285 -76 ct 2280 -59 2271 -45 2260 -33 ct 2249 -21 2235 -12 2219 -5 ct 
2202 2 2183 5 2161 5 ct 2140 5 2121 2 2105 -5 ct 2088 -12 2075 -21 2064 -33 ct 
2053 -45 2044 -59 2039 -76 ct 2033 -92 2030 -111 2030 -131 ct 2030 -150 2033 -168 2038 -185 ct 
2044 -201 2052 -216 2063 -228 ct 2074 -240 2088 -249 2104 -256 ct 2121 -263 2140 -266 2162 -266 ct 
2186 -266 2206 -263 2222 -256 ct 2239 -249 2252 -240 2263 -228 ct 2273 -216 2281 -201 2286 -185 ct 
2291 -168 2293 -150 2293 -131 ct p
2223 -131 m  2223 -162 2217 -184 2207 -198 ct 2197 -212 2183 -219 2163 -219 ct 
2143 -219 2128 -212 2117 -198 ct 2107 -184 2101 -162 2101 -131 ct 2101 -115 2103 -102 2106 -90 ct 
2108 -79 2112 -70 2118 -63 ct 2123 -55 2129 -50 2136 -47 ct 2143 -43 2151 -41 2160 -41 ct 
2170 -41 2179 -43 2187 -47 ct 2195 -50 2201 -55 2206 -63 ct 2212 -70 2216 -79 2218 -90 ct 
2221 -102 2223 -115 2223 -131 ct p ef
2532 0 m  2532 -146 l  2532 -156 2531 -166 2529 -174 ct 2528 -183 2525 -190 2521 -196 ct 
2518 -202 2513 -207 2507 -210 ct 2501 -213 2494 -215 2485 -215 ct 2477 -215 2469 -213 2463 -210 ct 
2456 -206 2450 -201 2445 -194 ct 2441 -188 2437 -180 2434 -170 ct 2432 -161 2430 -151 2430 -140 ct 
2430 0 l  2363 0 l  2363 -203 l  2363 -208 2362 -214 2362 -220 ct 2362 -226 2362 -232 2362 -237 ct 
2362 -243 2361 -247 2361 -252 ct 2361 -256 2361 -259 2361 -261 ct 2425 -261 l 
2426 -259 2426 -256 2426 -252 ct 2427 -248 2427 -243 2427 -238 ct 2427 -232 2428 -227 2428 -222 ct 
2428 -217 2428 -213 2428 -209 ct 2429 -209 l  2438 -229 2450 -243 2464 -252 ct 
2478 -261 2494 -266 2513 -266 ct 2529 -266 2542 -263 2553 -258 ct 2564 -253 2573 -246 2580 -237 ct 
2587 -228 2591 -217 2595 -205 ct 2598 -193 2599 -180 2599 -166 ct 2599 0 l  2532 0 l 
p ef
pom

pum
599 8512 t
90.0 r 33 0 m  33 -340 l  300 -340 l  300 -285 l  104 -285 l  104 -200 l 
286 -200 l  286 -145 l  104 -145 l  104 -55 l  310 -55 l  310 0 l  33 0 l 
p ef
542 0 m  481 -95 l  420 0 l  347 0 l  443 -135 l  352 -261 l  425 -261 l 
481 -176 l  536 -261 l  610 -261 l  519 -136 l  615 0 l  542 0 l  p ef
776 5 m  758 5 741 2 726 -3 ct 711 -9 698 -17 687 -29 ct 676 -40 668 -54 663 -71 ct 
657 -89 654 -109 654 -132 ct 654 -157 658 -177 664 -195 ct 671 -212 680 -225 691 -236 ct 
703 -246 716 -254 731 -259 ct 745 -263 761 -266 777 -266 ct 798 -266 815 -262 830 -255 ct 
845 -248 857 -238 866 -225 ct 875 -212 882 -197 886 -179 ct 891 -161 893 -141 893 -119 ct 
893 -118 l  725 -118 l  725 -107 726 -96 728 -87 ct 730 -78 733 -69 738 -63 ct 
742 -56 748 -50 755 -46 ct 762 -42 770 -40 780 -40 ct 792 -40 801 -43 809 -48 ct 
816 -53 822 -61 825 -72 ct 889 -66 l  886 -59 882 -51 877 -42 ct 872 -34 865 -26 856 -19 ct 
847 -12 836 -6 824 -2 ct 811 3 795 5 776 5 ct p
776 -223 m  769 -223 763 -222 757 -220 ct 751 -217 746 -214 741 -208 ct 737 -203 733 -197 731 -189 ct 
728 -181 726 -171 726 -160 ct 827 -160 l  826 -181 821 -197 812 -207 ct 803 -218 791 -223 776 -223 ct 
p ef
1069 5 m  1049 5 1030 2 1015 -5 ct 999 -11 986 -20 976 -32 ct 966 -44 958 -58 953 -74 ct 
948 -91 945 -109 945 -129 ct 945 -151 948 -170 954 -187 ct 959 -204 967 -218 978 -230 ct 
989 -242 1002 -251 1017 -257 ct 1033 -263 1050 -266 1070 -266 ct 1087 -266 1102 -264 1115 -259 ct 
1128 -255 1140 -248 1149 -240 ct 1159 -232 1166 -223 1172 -212 ct 1178 -201 1182 -190 1184 -177 ct 
1116 -177 l  1114 -190 1109 -200 1102 -208 ct 1094 -216 1083 -219 1069 -219 ct 
1051 -219 1037 -212 1029 -197 ct 1021 -182 1016 -160 1016 -132 ct 1016 -71 1034 -41 1070 -41 ct 
1083 -41 1093 -45 1102 -53 ct 1111 -61 1116 -73 1118 -88 ct 1186 -88 l  1185 -76 1181 -64 1175 -53 ct 
1170 -42 1162 -32 1152 -23 ct 1142 -15 1131 -8 1117 -3 ct 1103 2 1087 5 1069 5 ct 
p ef
1315 -261 m  1315 -114 l  1315 -104 1316 -95 1318 -87 ct 1319 -78 1322 -71 1326 -65 ct 
1329 -59 1334 -54 1340 -51 ct 1346 -47 1353 -46 1362 -46 ct 1370 -46 1377 -48 1384 -51 ct 
1391 -55 1396 -60 1401 -67 ct 1406 -73 1410 -81 1413 -90 ct 1415 -100 1416 -110 1416 -121 ct 
1416 -261 l  1484 -261 l  1484 -58 l  1484 -53 1484 -47 1484 -41 ct 1484 -35 1485 -29 1485 -24 ct 
1485 -18 1485 -14 1486 -9 ct 1486 -5 1486 -2 1486 0 ct 1422 0 l  1421 -2 1421 -5 1421 -9 ct 
1420 -13 1420 -18 1420 -23 ct 1420 -28 1419 -34 1419 -39 ct 1419 -44 1419 -48 1419 -52 ct 
1417 -52 l  1408 -32 1397 -18 1383 -9 ct 1369 0 1353 5 1334 5 ct 1318 5 1305 2 1294 -3 ct 
1283 -8 1274 -15 1267 -24 ct 1260 -33 1255 -43 1252 -56 ct 1249 -68 1248 -81 1248 -95 ct 
1248 -261 l  1315 -261 l  p ef
1636 5 m  1616 4 1601 -1 1590 -12 ct 1579 -23 1574 -39 1574 -61 ct 1574 -215 l 
1541 -215 l  1541 -261 l  1577 -261 l  1599 -322 l  1641 -322 l  1641 -261 l 
1691 -261 l  1691 -215 l  1641 -215 l  1641 -79 l  1641 -67 1644 -57 1648 -51 ct 
1653 -45 1661 -42 1671 -42 ct 1675 -42 1679 -43 1682 -43 ct 1686 -44 1689 -45 1693 -46 ct 
1693 -4 l  1685 -1 1676 1 1667 2 ct 1658 4 1647 4 1636 5 ct p ef
1728 -308 m  1728 -358 l  1795 -358 l  1795 -308 l  1728 -308 l  p
1728 0 m  1728 -261 l  1795 -261 l  1795 0 l  1728 0 l  p ef
2108 -131 m  2108 -111 2106 -92 2100 -76 ct 2095 -59 2086 -45 2075 -33 ct 2064 -21 2050 -12 2034 -5 ct 
2017 2 1998 5 1976 5 ct 1955 5 1936 2 1920 -5 ct 1903 -12 1890 -21 1879 -33 ct 
1868 -45 1859 -59 1854 -76 ct 1848 -92 1845 -111 1845 -131 ct 1845 -150 1848 -168 1853 -185 ct 
1859 -201 1867 -216 1878 -228 ct 1889 -240 1903 -249 1919 -256 ct 1936 -263 1955 -266 1977 -266 ct 
2001 -266 2021 -263 2037 -256 ct 2054 -249 2067 -240 2078 -228 ct 2088 -216 2096 -201 2101 -185 ct 
2106 -168 2108 -150 2108 -131 ct p
2038 -131 m  2038 -162 2032 -184 2022 -198 ct 2012 -212 1998 -219 1978 -219 ct 
1958 -219 1943 -212 1932 -198 ct 1922 -184 1916 -162 1916 -131 ct 1916 -115 1918 -102 1921 -90 ct 
1923 -79 1927 -70 1933 -63 ct 1938 -55 1944 -50 1951 -47 ct 1958 -43 1966 -41 1975 -41 ct 
1985 -41 1994 -43 2002 -47 ct 2010 -50 2016 -55 2021 -63 ct 2027 -70 2031 -79 2033 -90 ct 
2036 -102 2038 -115 2038 -131 ct p ef
2347 0 m  2347 -146 l  2347 -156 2346 -166 2344 -174 ct 2343 -183 2340 -190 2336 -196 ct 
2333 -202 2328 -207 2322 -210 ct 2316 -213 2309 -215 2300 -215 ct 2292 -215 2284 -213 2278 -210 ct 
2271 -206 2265 -201 2260 -194 ct 2256 -188 2252 -180 2249 -170 ct 2247 -161 2245 -151 2245 -140 ct 
2245 0 l  2178 0 l  2178 -203 l  2178 -208 2177 -214 2177 -220 ct 2177 -226 2177 -232 2177 -237 ct 
2177 -243 2176 -247 2176 -252 ct 2176 -256 2176 -259 2176 -261 ct 2240 -261 l 
2241 -259 2241 -256 2241 -252 ct 2242 -248 2242 -243 2242 -238 ct 2242 -232 2243 -227 2243 -222 ct 
2243 -217 2243 -213 2243 -209 ct 2244 -209 l  2253 -229 2265 -243 2279 -252 ct 
2293 -261 2309 -266 2328 -266 ct 2344 -266 2357 -263 2368 -258 ct 2379 -253 2388 -246 2395 -237 ct 
2402 -228 2406 -217 2410 -205 ct 2413 -193 2414 -180 2414 -166 ct 2414 0 l  2347 0 l 
p ef
2779 -285 m  2779 0 l  2708 0 l  2708 -285 l  2599 -285 l  2599 -340 l 
2889 -340 l  2889 -285 l  2779 -285 l  p ef
2945 -308 m  2945 -358 l  3012 -358 l  3012 -308 l  2945 -308 l  p
2945 0 m  2945 -261 l  3012 -261 l  3012 0 l  2945 0 l  p ef
3231 0 m  3231 -146 l  3231 -156 3230 -166 3229 -174 ct 3228 -183 3225 -190 3222 -196 ct 
3219 -202 3215 -207 3210 -210 ct 3205 -213 3199 -215 3192 -215 ct 3185 -215 3178 -213 3173 -210 ct 
3167 -206 3162 -201 3158 -194 ct 3154 -188 3151 -180 3149 -170 ct 3146 -161 3145 -151 3145 -140 ct 
3145 0 l  3078 0 l  3078 -203 l  3078 -208 3077 -214 3077 -220 ct 3077 -226 3077 -232 3077 -237 ct 
3077 -243 3076 -247 3076 -252 ct 3076 -256 3076 -259 3076 -261 ct 3140 -261 l 
3141 -259 3141 -256 3141 -252 ct 3142 -248 3142 -243 3142 -238 ct 3142 -232 3143 -227 3143 -222 ct 
3143 -217 3143 -213 3143 -209 ct 3144 -209 l  3153 -229 3163 -243 3176 -252 ct 
3188 -261 3203 -266 3220 -266 ct 3240 -266 3256 -261 3268 -251 ct 3281 -242 3289 -228 3293 -209 ct 
3294 -209 l  3299 -220 3304 -229 3309 -236 ct 3315 -243 3321 -249 3327 -254 ct 
3334 -258 3341 -261 3348 -263 ct 3356 -265 3364 -266 3373 -266 ct 3388 -266 3400 -263 3410 -258 ct 
3420 -253 3428 -246 3434 -237 ct 3440 -228 3445 -217 3447 -205 ct 3450 -193 3452 -180 3452 -166 ct 
3452 0 l  3384 0 l  3384 -146 l  3384 -156 3384 -166 3382 -174 ct 3381 -183 3379 -190 3376 -196 ct 
3372 -202 3368 -207 3363 -210 ct 3358 -213 3352 -215 3345 -215 ct 3338 -215 3332 -213 3326 -210 ct 
3321 -206 3316 -202 3312 -195 ct 3308 -189 3305 -181 3302 -172 ct 3300 -164 3299 -154 3298 -143 ct 
3298 0 l  3231 0 l  p ef
3634 5 m  3616 5 3599 2 3584 -3 ct 3569 -9 3556 -17 3545 -29 ct 3534 -40 3526 -54 3521 -71 ct 
3515 -89 3512 -109 3512 -132 ct 3512 -157 3516 -177 3522 -195 ct 3529 -212 3538 -225 3549 -236 ct 
3561 -246 3574 -254 3589 -259 ct 3603 -263 3619 -266 3635 -266 ct 3656 -266 3673 -262 3688 -255 ct 
3703 -248 3715 -238 3724 -225 ct 3733 -212 3740 -197 3744 -179 ct 3749 -161 3751 -141 3751 -119 ct 
3751 -118 l  3583 -118 l  3583 -107 3584 -96 3586 -87 ct 3588 -78 3591 -69 3596 -63 ct 
3600 -56 3606 -50 3613 -46 ct 3620 -42 3628 -40 3638 -40 ct 3650 -40 3659 -43 3667 -48 ct 
3674 -53 3680 -61 3683 -72 ct 3747 -66 l  3744 -59 3740 -51 3735 -42 ct 3730 -34 3723 -26 3714 -19 ct 
3705 -12 3694 -6 3682 -2 ct 3669 3 3653 5 3634 5 ct p
3634 -223 m  3627 -223 3621 -222 3615 -220 ct 3609 -217 3604 -214 3599 -208 ct 
3595 -203 3591 -197 3589 -189 ct 3586 -181 3584 -171 3584 -160 ct 3685 -160 l 
3684 -181 3679 -197 3670 -207 ct 3661 -218 3649 -223 3634 -223 ct p ef
3880 103 m  3868 85 3857 67 3848 50 ct 3839 32 3832 14 3826 -5 ct 3820 -24 3816 -43 3813 -63 ct 
3810 -83 3809 -105 3809 -128 ct 3809 -151 3810 -172 3813 -192 ct 3816 -213 3820 -232 3826 -250 ct 
3832 -269 3839 -287 3848 -305 ct 3857 -322 3868 -340 3880 -358 ct 3948 -358 l 
3935 -339 3924 -321 3915 -303 ct 3906 -285 3898 -266 3892 -247 ct 3887 -229 3882 -210 3880 -190 ct 
3877 -170 3875 -149 3875 -128 ct 3875 -106 3877 -85 3880 -65 ct 3882 -45 3887 -26 3892 -8 ct 
3898 11 3906 29 3915 48 ct 3924 66 3935 84 3948 103 ct 3880 103 l  p ef
4196 -76 m  4196 -64 4194 -52 4189 -42 ct 4183 -32 4176 -24 4166 -17 ct 4156 -10 4144 -4 4129 -1 ct 
4115 3 4098 5 4080 5 ct 4063 5 4048 4 4035 1 ct 4022 -1 4010 -5 4000 -11 ct 3990 -16 3981 -23 3975 -32 ct 
3968 -41 3963 -52 3959 -65 ct 4019 -74 l  4021 -67 4024 -61 4027 -56 ct 4030 -52 4034 -48 4039 -46 ct 
4044 -44 4050 -42 4057 -41 ct 4064 -40 4071 -40 4080 -40 ct 4087 -40 4095 -40 4101 -41 ct 
4108 -42 4114 -44 4119 -46 ct 4124 -48 4127 -51 4130 -55 ct 4133 -59 4134 -64 4134 -70 ct 
4134 -77 4132 -82 4128 -86 ct 4124 -90 4119 -93 4112 -96 ct 4105 -98 4097 -100 4088 -102 ct 
4079 -104 4069 -106 4059 -108 ct 4048 -111 4037 -114 4026 -117 ct 4016 -121 4006 -125 3998 -131 ct 
3989 -137 3983 -144 3977 -153 ct 3972 -162 3970 -173 3970 -187 ct 3970 -199 3972 -210 3977 -220 ct 
3982 -230 3989 -238 3998 -245 ct 4008 -252 4019 -257 4033 -261 ct 4047 -264 4062 -266 4080 -266 ct 
4094 -266 4108 -265 4120 -262 ct 4132 -260 4143 -255 4153 -250 ct 4162 -244 4170 -237 4177 -228 ct 
4183 -219 4188 -208 4190 -196 ct 4130 -189 l  4129 -196 4127 -201 4124 -205 ct 
4121 -209 4118 -212 4114 -215 ct 4109 -217 4104 -219 4099 -220 ct 4093 -221 4087 -221 4080 -221 ct 
4064 -221 4052 -219 4044 -215 ct 4036 -211 4032 -204 4032 -194 ct 4032 -188 4034 -183 4037 -180 ct 
4040 -176 4045 -173 4051 -171 ct 4057 -169 4064 -167 4072 -165 ct 4081 -163 4090 -161 4100 -159 ct 
4112 -156 4123 -153 4135 -150 ct 4147 -146 4157 -142 4166 -136 ct 4175 -130 4183 -122 4188 -112 ct 
4194 -103 4196 -91 4196 -76 ct p ef
4374 5 m  4356 5 4339 2 4324 -3 ct 4309 -9 4296 -17 4285 -29 ct 4274 -40 4266 -54 4261 -71 ct 
4255 -89 4252 -109 4252 -132 ct 4252 -157 4256 -177 4262 -195 ct 4269 -212 4278 -225 4289 -236 ct 
4301 -246 4314 -254 4329 -259 ct 4343 -263 4359 -266 4375 -266 ct 4396 -266 4413 -262 4428 -255 ct 
4443 -248 4455 -238 4464 -225 ct 4473 -212 4480 -197 4484 -179 ct 4489 -161 4491 -141 4491 -119 ct 
4491 -118 l  4323 -118 l  4323 -107 4324 -96 4326 -87 ct 4328 -78 4331 -69 4336 -63 ct 
4340 -56 4346 -50 4353 -46 ct 4360 -42 4368 -40 4378 -40 ct 4390 -40 4399 -43 4407 -48 ct 
4414 -53 4420 -61 4423 -72 ct 4487 -66 l  4484 -59 4480 -51 4475 -42 ct 4470 -34 4463 -26 4454 -19 ct 
4445 -12 4434 -6 4422 -2 ct 4409 3 4393 5 4374 5 ct p
4374 -223 m  4367 -223 4361 -222 4355 -220 ct 4349 -217 4344 -214 4339 -208 ct 
4335 -203 4331 -197 4329 -189 ct 4326 -181 4324 -171 4324 -160 ct 4425 -160 l 
4424 -181 4419 -197 4410 -207 ct 4401 -218 4389 -223 4374 -223 ct p ef
4667 5 m  4647 5 4628 2 4613 -5 ct 4597 -11 4584 -20 4574 -32 ct 4564 -44 4556 -58 4551 -74 ct 
4546 -91 4543 -109 4543 -129 ct 4543 -151 4546 -170 4552 -187 ct 4557 -204 4565 -218 4576 -230 ct 
4587 -242 4600 -251 4615 -257 ct 4631 -263 4648 -266 4668 -266 ct 4685 -266 4700 -264 4713 -259 ct 
4726 -255 4738 -248 4747 -240 ct 4757 -232 4764 -223 4770 -212 ct 4776 -201 4780 -190 4782 -177 ct 
4714 -177 l  4712 -190 4707 -200 4700 -208 ct 4692 -216 4681 -219 4667 -219 ct 
4649 -219 4635 -212 4627 -197 ct 4619 -182 4614 -160 4614 -132 ct 4614 -71 4632 -41 4668 -41 ct 
4681 -41 4691 -45 4700 -53 ct 4709 -61 4714 -73 4716 -88 ct 4784 -88 l  4783 -76 4779 -64 4773 -53 ct 
4768 -42 4760 -32 4750 -23 ct 4740 -15 4729 -8 4715 -3 ct 4701 2 4685 5 4667 5 ct 
p ef
4815 103 m  4828 84 4839 66 4849 48 ct 4858 29 4865 11 4871 -8 ct 4877 -26 4881 -45 4884 -65 ct 
4887 -85 4888 -106 4888 -128 ct 4888 -149 4887 -170 4884 -190 ct 4881 -210 4877 -229 4871 -247 ct 
4865 -266 4858 -285 4849 -303 ct 4839 -321 4828 -339 4815 -358 ct 4883 -358 l 
4896 -340 4906 -322 4915 -305 ct 4924 -287 4932 -269 4938 -250 ct 4944 -232 4948 -213 4951 -192 ct 
4954 -172 4955 -151 4955 -128 ct 4955 -105 4954 -83 4951 -63 ct 4948 -43 4944 -24 4938 -5 ct 
4932 14 4924 32 4915 50 ct 4906 67 4896 85 4883 103 ct 4815 103 l  p ef
pom
gr
gs
0 0 m 17691 0 l 17691 12011 l 0 12011 l 0 0 l eoclip newpath
gr
gr
gr
gr
0 12012 t 
pom
count op_count sub {pop} repeat countdictstack dict_count sub {end} repeat b4_inc_state restore
%%PageTrailer
%%Trailer
%%EOF
