%!PS-Adobe-3.0 EPSF-3.0 
%%BoundingBox: 0 0 415 275
%%Pages: 0
%%Creator: LibreOffice 3.5
%%Title: none
%%CreationDate: none
%%LanguageLevel: 2
%%EndComments
%%BeginProlog
%%BeginResource: procset SDRes-Prolog 1.0 0
/b4_inc_state save def
/dict_count countdictstack def
/op_count count 1 sub def
userdict begin
0 setgray 0 setlinecap 1 setlinewidth 0 setlinejoin 10 setmiterlimit[] 0 setdash newpath
/languagelevel where {pop languagelevel 1 ne {false setstrokeadjust false setoverprint} if} if
/bdef {bind def} bind def
/c {setrgbcolor} bdef
/l {neg lineto} bdef
/rl {neg rlineto} bdef
/lc {setlinecap} bdef
/lj {setlinejoin} bdef
/lw {setlinewidth} bdef
/ml {setmiterlimit} bdef
/ld {setdash} bdef
/m {neg moveto} bdef
/ct {6 2 roll neg 6 2 roll neg 6 2 roll neg curveto} bdef
/r {rotate} bdef
/t {neg translate} bdef
/s {scale} bdef
/sw {show} bdef
/gs {gsave} bdef
/gr {grestore} bdef
/f {findfont dup length dict begin
{1 index /FID ne {def} {pop pop} ifelse} forall /Encoding ISOLatin1Encoding def
currentdict end /NFont exch definefont pop /NFont findfont} bdef
/p {closepath} bdef
/sf {scalefont setfont} bdef
/ef {eofill}bdef
/pc {closepath stroke}bdef
/ps {stroke}bdef
/pum {matrix currentmatrix}bdef
/pom {setmatrix}bdef
/bs {/aString exch def /nXOfs exch def /nWidth exch def currentpoint nXOfs 0 rmoveto pum nWidth aString stringwidth pop div 1 scale aString show pom moveto} bdef
%%EndResource
%%EndProlog
%%BeginSetup
%%EndSetup
%%Page: 1 1
%%BeginPageSetup
%%EndPageSetup
pum
0.02836 0.02838 s 
0 -9688 t
/tm matrix currentmatrix def
tm setmatrix
-2905 -1599 t 
1 1 s 

gs
tm setmatrix
0 0 t 
1 1 s 
gs
gs
0 0 m 14629 0 l 14629 9687 l 0 9687 l 0 0 l eoclip newpath
gs
0 0 m 14629 0 l 14629 9687 l 0 9687 l 0 0 l eoclip newpath
1.000 1.000 1.000 c 7315 9688 m  0 9688 l  0 0 l  14630 0 l  14630 9688 l 
7315 9688 l  p ef



0 lw 1 lj 0.703 0.703 0.703 c 7661 8634 m  1214 8634 l  1214 701 l  14108 701 l 
14108 8634 l  7661 8634 l  pc
14108 8633 m  1214 8633 l  ps
14108 7499 m  1214 7499 l  ps
14108 6366 m  1214 6366 l  ps
14108 5233 m  1214 5233 l  ps
14108 4099 m  1214 4099 l  ps
14108 2966 m  1214 2966 l  ps
14108 1833 m  1214 1833 l  ps
14108 700 m  1214 700 l  ps

1214 8783 m  1214 8633 l  ps
1214 8783 m  1214 8633 l  ps
5512 8783 m  5512 8633 l  ps
5512 8783 m  5512 8633 l  ps
9810 8783 m  9810 8633 l  ps
9810 8783 m  9810 8633 l  ps
14108 8783 m  14108 8633 l  ps
14108 8783 m  14108 8633 l  ps
1214 8633 m  14108 8633 l  ps
1064 8633 m  1214 8633 l  ps
1064 8633 m  1214 8633 l  ps
1064 7499 m  1214 7499 l  ps
1064 7499 m  1214 7499 l  ps
1064 6366 m  1214 6366 l  ps
1064 6366 m  1214 6366 l  ps
1064 5233 m  1214 5233 l  ps
1064 5233 m  1214 5233 l  ps
1064 4099 m  1214 4099 l  ps
1064 4099 m  1214 4099 l  ps
1064 2966 m  1214 2966 l  ps
1064 2966 m  1214 2966 l  ps
1064 1833 m  1214 1833 l  ps
1064 1833 m  1214 1833 l  ps
1064 700 m  1214 700 l  ps
1064 700 m  1214 700 l  ps
1214 8633 m  1214 700 l  ps
80 lw 0.003 0.273 0.527 c 1214 8498 m  5512 7892 l  9810 7117 l  14108 1195 l 
ps
1089 8373 m  1089 8623 l  1339 8623 l  1339 8373 l  1089 8373 l  p ef
0 lw 1089 8373 m  1089 8623 l  1339 8623 l  1339 8373 l  1089 8373 l  pc
5387 7767 m  5387 8017 l  5637 8017 l  5637 7767 l  5387 7767 l  p ef
5387 7767 m  5387 8017 l  5637 8017 l  5637 7767 l  5387 7767 l  pc
9685 6992 m  9685 7242 l  9935 7242 l  9935 6992 l  9685 6992 l  p ef
9685 6992 m  9685 7242 l  9935 7242 l  9935 6992 l  9685 6992 l  pc
13983 1070 m  13983 1320 l  14233 1320 l  14233 1070 l  13983 1070 l  p ef
13983 1070 m  13983 1320 l  14233 1320 l  14233 1070 l  13983 1070 l  pc
80 lw 1.000 0.261 0.058 c 1214 8295 m  5512 8198 l  9810 7999 l  14108 6723 l 
ps
1089 8295 m  1214 8420 l  1339 8295 l  1214 8170 l  1089 8295 l  p ef
0 lw 1089 8295 m  1214 8420 l  1339 8295 l  1214 8170 l  1089 8295 l  pc
5387 8198 m  5512 8323 l  5637 8198 l  5512 8073 l  5387 8198 l  p ef
5387 8198 m  5512 8323 l  5637 8198 l  5512 8073 l  5387 8198 l  pc
9685 7999 m  9810 8124 l  9935 7999 l  9810 7874 l  9685 7999 l  p ef
9685 7999 m  9810 8124 l  9935 7999 l  9810 7874 l  9685 7999 l  pc
13983 6723 m  14108 6848 l  14233 6723 l  14108 6598 l  13983 6723 l  p ef
13983 6723 m  14108 6848 l  14233 6723 l  14108 6598 l  13983 6723 l  pc

pum
806 9201 t
0.003 0.003 0.003 c 258 -122 m  258 -105 255 -89 251 -75 ct 247 -61 240 -49 232 -38 ct 
224 -27 213 -19 201 -12 ct 189 -5 175 -1 160 1 ct 162 9 165 15 168 20 ct 171 25 175 30 179 33 ct 
182 36 187 38 192 40 ct 196 42 202 42 208 42 ct 211 42 214 42 218 42 ct 222 41 225 41 227 40 ct 
227 63 l  223 64 218 65 213 66 ct 208 67 202 67 197 67 ct 187 67 178 66 171 63 ct 
163 60 157 55 151 50 ct 146 44 141 38 137 30 ct 133 22 129 12 126 2 ct 108 2 92 -1 79 -8 ct 
65 -14 53 -23 44 -34 ct 35 -45 28 -58 24 -73 ct 19 -88 17 -104 17 -122 ct 17 -141 19 -158 25 -173 ct 
30 -189 38 -202 48 -212 ct 58 -223 71 -231 86 -237 ct 101 -243 118 -246 137 -246 ct 
157 -246 174 -243 189 -237 ct 204 -231 216 -223 227 -212 ct 237 -201 244 -188 250 -173 ct 
255 -158 258 -141 258 -122 ct p
224 -122 m  224 -137 222 -150 218 -162 ct 215 -174 209 -184 202 -193 ct 195 -201 186 -208 175 -212 ct 
164 -217 152 -219 137 -219 ct 123 -219 110 -217 99 -212 ct 88 -208 79 -201 72 -193 ct 
65 -184 59 -174 56 -162 ct 52 -150 50 -137 50 -122 ct 50 -108 52 -94 56 -82 ct 
59 -70 65 -60 72 -51 ct 80 -42 89 -35 100 -30 ct 110 -25 123 -23 137 -23 ct 152 -23 165 -25 176 -30 ct 
187 -35 196 -42 203 -51 ct 210 -60 216 -70 219 -82 ct 222 -95 224 -108 224 -122 ct 
p ef
402 -220 m  388 -220 376 -218 365 -213 ct 354 -209 345 -202 338 -194 ct 331 -185 326 -175 322 -163 ct 
318 -151 316 -138 316 -123 ct 316 -108 318 -95 322 -83 ct 326 -71 332 -60 339 -52 ct 
347 -43 356 -36 367 -31 ct 377 -26 389 -24 403 -24 ct 412 -24 421 -25 429 -28 ct 
436 -30 443 -34 450 -38 ct 456 -43 462 -48 466 -54 ct 471 -60 476 -67 480 -75 ct 
506 -61 l  502 -52 497 -44 490 -36 ct 484 -28 476 -21 468 -15 ct 459 -10 449 -5 438 -2 ct 
427 1 415 3 401 3 ct 382 3 364 0 350 -6 ct 335 -13 323 -21 313 -33 ct 303 -44 295 -57 290 -73 ct 
285 -88 283 -105 283 -123 ct 283 -142 286 -159 291 -174 ct 296 -190 304 -203 314 -213 ct 
324 -224 336 -232 351 -238 ct 366 -244 382 -247 401 -247 ct 427 -247 449 -242 466 -232 ct 
483 -222 496 -207 504 -187 ct 473 -176 l  471 -182 468 -188 464 -193 ct 460 -198 455 -203 449 -207 ct 
443 -211 436 -214 428 -216 ct 421 -219 412 -220 402 -220 ct p ef
536 0 m  536 -243 l  569 -243 l  569 0 l  536 0 l  p ef
671 -216 m  671 -125 l  806 -125 l  806 -98 l  671 -98 l  671 1 l  638 1 l 
638 -243 l  811 -243 l  811 -216 l  671 -216 l  p ef
pom

pum
5011 9201 t
258 -122 m  258 -105 255 -89 251 -75 ct 247 -61 240 -49 232 -38 ct 224 -27 213 -19 201 -12 ct 
189 -5 175 -1 160 1 ct 162 9 165 15 168 20 ct 171 25 175 30 179 33 ct 182 36 187 38 192 40 ct 
196 42 202 42 208 42 ct 211 42 214 42 218 42 ct 222 41 225 41 227 40 ct 227 63 l 
223 64 218 65 213 66 ct 208 67 202 67 197 67 ct 187 67 178 66 171 63 ct 163 60 157 55 151 50 ct 
146 44 141 38 137 30 ct 133 22 129 12 126 2 ct 108 2 92 -1 79 -8 ct 65 -14 53 -23 44 -34 ct 
35 -45 28 -58 24 -73 ct 19 -88 17 -104 17 -122 ct 17 -141 19 -158 25 -173 ct 30 -189 38 -202 48 -212 ct 
58 -223 71 -231 86 -237 ct 101 -243 118 -246 137 -246 ct 157 -246 174 -243 189 -237 ct 
204 -231 216 -223 227 -212 ct 237 -201 244 -188 250 -173 ct 255 -158 258 -141 258 -122 ct 
p
224 -122 m  224 -137 222 -150 218 -162 ct 215 -174 209 -184 202 -193 ct 195 -201 186 -208 175 -212 ct 
164 -217 152 -219 137 -219 ct 123 -219 110 -217 99 -212 ct 88 -208 79 -201 72 -193 ct 
65 -184 59 -174 56 -162 ct 52 -150 50 -137 50 -122 ct 50 -108 52 -94 56 -82 ct 
59 -70 65 -60 72 -51 ct 80 -42 89 -35 100 -30 ct 110 -25 123 -23 137 -23 ct 152 -23 165 -25 176 -30 ct 
187 -35 196 -42 203 -51 ct 210 -60 216 -70 219 -82 ct 222 -95 224 -108 224 -122 ct 
p ef
400 0 m  366 0 l  267 -243 l  301 -243 l  368 -72 l  370 -67 372 -62 374 -56 ct 
375 -51 377 -47 378 -43 ct 380 -38 381 -33 383 -29 ct 384 -33 386 -38 387 -42 ct 
389 -46 390 -51 392 -56 ct 394 -61 395 -66 397 -72 ct 464 -243 l  499 -243 l 
400 0 l  p ef
521 -123 m  521 -142 523 -159 528 -174 ct 534 -190 541 -203 551 -213 ct 562 -224 574 -232 589 -238 ct 
604 -244 622 -247 642 -247 ct 657 -247 670 -246 681 -243 ct 692 -240 702 -237 710 -232 ct 
718 -227 725 -221 731 -214 ct 737 -207 742 -199 746 -190 ct 714 -180 l  712 -186 708 -192 704 -197 ct 
700 -202 694 -206 688 -209 ct 682 -213 676 -215 668 -217 ct 660 -219 651 -220 641 -220 ct 
626 -220 613 -218 602 -213 ct 592 -209 583 -202 575 -194 ct 568 -185 563 -175 559 -163 ct 
556 -151 554 -138 554 -123 ct 554 -108 556 -95 560 -83 ct 564 -71 569 -60 577 -52 ct 
584 -43 594 -36 605 -31 ct 616 -26 629 -24 643 -24 ct 653 -24 661 -25 670 -26 ct 
678 -28 685 -30 691 -32 ct 698 -35 704 -38 708 -41 ct 713 -44 718 -47 721 -51 ct 
721 -94 l  648 -94 l  648 -122 l  751 -122 l  751 -38 l  746 -33 739 -27 732 -22 ct 
725 -17 717 -13 708 -9 ct 699 -5 689 -2 678 0 ct 667 2 655 3 643 3 ct 623 3 605 0 590 -6 ct 
574 -13 562 -21 551 -33 ct 541 -44 534 -57 528 -73 ct 523 -88 521 -105 521 -123 ct 
p ef
968 0 m  940 -71 l  830 -71 l  802 0 l  768 0 l  867 -243 l  904 -243 l 
1002 0 l  968 0 l  p
899 -177 m  898 -182 896 -186 894 -191 ct 892 -196 891 -200 890 -204 ct 888 -208 887 -211 887 -213 ct 
886 -216 885 -218 885 -218 ct 885 -218 884 -216 884 -213 ct 883 -211 882 -207 880 -203 ct 
879 -200 878 -195 876 -191 ct 874 -186 872 -181 871 -177 ct 840 -97 l  931 -97 l 
899 -177 l  p ef
pom

pum
9440 9201 t
135 0 m  101 0 l  2 -243 l  36 -243 l  103 -72 l  105 -67 107 -62 109 -56 ct 
110 -51 112 -47 113 -43 ct 115 -38 116 -33 118 -29 ct 119 -33 121 -38 122 -42 ct 
124 -46 125 -51 127 -56 ct 129 -61 130 -66 132 -72 ct 199 -243 l  234 -243 l 
135 0 l  p ef
256 -123 m  256 -142 258 -159 263 -174 ct 269 -190 276 -203 286 -213 ct 297 -224 309 -232 324 -238 ct 
339 -244 357 -247 377 -247 ct 392 -247 405 -246 416 -243 ct 427 -240 437 -237 445 -232 ct 
453 -227 460 -221 466 -214 ct 472 -207 477 -199 481 -190 ct 449 -180 l  447 -186 443 -192 439 -197 ct 
435 -202 429 -206 423 -209 ct 417 -213 411 -215 403 -217 ct 395 -219 386 -220 376 -220 ct 
361 -220 348 -218 337 -213 ct 327 -209 318 -202 310 -194 ct 303 -185 298 -175 294 -163 ct 
291 -151 289 -138 289 -123 ct 289 -108 291 -95 295 -83 ct 299 -71 304 -60 312 -52 ct 
319 -43 329 -36 340 -31 ct 351 -26 364 -24 378 -24 ct 388 -24 396 -25 405 -26 ct 
413 -28 420 -30 426 -32 ct 433 -35 439 -38 443 -41 ct 448 -44 453 -47 456 -51 ct 
456 -94 l  383 -94 l  383 -122 l  486 -122 l  486 -38 l  481 -33 474 -27 467 -22 ct 
460 -17 452 -13 443 -9 ct 434 -5 424 -2 413 0 ct 402 2 390 3 378 3 ct 358 3 340 0 325 -6 ct 
309 -13 297 -21 286 -33 ct 276 -44 269 -57 263 -73 ct 258 -88 256 -105 256 -123 ct 
p ef
704 0 m  676 -71 l  566 -71 l  538 0 l  504 0 l  603 -243 l  640 -243 l 
738 0 l  704 0 l  p
635 -177 m  634 -182 632 -186 630 -191 ct 628 -196 627 -200 626 -204 ct 624 -208 623 -211 623 -213 ct 
622 -216 621 -218 621 -218 ct 621 -218 620 -216 620 -213 ct 619 -211 618 -207 616 -203 ct 
615 -200 614 -195 612 -191 ct 610 -186 608 -181 607 -177 ct 576 -97 l  667 -97 l 
635 -177 l  p ef
pom

pum
13738 9201 t
192 0 m  119 -106 l  44 0 l  8 0 l  100 -126 l  15 -243 l  51 -243 l  119 -148 l 
185 -243 l  221 -243 l  138 -127 l  228 0 l  192 0 l  p ef
256 -123 m  256 -142 258 -159 263 -174 ct 269 -190 276 -203 286 -213 ct 297 -224 309 -232 324 -238 ct 
339 -244 357 -247 377 -247 ct 392 -247 405 -246 416 -243 ct 427 -240 437 -237 445 -232 ct 
453 -227 460 -221 466 -214 ct 472 -207 477 -199 481 -190 ct 449 -180 l  447 -186 443 -192 439 -197 ct 
435 -202 429 -206 423 -209 ct 417 -213 411 -215 403 -217 ct 395 -219 386 -220 376 -220 ct 
361 -220 348 -218 337 -213 ct 327 -209 318 -202 310 -194 ct 303 -185 298 -175 294 -163 ct 
291 -151 289 -138 289 -123 ct 289 -108 291 -95 295 -83 ct 299 -71 304 -60 312 -52 ct 
319 -43 329 -36 340 -31 ct 351 -26 364 -24 378 -24 ct 388 -24 396 -25 405 -26 ct 
413 -28 420 -30 426 -32 ct 433 -35 439 -38 443 -41 ct 448 -44 453 -47 456 -51 ct 
456 -94 l  383 -94 l  383 -122 l  486 -122 l  486 -38 l  481 -33 474 -27 467 -22 ct 
460 -17 452 -13 443 -9 ct 434 -5 424 -2 413 0 ct 402 2 390 3 378 3 ct 358 3 340 0 325 -6 ct 
309 -13 297 -21 286 -33 ct 276 -44 269 -57 263 -73 ct 258 -88 256 -105 256 -123 ct 
p ef
704 0 m  676 -71 l  566 -71 l  538 0 l  504 0 l  603 -243 l  640 -243 l 
738 0 l  704 0 l  p
635 -177 m  634 -182 632 -186 630 -191 ct 628 -196 627 -200 626 -204 ct 624 -208 623 -211 623 -213 ct 
622 -216 621 -218 621 -218 ct 621 -218 620 -216 620 -213 ct 619 -211 618 -207 616 -203 ct 
615 -200 614 -195 612 -191 ct 610 -186 608 -181 607 -177 ct 576 -97 l  667 -97 l 
635 -177 l  p ef
pom

pum
780 8754 t
183 -122 m  183 -99 180 -79 176 -63 ct 171 -47 165 -34 158 -25 ct 150 -15 141 -8 131 -3 ct 
120 1 109 3 98 3 ct 86 3 75 1 65 -3 ct 54 -8 46 -15 38 -24 ct 30 -34 25 -47 20 -63 ct 
16 -79 14 -99 14 -122 ct 14 -146 16 -167 20 -183 ct 25 -199 31 -212 38 -221 ct 
46 -231 55 -237 65 -241 ct 75 -245 87 -247 99 -247 ct 110 -247 121 -245 131 -241 ct 
142 -237 150 -231 158 -221 ct 166 -212 172 -199 176 -183 ct 180 -167 183 -146 183 -122 ct 
p
151 -122 m  151 -141 150 -157 148 -170 ct 145 -183 142 -193 137 -201 ct 133 -209 127 -214 121 -217 ct 
114 -220 107 -222 99 -222 ct 90 -222 82 -220 76 -217 ct 69 -214 63 -208 59 -201 ct 
54 -193 51 -183 49 -170 ct 46 -157 45 -141 45 -122 ct 45 -103 46 -88 49 -75 ct 
51 -62 54 -52 59 -44 ct 64 -36 69 -31 76 -27 ct 82 -24 90 -22 98 -22 ct 106 -22 114 -24 120 -27 ct 
127 -31 132 -36 137 -44 ct 141 -52 145 -62 147 -75 ct 150 -88 151 -103 151 -122 ct 
p ef
pom

pum
489 7620 t
183 -122 m  183 -99 180 -79 176 -63 ct 171 -47 165 -34 158 -25 ct 150 -15 141 -8 131 -3 ct 
120 1 109 3 98 3 ct 86 3 75 1 65 -3 ct 54 -8 46 -15 38 -24 ct 30 -34 25 -47 20 -63 ct 
16 -79 14 -99 14 -122 ct 14 -146 16 -167 20 -183 ct 25 -199 31 -212 38 -221 ct 
46 -231 55 -237 65 -241 ct 75 -245 87 -247 99 -247 ct 110 -247 121 -245 131 -241 ct 
142 -237 150 -231 158 -221 ct 166 -212 172 -199 176 -183 ct 180 -167 183 -146 183 -122 ct 
p
151 -122 m  151 -141 150 -157 148 -170 ct 145 -183 142 -193 137 -201 ct 133 -209 127 -214 121 -217 ct 
114 -220 107 -222 99 -222 ct 90 -222 82 -220 76 -217 ct 69 -214 63 -208 59 -201 ct 
54 -193 51 -183 49 -170 ct 46 -157 45 -141 45 -122 ct 45 -103 46 -88 49 -75 ct 
51 -62 54 -52 59 -44 ct 64 -36 69 -31 76 -27 ct 82 -24 90 -22 98 -22 ct 106 -22 114 -24 120 -27 ct 
127 -31 132 -36 137 -44 ct 141 -52 145 -62 147 -75 ct 150 -88 151 -103 151 -122 ct 
p ef
217 0 m  217 -38 l  251 -38 l  251 0 l  217 0 l  p ef
309 0 m  309 -22 l  315 -35 322 -47 330 -58 ct 339 -68 348 -77 357 -85 ct 366 -94 375 -101 385 -109 ct 
394 -116 402 -123 409 -130 ct 417 -137 423 -145 427 -152 ct 432 -160 434 -169 434 -179 ct 
434 -186 433 -192 431 -197 ct 429 -202 426 -207 422 -210 ct 418 -214 413 -217 408 -218 ct 
402 -220 396 -221 390 -221 ct 383 -221 378 -220 372 -218 ct 367 -217 362 -214 358 -211 ct 
353 -207 350 -203 347 -198 ct 344 -193 343 -187 342 -180 ct 310 -183 l  311 -192 314 -200 317 -208 ct 
321 -215 326 -222 333 -228 ct 340 -234 348 -238 357 -242 ct 366 -245 377 -247 390 -247 ct 
402 -247 412 -245 422 -242 ct 431 -239 439 -235 446 -229 ct 452 -224 457 -217 461 -209 ct 
464 -200 466 -191 466 -180 ct 466 -172 464 -164 461 -157 ct 458 -149 455 -142 450 -136 ct 
445 -129 439 -123 433 -116 ct 426 -110 420 -104 413 -98 ct 406 -92 398 -86 391 -81 ct 
384 -75 378 -69 371 -63 ct 365 -57 359 -51 354 -45 ct 349 -39 346 -33 343 -26 ct 
470 -26 l  470 0 l  309 0 l  p ef
pom

pum
489 6487 t
183 -122 m  183 -99 180 -79 176 -63 ct 171 -47 165 -34 158 -25 ct 150 -15 141 -8 131 -3 ct 
120 1 109 3 98 3 ct 86 3 75 1 65 -3 ct 54 -8 46 -15 38 -24 ct 30 -34 25 -47 20 -63 ct 
16 -79 14 -99 14 -122 ct 14 -146 16 -167 20 -183 ct 25 -199 31 -212 38 -221 ct 
46 -231 55 -237 65 -241 ct 75 -245 87 -247 99 -247 ct 110 -247 121 -245 131 -241 ct 
142 -237 150 -231 158 -221 ct 166 -212 172 -199 176 -183 ct 180 -167 183 -146 183 -122 ct 
p
151 -122 m  151 -141 150 -157 148 -170 ct 145 -183 142 -193 137 -201 ct 133 -209 127 -214 121 -217 ct 
114 -220 107 -222 99 -222 ct 90 -222 82 -220 76 -217 ct 69 -214 63 -208 59 -201 ct 
54 -193 51 -183 49 -170 ct 46 -157 45 -141 45 -122 ct 45 -103 46 -88 49 -75 ct 
51 -62 54 -52 59 -44 ct 64 -36 69 -31 76 -27 ct 82 -24 90 -22 98 -22 ct 106 -22 114 -24 120 -27 ct 
127 -31 132 -36 137 -44 ct 141 -52 145 -62 147 -75 ct 150 -88 151 -103 151 -122 ct 
p ef
217 0 m  217 -38 l  251 -38 l  251 0 l  217 0 l  p ef
443 -55 m  443 0 l  414 0 l  414 -55 l  299 -55 l  299 -79 l  410 -243 l 
443 -243 l  443 -79 l  477 -79 l  477 -55 l  443 -55 l  p
414 -208 m  413 -207 413 -206 412 -205 ct 411 -203 410 -201 409 -199 ct 408 -197 406 -195 405 -193 ct 
404 -191 403 -189 402 -187 ct 340 -96 l  339 -95 338 -94 337 -92 ct 336 -91 335 -89 334 -88 ct 
333 -86 332 -84 330 -83 ct 329 -81 328 -80 328 -79 ct 414 -79 l  414 -208 l 
p ef
pom

pum
489 5354 t
183 -122 m  183 -99 180 -79 176 -63 ct 171 -47 165 -34 158 -25 ct 150 -15 141 -8 131 -3 ct 
120 1 109 3 98 3 ct 86 3 75 1 65 -3 ct 54 -8 46 -15 38 -24 ct 30 -34 25 -47 20 -63 ct 
16 -79 14 -99 14 -122 ct 14 -146 16 -167 20 -183 ct 25 -199 31 -212 38 -221 ct 
46 -231 55 -237 65 -241 ct 75 -245 87 -247 99 -247 ct 110 -247 121 -245 131 -241 ct 
142 -237 150 -231 158 -221 ct 166 -212 172 -199 176 -183 ct 180 -167 183 -146 183 -122 ct 
p
151 -122 m  151 -141 150 -157 148 -170 ct 145 -183 142 -193 137 -201 ct 133 -209 127 -214 121 -217 ct 
114 -220 107 -222 99 -222 ct 90 -222 82 -220 76 -217 ct 69 -214 63 -208 59 -201 ct 
54 -193 51 -183 49 -170 ct 46 -157 45 -141 45 -122 ct 45 -103 46 -88 49 -75 ct 
51 -62 54 -52 59 -44 ct 64 -36 69 -31 76 -27 ct 82 -24 90 -22 98 -22 ct 106 -22 114 -24 120 -27 ct 
127 -31 132 -36 137 -44 ct 141 -52 145 -62 147 -75 ct 150 -88 151 -103 151 -122 ct 
p ef
217 0 m  217 -38 l  251 -38 l  251 0 l  217 0 l  p ef
472 -80 m  472 -68 470 -57 467 -47 ct 463 -36 458 -28 452 -20 ct 445 -13 437 -7 427 -3 ct 
417 1 406 3 393 3 ct 379 3 367 0 356 -5 ct 346 -11 337 -18 330 -28 ct 323 -39 318 -51 314 -66 ct 
311 -81 309 -97 309 -116 ct 309 -138 311 -157 315 -173 ct 319 -190 325 -203 332 -214 ct 
339 -225 349 -233 359 -239 ct 370 -244 382 -247 396 -247 ct 404 -247 412 -246 419 -244 ct 
426 -243 433 -240 439 -236 ct 445 -232 450 -227 454 -221 ct 459 -215 462 -207 465 -198 ct 
435 -192 l  432 -203 427 -210 420 -215 ct 413 -220 405 -222 395 -222 ct 387 -222 379 -220 372 -216 ct 
365 -212 360 -206 355 -198 ct 350 -190 346 -180 344 -168 ct 341 -156 340 -142 340 -126 ct 
345 -136 353 -144 364 -150 ct 374 -155 386 -158 399 -158 ct 410 -158 420 -156 429 -153 ct 
438 -149 445 -144 452 -137 ct 458 -130 463 -122 467 -113 ct 470 -103 472 -92 472 -80 ct 
p
440 -79 m  440 -87 439 -95 437 -102 ct 435 -108 432 -114 428 -119 ct 424 -124 419 -128 413 -130 ct 
406 -133 399 -134 391 -134 ct 386 -134 380 -133 374 -131 ct 369 -130 363 -127 359 -123 ct 
354 -120 350 -115 347 -109 ct 344 -102 343 -95 343 -86 ct 343 -77 344 -69 346 -61 ct 
349 -53 352 -46 356 -41 ct 361 -35 366 -30 372 -27 ct 378 -24 385 -22 392 -22 ct 
400 -22 407 -23 412 -26 ct 418 -29 423 -32 428 -37 ct 432 -42 435 -48 437 -55 ct 
439 -62 440 -70 440 -79 ct p ef
pom

pum
489 4221 t
183 -122 m  183 -99 180 -79 176 -63 ct 171 -47 165 -34 158 -25 ct 150 -15 141 -8 131 -3 ct 
120 1 109 3 98 3 ct 86 3 75 1 65 -3 ct 54 -8 46 -15 38 -24 ct 30 -34 25 -47 20 -63 ct 
16 -79 14 -99 14 -122 ct 14 -146 16 -167 20 -183 ct 25 -199 31 -212 38 -221 ct 
46 -231 55 -237 65 -241 ct 75 -245 87 -247 99 -247 ct 110 -247 121 -245 131 -241 ct 
142 -237 150 -231 158 -221 ct 166 -212 172 -199 176 -183 ct 180 -167 183 -146 183 -122 ct 
p
151 -122 m  151 -141 150 -157 148 -170 ct 145 -183 142 -193 137 -201 ct 133 -209 127 -214 121 -217 ct 
114 -220 107 -222 99 -222 ct 90 -222 82 -220 76 -217 ct 69 -214 63 -208 59 -201 ct 
54 -193 51 -183 49 -170 ct 46 -157 45 -141 45 -122 ct 45 -103 46 -88 49 -75 ct 
51 -62 54 -52 59 -44 ct 64 -36 69 -31 76 -27 ct 82 -24 90 -22 98 -22 ct 106 -22 114 -24 120 -27 ct 
127 -31 132 -36 137 -44 ct 141 -52 145 -62 147 -75 ct 150 -88 151 -103 151 -122 ct 
p ef
217 0 m  217 -38 l  251 -38 l  251 0 l  217 0 l  p ef
472 -68 m  472 -58 470 -48 467 -40 ct 464 -31 459 -24 452 -17 ct 445 -11 437 -6 426 -2 ct 
416 1 404 3 389 3 ct 375 3 363 1 352 -2 ct 342 -6 333 -11 326 -17 ct 320 -23 315 -31 311 -40 ct 
308 -48 306 -58 306 -68 ct 306 -77 308 -85 310 -92 ct 313 -98 317 -104 321 -109 ct 
326 -114 331 -118 337 -121 ct 343 -125 349 -127 355 -128 ct 355 -128 l  348 -130 342 -132 337 -136 ct 
331 -140 327 -144 323 -149 ct 320 -154 317 -159 315 -166 ct 313 -172 312 -178 312 -185 ct 
312 -193 314 -201 317 -209 ct 320 -216 325 -223 332 -229 ct 338 -234 346 -239 355 -242 ct 
365 -245 376 -247 389 -247 ct 402 -247 413 -245 423 -242 ct 433 -239 441 -234 447 -228 ct 
453 -223 458 -216 461 -209 ct 464 -201 466 -193 466 -184 ct 466 -178 465 -171 463 -165 ct 
461 -159 458 -154 455 -149 ct 451 -144 447 -139 441 -136 ct 436 -132 430 -130 423 -129 ct 
423 -128 l  430 -127 436 -125 442 -122 ct 448 -119 453 -115 458 -110 ct 462 -105 466 -99 468 -92 ct 
471 -85 472 -77 472 -68 ct p
434 -183 m  434 -189 433 -194 431 -199 ct 430 -204 427 -209 424 -212 ct 420 -216 416 -219 410 -221 ct 
404 -223 397 -224 389 -224 ct 380 -224 374 -223 368 -221 ct 362 -219 358 -216 354 -212 ct 
350 -209 348 -204 346 -199 ct 345 -194 344 -189 344 -183 ct 344 -178 344 -173 346 -168 ct 
347 -163 349 -158 353 -154 ct 356 -150 360 -147 366 -144 ct 372 -141 380 -140 389 -140 ct 
399 -140 407 -141 412 -144 ct 418 -147 423 -150 426 -154 ct 429 -158 431 -163 432 -168 ct 
433 -173 434 -178 434 -183 ct p
440 -71 m  440 -77 439 -83 437 -88 ct 436 -94 433 -98 429 -103 ct 425 -107 420 -110 413 -113 ct 
407 -115 398 -117 389 -117 ct 379 -117 372 -115 365 -113 ct 359 -110 354 -107 350 -103 ct 
346 -98 343 -93 341 -88 ct 339 -82 338 -76 338 -70 ct 338 -63 339 -56 341 -50 ct 
343 -44 346 -39 350 -34 ct 354 -30 359 -26 366 -24 ct 372 -21 380 -20 390 -20 ct 
399 -20 407 -21 413 -24 ct 420 -26 425 -30 429 -34 ct 433 -39 436 -44 437 -50 ct 
439 -56 440 -63 440 -71 ct p ef
pom

pum
780 3088 t
27 0 m  27 -26 l  89 -26 l  89 -213 l  34 -174 l  34 -204 l  91 -243 l 
120 -243 l  120 -26 l  179 -26 l  179 0 l  27 0 l  p ef
pom

pum
489 1955 t
27 0 m  27 -26 l  89 -26 l  89 -213 l  34 -174 l  34 -204 l  91 -243 l 
120 -243 l  120 -26 l  179 -26 l  179 0 l  27 0 l  p ef
217 0 m  217 -38 l  251 -38 l  251 0 l  217 0 l  p ef
309 0 m  309 -22 l  315 -35 322 -47 330 -58 ct 339 -68 348 -77 357 -85 ct 366 -94 375 -101 385 -109 ct 
394 -116 402 -123 409 -130 ct 417 -137 423 -145 427 -152 ct 432 -160 434 -169 434 -179 ct 
434 -186 433 -192 431 -197 ct 429 -202 426 -207 422 -210 ct 418 -214 413 -217 408 -218 ct 
402 -220 396 -221 390 -221 ct 383 -221 378 -220 372 -218 ct 367 -217 362 -214 358 -211 ct 
353 -207 350 -203 347 -198 ct 344 -193 343 -187 342 -180 ct 310 -183 l  311 -192 314 -200 317 -208 ct 
321 -215 326 -222 333 -228 ct 340 -234 348 -238 357 -242 ct 366 -245 377 -247 390 -247 ct 
402 -247 412 -245 422 -242 ct 431 -239 439 -235 446 -229 ct 452 -224 457 -217 461 -209 ct 
464 -200 466 -191 466 -180 ct 466 -172 464 -164 461 -157 ct 458 -149 455 -142 450 -136 ct 
445 -129 439 -123 433 -116 ct 426 -110 420 -104 413 -98 ct 406 -92 398 -86 391 -81 ct 
384 -75 378 -69 371 -63 ct 365 -57 359 -51 354 -45 ct 349 -39 346 -33 343 -26 ct 
470 -26 l  470 0 l  309 0 l  p ef
pom

pum
489 822 t
27 0 m  27 -26 l  89 -26 l  89 -213 l  34 -174 l  34 -204 l  91 -243 l 
120 -243 l  120 -26 l  179 -26 l  179 0 l  27 0 l  p ef
217 0 m  217 -38 l  251 -38 l  251 0 l  217 0 l  p ef
443 -55 m  443 0 l  414 0 l  414 -55 l  299 -55 l  299 -79 l  410 -243 l 
443 -243 l  443 -79 l  477 -79 l  477 -55 l  443 -55 l  p
414 -208 m  413 -207 413 -206 412 -205 ct 411 -203 410 -201 409 -199 ct 408 -197 406 -195 405 -193 ct 
404 -191 403 -189 402 -187 ct 340 -96 l  339 -95 338 -94 337 -92 ct 336 -91 335 -89 334 -88 ct 
333 -86 332 -84 330 -83 ct 329 -81 328 -80 328 -79 ct 414 -79 l  414 -208 l 
p ef
pom


80 lw 0.003 0.273 0.527 c 4986 1721 m  5786 1721 l  ps
5280 1616 m  5280 1826 l  5491 1826 l  5491 1616 l  5280 1616 l  p ef
0 lw 5280 1616 m  5280 1826 l  5491 1826 l  5491 1616 l  5280 1616 l  pc

80 lw 1.000 0.261 0.058 c 7046 1721 m  7846 1721 l  ps
7340 1721 m  7446 1826 l  7551 1721 l  7446 1616 l  7340 1721 l  p ef
0 lw 7340 1721 m  7446 1826 l  7551 1721 l  7446 1616 l  7340 1721 l  pc

pum
5887 1842 t
0.003 0.003 0.003 c 137 -220 m  123 -220 111 -218 100 -213 ct 89 -209 80 -202 73 -194 ct 
66 -185 61 -175 57 -163 ct 53 -151 51 -138 51 -123 ct 51 -108 53 -95 57 -83 ct 
61 -71 67 -60 74 -52 ct 82 -43 91 -36 102 -31 ct 112 -26 124 -24 138 -24 ct 147 -24 156 -25 164 -28 ct 
171 -30 178 -34 185 -38 ct 191 -43 197 -48 201 -54 ct 206 -60 211 -67 215 -75 ct 
241 -61 l  237 -52 232 -44 225 -36 ct 219 -28 211 -21 203 -15 ct 194 -10 184 -5 173 -2 ct 
162 1 150 3 136 3 ct 117 3 99 0 85 -6 ct 70 -13 58 -21 48 -33 ct 38 -44 30 -57 25 -73 ct 
20 -88 18 -105 18 -123 ct 18 -142 21 -159 26 -174 ct 31 -190 39 -203 49 -213 ct 
59 -224 71 -232 86 -238 ct 101 -244 117 -247 136 -247 ct 162 -247 184 -242 201 -232 ct 
218 -222 231 -207 239 -187 ct 208 -176 l  206 -182 203 -188 199 -193 ct 195 -198 190 -203 184 -207 ct 
178 -211 171 -214 163 -216 ct 156 -219 147 -220 137 -220 ct p ef
455 -170 m  455 -160 453 -150 450 -141 ct 446 -131 441 -124 434 -117 ct 427 -110 418 -105 408 -101 ct 
397 -97 385 -95 371 -95 ct 300 -95 l  300 -1 l  267 -1 l  267 -243 l  369 -243 l 
384 -243 396 -242 407 -238 ct 417 -235 426 -230 433 -223 ct 441 -217 446 -209 449 -200 ct 
453 -191 455 -181 455 -170 ct p
422 -170 m  422 -185 417 -197 408 -205 ct 398 -213 384 -217 365 -217 ct 300 -217 l 
300 -121 l  367 -121 l  386 -121 399 -125 408 -134 ct 417 -142 422 -154 422 -170 ct 
p ef
602 3 m  589 3 576 1 564 -2 ct 552 -6 542 -11 533 -19 ct 524 -27 516 -36 511 -48 ct 
506 -59 503 -73 503 -89 ct 503 -244 l  536 -244 l  536 -92 l  536 -79 538 -69 541 -60 ct 
544 -52 549 -45 555 -39 ct 561 -34 568 -30 576 -27 ct 584 -25 592 -24 602 -24 ct 
611 -24 620 -25 629 -28 ct 637 -30 644 -34 651 -40 ct 657 -45 662 -52 666 -61 ct 
669 -70 671 -81 671 -94 ct 671 -244 l  704 -244 l  704 -92 l  704 -76 701 -62 696 -50 ct 
690 -38 683 -28 674 -20 ct 665 -12 654 -6 642 -3 ct 629 1 616 3 602 3 ct p ef
pom

pum
7946 1842 t
137 -220 m  123 -220 111 -218 100 -213 ct 89 -209 80 -202 73 -194 ct 66 -185 61 -175 57 -163 ct 
53 -151 51 -138 51 -123 ct 51 -108 53 -95 57 -83 ct 61 -71 67 -60 74 -52 ct 82 -43 91 -36 102 -31 ct 
112 -26 124 -24 138 -24 ct 147 -24 156 -25 164 -28 ct 171 -30 178 -34 185 -38 ct 
191 -43 197 -48 201 -54 ct 206 -60 211 -67 215 -75 ct 241 -61 l  237 -52 232 -44 225 -36 ct 
219 -28 211 -21 203 -15 ct 194 -10 184 -5 173 -2 ct 162 1 150 3 136 3 ct 117 3 99 0 85 -6 ct 
70 -13 58 -21 48 -33 ct 38 -44 30 -57 25 -73 ct 20 -88 18 -105 18 -123 ct 18 -142 21 -159 26 -174 ct 
31 -190 39 -203 49 -213 ct 59 -224 71 -232 86 -238 ct 101 -244 117 -247 136 -247 ct 
162 -247 184 -242 201 -232 ct 218 -222 231 -207 239 -187 ct 208 -176 l  206 -182 203 -188 199 -193 ct 
195 -198 190 -203 184 -207 ct 178 -211 171 -214 163 -216 ct 156 -219 147 -220 137 -220 ct 
p ef
455 -170 m  455 -160 453 -150 450 -141 ct 446 -131 441 -124 434 -117 ct 427 -110 418 -105 408 -101 ct 
397 -97 385 -95 371 -95 ct 300 -95 l  300 -1 l  267 -1 l  267 -243 l  369 -243 l 
384 -243 396 -242 407 -238 ct 417 -235 426 -230 433 -223 ct 441 -217 446 -209 449 -200 ct 
453 -191 455 -181 455 -170 ct p
422 -170 m  422 -185 417 -197 408 -205 ct 398 -213 384 -217 365 -217 ct 300 -217 l 
300 -121 l  367 -121 l  386 -121 399 -125 408 -134 ct 417 -142 422 -154 422 -170 ct 
p ef
602 3 m  589 3 576 1 564 -2 ct 552 -6 542 -11 533 -19 ct 524 -27 516 -36 511 -48 ct 
506 -59 503 -73 503 -89 ct 503 -244 l  536 -244 l  536 -92 l  536 -79 538 -69 541 -60 ct 
544 -52 549 -45 555 -39 ct 561 -34 568 -30 576 -27 ct 584 -25 592 -24 602 -24 ct 
611 -24 620 -25 629 -28 ct 637 -30 644 -34 651 -40 ct 657 -45 662 -52 666 -61 ct 
669 -70 671 -81 671 -94 ct 671 -244 l  704 -244 l  704 -92 l  704 -76 701 -62 696 -50 ct 
690 -38 683 -28 674 -20 ct 665 -12 654 -6 642 -3 ct 629 1 616 3 602 3 ct p ef
830 -105 m  830 -31 l  804 -31 l  804 -105 l  731 -105 l  731 -130 l  804 -130 l 
804 -204 l  830 -204 l  830 -130 l  903 -130 l  903 -105 l  830 -105 l 
p ef
944 -123 m  944 -142 946 -159 951 -174 ct 957 -190 964 -203 974 -213 ct 985 -224 997 -232 1012 -238 ct 
1027 -244 1045 -247 1065 -247 ct 1080 -247 1093 -246 1104 -243 ct 1115 -240 1125 -237 1133 -232 ct 
1141 -227 1148 -221 1154 -214 ct 1160 -207 1165 -199 1169 -190 ct 1137 -180 l 
1135 -186 1131 -192 1127 -197 ct 1123 -202 1117 -206 1111 -209 ct 1105 -213 1099 -215 1091 -217 ct 
1083 -219 1074 -220 1064 -220 ct 1049 -220 1036 -218 1025 -213 ct 1015 -209 1006 -202 998 -194 ct 
991 -185 986 -175 982 -163 ct 979 -151 977 -138 977 -123 ct 977 -108 979 -95 983 -83 ct 
987 -71 992 -60 1000 -52 ct 1007 -43 1017 -36 1028 -31 ct 1039 -26 1052 -24 1066 -24 ct 
1076 -24 1084 -25 1093 -26 ct 1101 -28 1108 -30 1114 -32 ct 1121 -35 1127 -38 1131 -41 ct 
1136 -44 1141 -47 1144 -51 ct 1144 -94 l  1071 -94 l  1071 -122 l  1174 -122 l 
1174 -38 l  1169 -33 1162 -27 1155 -22 ct 1148 -17 1140 -13 1131 -9 ct 1122 -5 1112 -2 1101 0 ct 
1090 2 1078 3 1066 3 ct 1046 3 1028 0 1013 -6 ct 997 -13 985 -21 974 -33 ct 964 -44 957 -57 951 -73 ct 
946 -88 944 -105 944 -123 ct p ef
1408 -170 m  1408 -160 1406 -150 1403 -141 ct 1399 -131 1394 -124 1387 -117 ct 
1380 -110 1371 -105 1361 -101 ct 1350 -97 1338 -95 1324 -95 ct 1253 -95 l  1253 -1 l 
1220 -1 l  1220 -243 l  1322 -243 l  1337 -243 1349 -242 1360 -238 ct 1370 -235 1379 -230 1386 -223 ct 
1394 -217 1399 -209 1402 -200 ct 1406 -191 1408 -181 1408 -170 ct p
1375 -170 m  1375 -185 1370 -197 1361 -205 ct 1351 -213 1337 -217 1318 -217 ct 
1253 -217 l  1253 -121 l  1320 -121 l  1339 -121 1352 -125 1361 -134 ct 1370 -142 1375 -154 1375 -170 ct 
p ef
1555 3 m  1542 3 1529 1 1517 -2 ct 1505 -6 1495 -11 1486 -19 ct 1477 -27 1469 -36 1464 -48 ct 
1459 -59 1456 -73 1456 -89 ct 1456 -244 l  1489 -244 l  1489 -92 l  1489 -79 1491 -69 1494 -60 ct 
1497 -52 1502 -45 1508 -39 ct 1514 -34 1521 -30 1529 -27 ct 1537 -25 1545 -24 1555 -24 ct 
1564 -24 1573 -25 1582 -28 ct 1590 -30 1597 -34 1604 -40 ct 1610 -45 1615 -52 1619 -61 ct 
1622 -70 1624 -81 1624 -94 ct 1624 -244 l  1657 -244 l  1657 -92 l  1657 -76 1654 -62 1649 -50 ct 
1643 -38 1636 -28 1627 -20 ct 1618 -12 1607 -6 1595 -3 ct 1582 1 1569 3 1555 3 ct 
p ef
pom

pum
6704 9515 t
181 0 m  124 -91 l  56 -91 l  56 0 l  26 0 l  26 -219 l  129 -219 l  141 -219 152 -217 162 -214 ct 
172 -212 180 -208 186 -202 ct 193 -197 198 -190 201 -182 ct 205 -175 206 -166 206 -156 ct 
206 -149 205 -143 203 -136 ct 201 -129 198 -123 194 -117 ct 189 -112 184 -107 177 -103 ct 
170 -99 162 -96 153 -94 ct 215 0 l  181 0 l  p
176 -156 m  176 -163 175 -168 173 -173 ct 171 -178 167 -182 163 -185 ct 159 -189 153 -191 147 -193 ct 
141 -194 134 -195 126 -195 ct 56 -195 l  56 -114 l  127 -114 l  136 -114 143 -115 149 -118 ct 
156 -120 161 -123 165 -126 ct 169 -130 172 -134 174 -140 ct 175 -145 176 -150 176 -156 ct 
p ef
281 -78 m  281 -69 282 -61 284 -54 ct 285 -46 288 -40 292 -35 ct 296 -29 301 -25 306 -22 ct 
312 -19 319 -18 328 -18 ct 340 -18 350 -20 357 -25 ct 364 -30 369 -36 372 -44 ct 
396 -37 l  394 -32 392 -27 389 -23 ct 386 -18 381 -14 376 -10 ct 371 -6 364 -3 356 -1 ct 
348 2 339 3 328 3 ct 303 3 284 -4 271 -19 ct 258 -34 252 -56 252 -85 ct 252 -101 253 -114 257 -125 ct 
261 -136 267 -145 274 -152 ct 280 -158 288 -163 297 -166 ct 307 -169 316 -171 327 -171 ct 
341 -171 353 -169 362 -164 ct 371 -160 379 -153 385 -145 ct 391 -137 395 -128 397 -117 ct 
400 -106 401 -94 401 -82 ct 401 -78 l  281 -78 l  p
372 -99 m  370 -117 366 -130 358 -138 ct 351 -146 340 -150 326 -150 ct 322 -150 317 -150 312 -148 ct 
306 -147 302 -144 297 -140 ct 293 -136 289 -131 286 -125 ct 283 -118 282 -110 281 -99 ct 
372 -99 l  p ef
571 -47 m  571 -39 569 -32 566 -26 ct 563 -19 558 -14 553 -10 ct 547 -6 540 -3 531 0 ct 
523 2 513 3 502 3 ct 493 3 484 2 476 1 ct 468 -1 461 -3 455 -6 ct 450 -10 445 -14 441 -20 ct 
437 -25 434 -32 432 -40 ct 457 -44 l  459 -35 464 -29 471 -25 ct 479 -20 489 -18 502 -18 ct 
508 -18 514 -19 519 -20 ct 524 -20 528 -22 532 -24 ct 535 -26 538 -29 540 -32 ct 
542 -35 543 -39 543 -44 ct 543 -49 542 -54 540 -57 ct 537 -60 534 -63 530 -65 ct 
526 -67 520 -69 514 -71 ct 508 -72 502 -74 494 -76 ct 488 -78 481 -80 474 -82 ct 
468 -84 462 -87 456 -91 ct 451 -94 447 -99 444 -104 ct 440 -109 439 -116 439 -124 ct 
439 -139 444 -151 455 -159 ct 466 -167 482 -171 503 -171 ct 521 -171 536 -168 547 -161 ct 
558 -155 565 -144 568 -130 ct 542 -127 l  541 -131 540 -135 537 -138 ct 535 -141 532 -143 528 -145 ct 
525 -147 521 -148 516 -149 ct 512 -150 507 -150 503 -150 ct 490 -150 481 -148 475 -144 ct 
469 -140 466 -135 466 -127 ct 466 -122 467 -118 469 -115 ct 471 -112 474 -110 478 -108 ct 
482 -106 487 -104 493 -103 ct 498 -101 504 -100 511 -98 ct 516 -97 520 -96 525 -94 ct 
530 -93 534 -91 538 -90 ct 543 -88 547 -86 551 -83 ct 555 -81 558 -78 561 -74 ct 
564 -71 566 -67 568 -62 ct 570 -58 571 -53 571 -47 ct p ef
746 -84 m  746 -55 739 -33 726 -19 ct 713 -4 694 3 670 3 ct 658 3 648 1 638 -2 ct 
629 -6 621 -11 615 -18 ct 609 -26 604 -35 600 -46 ct 597 -57 595 -69 595 -84 ct 
595 -142 620 -171 671 -171 ct 684 -171 695 -169 704 -166 ct 714 -162 722 -157 728 -149 ct 
734 -142 738 -133 741 -122 ct 744 -111 746 -99 746 -84 ct p
716 -84 m  716 -97 715 -108 713 -116 ct 711 -125 708 -132 704 -137 ct 700 -142 696 -145 690 -147 ct 
684 -149 678 -150 671 -150 ct 664 -150 658 -149 652 -147 ct 646 -145 641 -141 637 -136 ct 
633 -131 630 -124 628 -116 ct 626 -107 625 -97 625 -84 ct 625 -71 626 -60 628 -52 ct 
630 -43 634 -37 638 -31 ct 641 -26 646 -23 652 -21 ct 657 -19 663 -18 669 -18 ct 
677 -18 683 -19 689 -21 ct 695 -23 700 -26 704 -31 ct 708 -36 711 -43 713 -52 ct 
715 -60 716 -71 716 -84 ct p ef
788 0 m  788 -230 l  816 -230 l  816 0 l  788 0 l  p ef
896 -168 m  896 -62 l  896 -53 896 -47 898 -41 ct 899 -36 901 -31 903 -28 ct 
906 -24 910 -22 914 -21 ct 918 -19 924 -19 930 -19 ct 937 -19 943 -20 948 -22 ct 
954 -24 958 -28 962 -32 ct 966 -37 969 -42 971 -48 ct 973 -55 974 -62 974 -71 ct 
974 -168 l  1002 -168 l  1002 -36 l  1002 -32 1002 -29 1002 -25 ct 1002 -21 1002 -17 1002 -14 ct 
1002 -10 1002 -7 1002 -5 ct 1003 -2 1003 -1 1003 0 ct 976 0 l  976 -1 976 -2 976 -4 ct 
976 -7 976 -9 976 -12 ct 975 -15 975 -18 975 -21 ct 975 -24 975 -27 975 -29 ct 
975 -29 l  972 -24 969 -20 966 -16 ct 963 -12 959 -8 955 -6 ct 950 -3 945 -1 940 1 ct 
935 2 928 3 921 3 ct 912 3 904 2 897 0 ct 890 -3 885 -6 880 -11 ct 876 -16 873 -22 871 -29 ct 
869 -37 868 -46 868 -56 ct 868 -168 l  896 -168 l  p ef
1118 -2 m  1114 -1 1109 0 1105 1 ct 1101 2 1096 2 1090 2 ct 1067 2 1056 -11 1056 -36 ct 
1056 -148 l  1037 -148 l  1037 -168 l  1057 -168 l  1066 -206 l  1084 -206 l 
1084 -168 l  1115 -168 l  1115 -148 l  1084 -148 l  1084 -42 l  1084 -34 1085 -28 1088 -25 ct 
1091 -22 1095 -20 1102 -20 ct 1105 -20 1107 -20 1110 -21 ct 1112 -21 1115 -22 1118 -22 ct 
1118 -2 l  p ef
1132 -203 m  1132 -230 l  1160 -230 l  1160 -203 l  1132 -203 l  p
1132 0 m  1132 -168 l  1160 -168 l  1160 0 l  1132 0 l  p ef
1355 -84 m  1355 -55 1348 -33 1335 -19 ct 1322 -4 1303 3 1279 3 ct 1267 3 1257 1 1247 -2 ct 
1238 -6 1230 -11 1224 -18 ct 1218 -26 1213 -35 1209 -46 ct 1206 -57 1204 -69 1204 -84 ct 
1204 -142 1229 -171 1280 -171 ct 1293 -171 1304 -169 1313 -166 ct 1323 -162 1331 -157 1337 -149 ct 
1343 -142 1347 -133 1350 -122 ct 1353 -111 1355 -99 1355 -84 ct p
1325 -84 m  1325 -97 1324 -108 1322 -116 ct 1320 -125 1317 -132 1313 -137 ct 
1309 -142 1305 -145 1299 -147 ct 1293 -149 1287 -150 1280 -150 ct 1273 -150 1267 -149 1261 -147 ct 
1255 -145 1250 -141 1246 -136 ct 1242 -131 1239 -124 1237 -116 ct 1235 -107 1234 -97 1234 -84 ct 
1234 -71 1235 -60 1237 -52 ct 1239 -43 1243 -37 1247 -31 ct 1250 -26 1255 -23 1261 -21 ct 
1266 -19 1272 -18 1278 -18 ct 1286 -18 1292 -19 1298 -21 ct 1304 -23 1309 -26 1313 -31 ct 
1317 -36 1320 -43 1322 -52 ct 1324 -60 1325 -71 1325 -84 ct p ef
1504 0 m  1504 -106 l  1504 -115 1504 -121 1502 -127 ct 1501 -132 1499 -137 1496 -140 ct 
1494 -144 1490 -146 1486 -147 ct 1481 -149 1476 -149 1469 -149 ct 1463 -149 1457 -148 1452 -146 ct 
1446 -144 1442 -140 1438 -136 ct 1434 -131 1431 -126 1429 -120 ct 1427 -113 1426 -106 1426 -97 ct 
1426 0 l  1398 0 l  1398 -132 l  1398 -136 1398 -139 1398 -143 ct 1398 -147 1398 -151 1398 -154 ct 
1398 -158 1398 -161 1397 -163 ct 1397 -166 1397 -167 1397 -168 ct 1424 -168 l 
1424 -167 1424 -166 1424 -164 ct 1424 -161 1424 -159 1424 -156 ct 1424 -153 1425 -150 1425 -147 ct 
1425 -144 1425 -141 1425 -139 ct 1425 -139 l  1428 -144 1431 -148 1434 -152 ct 
1437 -156 1441 -160 1445 -162 ct 1450 -165 1454 -167 1460 -169 ct 1465 -170 1472 -171 1479 -171 ct 
1488 -171 1496 -170 1503 -168 ct 1510 -165 1515 -162 1520 -157 ct 1524 -152 1527 -146 1529 -139 ct 
1531 -131 1532 -122 1532 -112 ct 1532 0 l  1504 0 l  p ef
pom

pum
387 6360 t
90.0 r 26 0 m  26 -219 l  192 -219 l  192 -195 l  56 -195 l  56 -124 l  183 -124 l 
183 -100 l  56 -100 l  56 -24 l  198 -24 l  198 0 l  26 0 l  p ef
336 0 m  291 -69 l  246 0 l  216 0 l  275 -86 l  218 -168 l  249 -168 l 
291 -103 l  333 -168 l  364 -168 l  307 -87 l  368 0 l  336 0 l  p ef
413 -78 m  413 -69 414 -61 416 -54 ct 417 -46 420 -40 424 -35 ct 428 -29 433 -25 438 -22 ct 
444 -19 451 -18 460 -18 ct 472 -18 482 -20 489 -25 ct 496 -30 501 -36 504 -44 ct 
528 -37 l  526 -32 524 -27 521 -23 ct 518 -18 513 -14 508 -10 ct 503 -6 496 -3 488 -1 ct 
480 2 471 3 460 3 ct 435 3 416 -4 403 -19 ct 390 -34 384 -56 384 -85 ct 384 -101 385 -114 389 -125 ct 
393 -136 399 -145 406 -152 ct 412 -158 420 -163 429 -166 ct 439 -169 448 -171 459 -171 ct 
473 -171 485 -169 494 -164 ct 503 -160 511 -153 517 -145 ct 523 -137 527 -128 529 -117 ct 
532 -106 533 -94 533 -82 ct 533 -78 l  413 -78 l  p
504 -99 m  502 -117 498 -130 490 -138 ct 483 -146 472 -150 458 -150 ct 454 -150 449 -150 444 -148 ct 
438 -147 434 -144 429 -140 ct 425 -136 421 -131 418 -125 ct 415 -118 414 -110 413 -99 ct 
504 -99 l  p ef
599 -85 m  599 -75 599 -66 601 -58 ct 602 -50 605 -43 608 -37 ct 611 -32 616 -27 621 -24 ct 
626 -21 633 -19 641 -19 ct 651 -19 659 -22 666 -27 ct 673 -32 677 -40 678 -51 ct 
707 -51 l  706 -44 704 -37 701 -31 ct 697 -24 693 -18 688 -13 ct 683 -8 676 -4 668 -1 ct 
661 1 652 3 642 3 ct 629 3 618 1 608 -4 ct 599 -8 592 -14 586 -22 ct 580 -30 576 -39 573 -50 ct 
571 -60 570 -72 570 -84 ct 570 -95 570 -105 572 -114 ct 574 -123 577 -130 580 -137 ct 
584 -143 587 -149 592 -153 ct 597 -157 602 -161 607 -163 ct 612 -166 618 -168 624 -169 ct 
630 -170 636 -171 642 -171 ct 651 -171 659 -170 667 -167 ct 674 -165 680 -161 686 -157 ct 
691 -152 695 -147 699 -141 ct 702 -135 704 -128 706 -121 ct 677 -119 l  676 -128 672 -135 666 -141 ct 
660 -146 652 -149 641 -149 ct 633 -149 626 -148 621 -145 ct 616 -143 611 -139 608 -133 ct 
605 -128 602 -121 601 -113 ct 599 -105 599 -96 599 -85 ct p ef
763 -168 m  763 -62 l  763 -53 763 -47 765 -41 ct 766 -36 768 -31 770 -28 ct 
773 -24 777 -22 781 -21 ct 785 -19 791 -19 797 -19 ct 804 -19 810 -20 815 -22 ct 
821 -24 825 -28 829 -32 ct 833 -37 836 -42 838 -48 ct 840 -55 841 -62 841 -71 ct 
841 -168 l  869 -168 l  869 -36 l  869 -32 869 -29 869 -25 ct 869 -21 869 -17 869 -14 ct 
869 -10 869 -7 869 -5 ct 870 -2 870 -1 870 0 ct 843 0 l  843 -1 843 -2 843 -4 ct 
843 -7 843 -9 843 -12 ct 842 -15 842 -18 842 -21 ct 842 -24 842 -27 842 -29 ct 
842 -29 l  839 -24 836 -20 833 -16 ct 830 -12 826 -8 822 -6 ct 817 -3 812 -1 807 1 ct 
802 2 795 3 788 3 ct 779 3 771 2 764 0 ct 757 -3 752 -6 747 -11 ct 743 -16 740 -22 738 -29 ct 
736 -37 735 -46 735 -56 ct 735 -168 l  763 -168 l  p ef
986 -2 m  982 -1 977 0 973 1 ct 969 2 964 2 958 2 ct 935 2 924 -11 924 -36 ct 924 -148 l 
905 -148 l  905 -168 l  925 -168 l  934 -206 l  952 -206 l  952 -168 l 
983 -168 l  983 -148 l  952 -148 l  952 -42 l  952 -34 953 -28 956 -25 ct 
959 -22 963 -20 970 -20 ct 973 -20 975 -20 978 -21 ct 980 -21 983 -22 986 -22 ct 
986 -2 l  p ef
1000 -203 m  1000 -230 l  1028 -230 l  1028 -203 l  1000 -203 l  p
1000 0 m  1000 -168 l  1028 -168 l  1028 0 l  1000 0 l  p ef
1222 -84 m  1222 -55 1215 -33 1202 -19 ct 1189 -4 1170 3 1146 3 ct 1134 3 1124 1 1114 -2 ct 
1105 -6 1097 -11 1091 -18 ct 1085 -26 1080 -35 1076 -46 ct 1073 -57 1071 -69 1071 -84 ct 
1071 -142 1096 -171 1147 -171 ct 1160 -171 1171 -169 1180 -166 ct 1190 -162 1198 -157 1204 -149 ct 
1210 -142 1214 -133 1217 -122 ct 1220 -111 1222 -99 1222 -84 ct p
1192 -84 m  1192 -97 1191 -108 1189 -116 ct 1187 -125 1184 -132 1180 -137 ct 
1176 -142 1172 -145 1166 -147 ct 1160 -149 1154 -150 1147 -150 ct 1140 -150 1134 -149 1128 -147 ct 
1122 -145 1117 -141 1113 -136 ct 1109 -131 1106 -124 1104 -116 ct 1102 -107 1101 -97 1101 -84 ct 
1101 -71 1102 -60 1104 -52 ct 1106 -43 1110 -37 1114 -31 ct 1117 -26 1122 -23 1128 -21 ct 
1133 -19 1139 -18 1145 -18 ct 1153 -18 1159 -19 1165 -21 ct 1171 -23 1176 -26 1180 -31 ct 
1184 -36 1187 -43 1189 -52 ct 1191 -60 1192 -71 1192 -84 ct p ef
1372 0 m  1372 -106 l  1372 -115 1372 -121 1370 -127 ct 1369 -132 1367 -137 1364 -140 ct 
1362 -144 1358 -146 1354 -147 ct 1349 -149 1344 -149 1337 -149 ct 1331 -149 1325 -148 1320 -146 ct 
1314 -144 1310 -140 1306 -136 ct 1302 -131 1299 -126 1297 -120 ct 1295 -113 1294 -106 1294 -97 ct 
1294 0 l  1266 0 l  1266 -132 l  1266 -136 1266 -139 1266 -143 ct 1266 -147 1266 -151 1266 -154 ct 
1266 -158 1266 -161 1265 -163 ct 1265 -166 1265 -167 1265 -168 ct 1292 -168 l 
1292 -167 1292 -166 1292 -164 ct 1292 -161 1292 -159 1292 -156 ct 1292 -153 1293 -150 1293 -147 ct 
1293 -144 1293 -141 1293 -139 ct 1293 -139 l  1296 -144 1299 -148 1302 -152 ct 
1305 -156 1309 -160 1313 -162 ct 1318 -165 1322 -167 1328 -169 ct 1333 -170 1340 -171 1347 -171 ct 
1356 -171 1364 -170 1371 -168 ct 1378 -165 1383 -162 1388 -157 ct 1392 -152 1395 -146 1397 -139 ct 
1399 -131 1400 -122 1400 -112 ct 1400 0 l  1372 0 l  p ef
1620 -194 m  1620 1 l  1590 1 l  1590 -194 l  1515 -194 l  1515 -218 l 
1695 -218 l  1695 -194 l  1620 -194 l  p ef
1714 -203 m  1714 -230 l  1742 -230 l  1742 -203 l  1714 -203 l  p
1714 0 m  1714 -168 l  1742 -168 l  1742 0 l  1714 0 l  p ef
1892 0 m  1892 -106 l  1892 -115 1892 -121 1891 -127 ct 1890 -132 1888 -137 1885 -140 ct 
1883 -144 1880 -146 1876 -147 ct 1872 -149 1867 -149 1862 -149 ct 1856 -149 1850 -148 1846 -146 ct 
1841 -144 1837 -140 1833 -136 ct 1830 -131 1827 -126 1826 -120 ct 1824 -113 1823 -106 1823 -97 ct 
1823 0 l  1795 0 l  1795 -132 l  1795 -136 1795 -139 1795 -143 ct 1795 -147 1795 -151 1795 -154 ct 
1795 -158 1795 -161 1794 -163 ct 1794 -166 1794 -167 1794 -168 ct 1821 -168 l 
1821 -167 1821 -166 1821 -164 ct 1821 -161 1821 -159 1821 -156 ct 1821 -153 1822 -150 1822 -147 ct 
1822 -144 1822 -141 1822 -139 ct 1822 -139 l  1825 -144 1827 -148 1830 -152 ct 
1833 -156 1837 -160 1840 -162 ct 1844 -165 1849 -167 1854 -169 ct 1859 -170 1865 -171 1871 -171 ct 
1884 -171 1894 -168 1901 -163 ct 1909 -158 1914 -150 1917 -139 ct 1917 -139 l 
1920 -144 1923 -148 1926 -152 ct 1929 -156 1933 -160 1937 -162 ct 1941 -165 1945 -167 1951 -169 ct 
1956 -170 1962 -171 1968 -171 ct 1977 -171 1984 -170 1990 -168 ct 1996 -165 2002 -162 2005 -157 ct 
2009 -152 2012 -146 2014 -139 ct 2016 -131 2017 -122 2017 -112 ct 2017 0 l  1989 0 l 
1989 -106 l  1989 -115 1989 -121 1988 -127 ct 1987 -132 1985 -137 1983 -140 ct 
1980 -144 1977 -146 1973 -147 ct 1969 -149 1964 -149 1959 -149 ct 1953 -149 1947 -148 1943 -146 ct 
1938 -144 1934 -141 1930 -136 ct 1927 -132 1924 -126 1923 -120 ct 1921 -113 1920 -106 1920 -97 ct 
1920 0 l  1892 0 l  p ef
2080 -78 m  2080 -69 2081 -61 2083 -54 ct 2084 -46 2087 -40 2091 -35 ct 2095 -29 2100 -25 2105 -22 ct 
2111 -19 2118 -18 2127 -18 ct 2139 -18 2149 -20 2156 -25 ct 2163 -30 2168 -36 2171 -44 ct 
2195 -37 l  2193 -32 2191 -27 2188 -23 ct 2185 -18 2180 -14 2175 -10 ct 2170 -6 2163 -3 2155 -1 ct 
2147 2 2138 3 2127 3 ct 2102 3 2083 -4 2070 -19 ct 2057 -34 2051 -56 2051 -85 ct 
2051 -101 2052 -114 2056 -125 ct 2060 -136 2066 -145 2073 -152 ct 2079 -158 2087 -163 2096 -166 ct 
2106 -169 2115 -171 2126 -171 ct 2140 -171 2152 -169 2161 -164 ct 2170 -160 2178 -153 2184 -145 ct 
2190 -137 2194 -128 2196 -117 ct 2199 -106 2200 -94 2200 -82 ct 2200 -78 l  2080 -78 l 
p
2171 -99 m  2169 -117 2165 -130 2157 -138 ct 2150 -146 2139 -150 2125 -150 ct 
2121 -150 2116 -150 2111 -148 ct 2105 -147 2101 -144 2096 -140 ct 2092 -136 2088 -131 2085 -125 ct 
2082 -118 2081 -110 2080 -99 ct 2171 -99 l  p ef
2243 -82 m  2243 -97 2244 -110 2246 -124 ct 2248 -137 2252 -149 2256 -161 ct 
2261 -174 2267 -185 2274 -197 ct 2281 -208 2290 -219 2300 -230 ct 2327 -230 l 
2317 -219 2309 -208 2302 -197 ct 2295 -185 2289 -173 2284 -161 ct 2280 -149 2276 -136 2274 -123 ct 
2272 -110 2271 -96 2271 -82 ct 2271 -68 2272 -54 2274 -41 ct 2276 -28 2280 -15 2284 -3 ct 
2289 9 2295 21 2302 33 ct 2309 44 2317 55 2327 66 ct 2300 66 l  2290 55 2281 44 2274 33 ct 
2267 21 2261 10 2256 -3 ct 2252 -15 2248 -27 2246 -40 ct 2244 -53 2243 -67 2243 -82 ct 
2243 -82 l  p ef
2476 -47 m  2476 -39 2474 -32 2471 -26 ct 2468 -19 2463 -14 2458 -10 ct 2452 -6 2445 -3 2436 0 ct 
2428 2 2418 3 2407 3 ct 2398 3 2389 2 2381 1 ct 2373 -1 2366 -3 2360 -6 ct 2355 -10 2350 -14 2346 -20 ct 
2342 -25 2339 -32 2337 -40 ct 2362 -44 l  2364 -35 2369 -29 2376 -25 ct 2384 -20 2394 -18 2407 -18 ct 
2413 -18 2419 -19 2424 -20 ct 2429 -20 2433 -22 2437 -24 ct 2440 -26 2443 -29 2445 -32 ct 
2447 -35 2448 -39 2448 -44 ct 2448 -49 2447 -54 2445 -57 ct 2442 -60 2439 -63 2435 -65 ct 
2431 -67 2425 -69 2419 -71 ct 2413 -72 2407 -74 2399 -76 ct 2393 -78 2386 -80 2379 -82 ct 
2373 -84 2367 -87 2361 -91 ct 2356 -94 2352 -99 2349 -104 ct 2345 -109 2344 -116 2344 -124 ct 
2344 -139 2349 -151 2360 -159 ct 2371 -167 2387 -171 2408 -171 ct 2426 -171 2441 -168 2452 -161 ct 
2463 -155 2470 -144 2473 -130 ct 2447 -127 l  2446 -131 2445 -135 2442 -138 ct 
2440 -141 2437 -143 2433 -145 ct 2430 -147 2426 -148 2421 -149 ct 2417 -150 2412 -150 2408 -150 ct 
2395 -150 2386 -148 2380 -144 ct 2374 -140 2371 -135 2371 -127 ct 2371 -122 2372 -118 2374 -115 ct 
2376 -112 2379 -110 2383 -108 ct 2387 -106 2392 -104 2398 -103 ct 2403 -101 2409 -100 2416 -98 ct 
2421 -97 2425 -96 2430 -94 ct 2435 -93 2439 -91 2443 -90 ct 2448 -88 2452 -86 2456 -83 ct 
2460 -81 2463 -78 2466 -74 ct 2469 -71 2471 -67 2473 -62 ct 2475 -58 2476 -53 2476 -47 ct 
p ef
2530 -78 m  2530 -69 2531 -61 2533 -54 ct 2534 -46 2537 -40 2541 -35 ct 2545 -29 2550 -25 2555 -22 ct 
2561 -19 2568 -18 2577 -18 ct 2589 -18 2599 -20 2606 -25 ct 2613 -30 2618 -36 2621 -44 ct 
2645 -37 l  2643 -32 2641 -27 2638 -23 ct 2635 -18 2630 -14 2625 -10 ct 2620 -6 2613 -3 2605 -1 ct 
2597 2 2588 3 2577 3 ct 2552 3 2533 -4 2520 -19 ct 2507 -34 2501 -56 2501 -85 ct 
2501 -101 2502 -114 2506 -125 ct 2510 -136 2516 -145 2523 -152 ct 2529 -158 2537 -163 2546 -166 ct 
2556 -169 2565 -171 2576 -171 ct 2590 -171 2602 -169 2611 -164 ct 2620 -160 2628 -153 2634 -145 ct 
2640 -137 2644 -128 2646 -117 ct 2649 -106 2650 -94 2650 -82 ct 2650 -78 l  2530 -78 l 
p
2621 -99 m  2619 -117 2615 -130 2607 -138 ct 2600 -146 2589 -150 2575 -150 ct 
2571 -150 2566 -150 2561 -148 ct 2555 -147 2551 -144 2546 -140 ct 2542 -136 2538 -131 2535 -125 ct 
2532 -118 2531 -110 2530 -99 ct 2621 -99 l  p ef
2715 -85 m  2715 -75 2715 -66 2717 -58 ct 2718 -50 2721 -43 2724 -37 ct 2727 -32 2732 -27 2737 -24 ct 
2742 -21 2749 -19 2757 -19 ct 2767 -19 2775 -22 2782 -27 ct 2789 -32 2793 -40 2794 -51 ct 
2823 -51 l  2822 -44 2820 -37 2817 -31 ct 2813 -24 2809 -18 2804 -13 ct 2799 -8 2792 -4 2784 -1 ct 
2777 1 2768 3 2758 3 ct 2745 3 2734 1 2724 -4 ct 2715 -8 2708 -14 2702 -22 ct 2696 -30 2692 -39 2689 -50 ct 
2687 -60 2686 -72 2686 -84 ct 2686 -95 2686 -105 2688 -114 ct 2690 -123 2693 -130 2696 -137 ct 
2700 -143 2703 -149 2708 -153 ct 2713 -157 2718 -161 2723 -163 ct 2728 -166 2734 -168 2740 -169 ct 
2746 -170 2752 -171 2758 -171 ct 2767 -171 2775 -170 2783 -167 ct 2790 -165 2796 -161 2802 -157 ct 
2807 -152 2811 -147 2815 -141 ct 2818 -135 2820 -128 2822 -121 ct 2793 -119 l 
2792 -128 2788 -135 2782 -141 ct 2776 -146 2768 -149 2757 -149 ct 2749 -149 2742 -148 2737 -145 ct 
2732 -143 2727 -139 2724 -133 ct 2721 -128 2718 -121 2717 -113 ct 2715 -105 2715 -96 2715 -85 ct 
p ef
2917 -82 m  2917 -67 2916 -53 2914 -40 ct 2912 -27 2908 -15 2904 -3 ct 2899 10 2893 21 2886 33 ct 
2879 44 2870 55 2860 66 ct 2833 66 l  2843 55 2851 44 2858 33 ct 2865 21 2871 9 2876 -3 ct 
2880 -15 2884 -28 2886 -41 ct 2888 -54 2889 -68 2889 -82 ct 2889 -96 2888 -110 2886 -123 ct 
2884 -136 2880 -149 2876 -161 ct 2871 -173 2865 -185 2858 -197 ct 2851 -208 2843 -219 2833 -230 ct 
2860 -230 l  2870 -219 2879 -208 2886 -197 ct 2893 -185 2899 -174 2904 -161 ct 
2908 -149 2912 -137 2914 -124 ct 2916 -110 2917 -97 2917 -82 ct 2917 -82 l  p ef
pom
gr
gs
0 0 m 14629 0 l 14629 9687 l 0 9687 l 0 0 l eoclip newpath
gr
gr
gr
gr
0 9688 t 
pom
count op_count sub {pop} repeat countdictstack dict_count sub {end} repeat b4_inc_state restore
%%PageTrailer
%%Trailer
%%EOF
