%!PS-Adobe-3.0 EPSF-3.0 
%%BoundingBox: 0 0 400 259
%%Pages: 0
%%Creator: LibreOffice 3.5
%%Title: none
%%CreationDate: none
%%LanguageLevel: 2
%%EndComments
%%BeginProlog
%%BeginResource: procset SDRes-Prolog 1.0 0
/b4_inc_state save def
/dict_count countdictstack def
/op_count count 1 sub def
userdict begin
0 setgray 0 setlinecap 1 setlinewidth 0 setlinejoin 10 setmiterlimit[] 0 setdash newpath
/languagelevel where {pop languagelevel 1 ne {false setstrokeadjust false setoverprint} if} if
/bdef {bind def} bind def
/c {setrgbcolor} bdef
/l {neg lineto} bdef
/rl {neg rlineto} bdef
/lc {setlinecap} bdef
/lj {setlinejoin} bdef
/lw {setlinewidth} bdef
/ml {setmiterlimit} bdef
/ld {setdash} bdef
/m {neg moveto} bdef
/ct {6 2 roll neg 6 2 roll neg 6 2 roll neg curveto} bdef
/r {rotate} bdef
/t {neg translate} bdef
/s {scale} bdef
/sw {show} bdef
/gs {gsave} bdef
/gr {grestore} bdef
/f {findfont dup length dict begin
{1 index /FID ne {def} {pop pop} ifelse} forall /Encoding ISOLatin1Encoding def
currentdict end /NFont exch definefont pop /NFont findfont} bdef
/p {closepath} bdef
/sf {scalefont setfont} bdef
/ef {eofill}bdef
/pc {closepath stroke}bdef
/ps {stroke}bdef
/pum {matrix currentmatrix}bdef
/pom {setmatrix}bdef
/bs {/aString exch def /nXOfs exch def /nWidth exch def currentpoint nXOfs 0 rmoveto pum nWidth aString stringwidth pop div 1 scale aString show pom moveto} bdef
%%EndResource
%%EndProlog
%%BeginSetup
%%EndSetup
%%Page: 1 1
%%BeginPageSetup
%%EndPageSetup
pum
0.02837 0.02833 s 
0 -9141 t
/tm matrix currentmatrix def
tm setmatrix
-2270 -2146 t 
1 1 s 

gs
tm setmatrix
0 0 t 
1 1 s 
gs
gs
0 0 m 14097 0 l 14097 9140 l 0 9140 l 0 0 l eoclip newpath
gs
0 0 m 14097 0 l 14097 9140 l 0 9140 l 0 0 l eoclip newpath
1.000 1.000 1.000 c 7049 9141 m  0 9141 l  0 0 l  14098 0 l  14098 9141 l 
7049 9141 l  p ef



0 lw 1 lj 0.703 0.703 0.703 c 7515 7806 m  1402 7806 l  1402 868 l  13628 868 l 
13628 7806 l  7515 7806 l  pc
13628 7805 m  1402 7805 l  ps
13628 6813 m  1402 6813 l  ps
13628 5822 m  1402 5822 l  ps
13628 4831 m  1402 4831 l  ps
13628 3840 m  1402 3840 l  ps
13628 2849 m  1402 2849 l  ps
13628 1858 m  1402 1858 l  ps
13628 866 m  1402 866 l  ps

1402 7955 m  1402 7805 l  ps
1402 7955 m  1402 7805 l  ps
3148 7955 m  3148 7805 l  ps
3148 7955 m  3148 7805 l  ps
4895 7955 m  4895 7805 l  ps
4895 7955 m  4895 7805 l  ps
6641 7955 m  6641 7805 l  ps
6641 7955 m  6641 7805 l  ps
8388 7955 m  8388 7805 l  ps
8388 7955 m  8388 7805 l  ps
10134 7955 m  10134 7805 l  ps
10134 7955 m  10134 7805 l  ps
11881 7955 m  11881 7805 l  ps
11881 7955 m  11881 7805 l  ps
13628 7955 m  13628 7805 l  ps
13628 7955 m  13628 7805 l  ps
1402 7805 m  13628 7805 l  ps
1252 7805 m  1402 7805 l  ps
1252 7805 m  1402 7805 l  ps
1252 6813 m  1402 6813 l  ps
1252 6813 m  1402 6813 l  ps
1252 5822 m  1402 5822 l  ps
1252 5822 m  1402 5822 l  ps
1252 4831 m  1402 4831 l  ps
1252 4831 m  1402 4831 l  ps
1252 3840 m  1402 3840 l  ps
1252 3840 m  1402 3840 l  ps
1252 2849 m  1402 2849 l  ps
1252 2849 m  1402 2849 l  ps
1252 1858 m  1402 1858 l  ps
1252 1858 m  1402 1858 l  ps
1252 866 m  1402 866 l  ps
1252 866 m  1402 866 l  ps
1402 7805 m  1402 866 l  ps
80 lw 0.003 0.273 0.527 c 1402 2016 m  3148 4098 l  4895 4098 l  6641 4772 l 
8388 5565 l  10134 5565 l  11881 7586 l  13628 7586 l  ps
1277 1891 m  1277 2141 l  1527 2141 l  1527 1891 l  1277 1891 l  p ef
0 lw 1277 1891 m  1277 2141 l  1527 2141 l  1527 1891 l  1277 1891 l  pc
3023 3973 m  3023 4223 l  3273 4223 l  3273 3973 l  3023 3973 l  p ef
3023 3973 m  3023 4223 l  3273 4223 l  3273 3973 l  3023 3973 l  pc
4770 3973 m  4770 4223 l  5020 4223 l  5020 3973 l  4770 3973 l  p ef
4770 3973 m  4770 4223 l  5020 4223 l  5020 3973 l  4770 3973 l  pc
6516 4647 m  6516 4897 l  6766 4897 l  6766 4647 l  6516 4647 l  p ef
6516 4647 m  6516 4897 l  6766 4897 l  6766 4647 l  6516 4647 l  pc
8263 5440 m  8263 5690 l  8513 5690 l  8513 5440 l  8263 5440 l  p ef
8263 5440 m  8263 5690 l  8513 5690 l  8513 5440 l  8263 5440 l  pc
10009 5440 m  10009 5690 l  10259 5690 l  10259 5440 l  10009 5440 l  p ef
10009 5440 m  10009 5690 l  10259 5690 l  10259 5440 l  10009 5440 l  pc
11756 7461 m  11756 7711 l  12006 7711 l  12006 7461 l  11756 7461 l  p ef
11756 7461 m  11756 7711 l  12006 7711 l  12006 7461 l  11756 7461 l  pc
13503 7461 m  13503 7711 l  13753 7711 l  13753 7461 l  13503 7461 l  p ef
13503 7461 m  13503 7711 l  13753 7711 l  13753 7461 l  13503 7461 l  pc

pum
1152 8373 t
0.003 0.003 0.003 c 187 0 m  57 -207 l  57 -201 57 -196 57 -190 ct 58 -185 58 -181 58 -175 ct 
58 -170 58 -165 58 -161 ct 58 0 l  29 0 l  29 -243 l  67 -243 l  199 -35 l 
198 -40 198 -46 198 -52 ct 197 -56 197 -62 197 -67 ct 197 -73 197 -78 197 -84 ct 
197 -243 l  226 -243 l  226 0 l  187 0 l  p ef
496 -123 m  496 -104 493 -87 488 -71 ct 482 -56 474 -43 464 -31 ct 453 -20 441 -12 426 -6 ct 
411 0 394 3 375 3 ct 355 3 338 0 322 -6 ct 307 -13 295 -21 285 -33 ct 275 -44 267 -57 262 -73 ct 
257 -88 255 -105 255 -123 ct 255 -142 257 -159 263 -174 ct 268 -190 276 -203 286 -213 ct 
296 -224 309 -232 324 -238 ct 339 -244 356 -247 375 -247 ct 395 -247 412 -244 427 -238 ct 
442 -232 454 -224 465 -213 ct 475 -202 482 -189 488 -174 ct 493 -159 496 -142 496 -123 ct 
p
462 -123 m  462 -138 460 -151 456 -163 ct 453 -175 447 -185 440 -194 ct 433 -202 424 -209 413 -213 ct 
402 -218 390 -220 375 -220 ct 361 -220 348 -218 337 -213 ct 326 -209 317 -202 310 -194 ct 
303 -185 297 -175 294 -163 ct 290 -151 288 -138 288 -123 ct 288 -108 290 -95 294 -83 ct 
297 -71 303 -60 310 -52 ct 318 -43 327 -36 338 -31 ct 348 -26 361 -24 375 -24 ct 
390 -24 403 -26 414 -31 ct 425 -36 434 -43 441 -52 ct 448 -61 454 -71 457 -83 ct 
460 -95 462 -109 462 -123 ct p ef
pom

pum
2872 8373 t
260 0 m  221 0 l  179 -154 l  178 -159 176 -164 175 -170 ct 174 -176 172 -182 171 -187 ct 
170 -193 168 -200 167 -206 ct 166 -200 164 -193 163 -187 ct 161 -181 160 -176 159 -170 ct 
157 -164 156 -159 155 -154 ct 112 0 l  73 0 l  2 -243 l  36 -243 l  79 -89 l 
81 -81 83 -74 85 -67 ct 87 -60 88 -54 90 -48 ct 91 -41 93 -35 94 -29 ct 95 -37 97 -45 99 -52 ct 
100 -56 101 -59 102 -63 ct 102 -66 103 -70 104 -73 ct 105 -77 106 -80 107 -83 ct 
107 -86 108 -89 109 -92 ct 151 -243 l  183 -243 l  225 -92 l  226 -89 226 -86 227 -83 ct 
228 -80 229 -77 230 -73 ct 231 -70 232 -66 232 -63 ct 233 -59 234 -56 235 -53 ct 
237 -45 238 -37 240 -29 ct 240 -29 241 -31 242 -35 ct 243 -39 244 -44 245 -50 ct 
246 -56 248 -62 250 -69 ct 251 -76 253 -83 255 -89 ct 298 -243 l  332 -243 l 
260 0 l  p ef
537 -68 m  537 -57 535 -48 531 -39 ct 527 -31 521 -23 513 -17 ct 505 -11 494 -6 482 -2 ct 
469 1 454 3 437 3 ct 407 3 383 -2 366 -13 ct 349 -23 339 -39 334 -59 ct 366 -65 l 
368 -59 370 -53 373 -48 ct 377 -43 381 -38 387 -35 ct 393 -31 400 -28 408 -26 ct 
416 -24 426 -23 438 -23 ct 448 -23 457 -24 465 -25 ct 473 -27 480 -29 486 -33 ct 
492 -36 496 -41 500 -46 ct 503 -52 505 -58 505 -66 ct 505 -74 503 -80 499 -85 ct 
496 -90 491 -94 484 -97 ct 477 -101 470 -103 461 -105 ct 451 -108 441 -110 430 -113 ct 
424 -114 417 -116 410 -117 ct 403 -119 397 -121 390 -124 ct 384 -126 378 -129 373 -133 ct 
367 -136 362 -140 358 -145 ct 354 -149 351 -155 349 -161 ct 347 -167 345 -174 345 -182 ct 
345 -193 348 -203 352 -212 ct 357 -220 364 -227 372 -232 ct 380 -237 390 -241 401 -243 ct 
412 -246 425 -247 438 -247 ct 453 -247 466 -246 476 -243 ct 487 -241 496 -238 503 -233 ct 
511 -228 517 -222 521 -215 ct 525 -208 529 -200 532 -191 ct 499 -185 l  498 -191 495 -197 492 -201 ct 
489 -206 485 -210 480 -213 ct 475 -216 469 -218 462 -220 ct 455 -221 447 -222 437 -222 ct 
426 -222 417 -221 409 -219 ct 401 -217 395 -214 390 -211 ct 386 -208 383 -203 380 -199 ct 
378 -194 377 -189 377 -184 ct 377 -176 379 -171 383 -166 ct 387 -161 391 -157 398 -154 ct 
404 -151 411 -149 419 -146 ct 427 -144 436 -142 445 -140 ct 453 -139 460 -137 468 -135 ct 
475 -133 482 -131 489 -129 ct 496 -126 502 -123 508 -120 ct 514 -117 519 -113 523 -108 ct 
528 -103 531 -97 534 -91 ct 536 -84 537 -76 537 -68 ct p ef
pom

pum
4659 8373 t
219 -68 m  219 -57 217 -48 213 -39 ct 209 -31 203 -23 195 -17 ct 187 -11 176 -6 164 -2 ct 
151 1 136 3 119 3 ct 89 3 65 -2 48 -13 ct 31 -23 21 -39 16 -59 ct 48 -65 l  50 -59 52 -53 55 -48 ct 
59 -43 63 -38 69 -35 ct 75 -31 82 -28 90 -26 ct 98 -24 108 -23 120 -23 ct 130 -23 139 -24 147 -25 ct 
155 -27 162 -29 168 -33 ct 174 -36 178 -41 182 -46 ct 185 -52 187 -58 187 -66 ct 
187 -74 185 -80 181 -85 ct 178 -90 173 -94 166 -97 ct 159 -101 152 -103 143 -105 ct 
133 -108 123 -110 112 -113 ct 106 -114 99 -116 92 -117 ct 85 -119 79 -121 72 -124 ct 
66 -126 60 -129 55 -133 ct 49 -136 44 -140 40 -145 ct 36 -149 33 -155 31 -161 ct 
29 -167 27 -174 27 -182 ct 27 -193 30 -203 34 -212 ct 39 -220 46 -227 54 -232 ct 
62 -237 72 -241 83 -243 ct 94 -246 107 -247 120 -247 ct 135 -247 148 -246 158 -243 ct 
169 -241 178 -238 185 -233 ct 193 -228 199 -222 203 -215 ct 207 -208 211 -200 214 -191 ct 
181 -185 l  180 -191 177 -197 174 -201 ct 171 -206 167 -210 162 -213 ct 157 -216 151 -218 144 -220 ct 
137 -221 129 -222 119 -222 ct 108 -222 99 -221 91 -219 ct 83 -217 77 -214 72 -211 ct 
68 -208 65 -203 62 -199 ct 60 -194 59 -189 59 -184 ct 59 -176 61 -171 65 -166 ct 
69 -161 73 -157 80 -154 ct 86 -151 93 -149 101 -146 ct 109 -144 118 -142 127 -140 ct 
135 -139 142 -137 150 -135 ct 157 -133 164 -131 171 -129 ct 178 -126 184 -123 190 -120 ct 
196 -117 201 -113 205 -108 ct 210 -103 213 -97 216 -91 ct 218 -84 219 -76 219 -68 ct 
p ef
375 -220 m  361 -220 349 -218 338 -213 ct 327 -209 318 -202 311 -194 ct 304 -185 299 -175 295 -163 ct 
291 -151 289 -138 289 -123 ct 289 -108 291 -95 295 -83 ct 299 -71 305 -60 312 -52 ct 
320 -43 329 -36 340 -31 ct 350 -26 362 -24 376 -24 ct 385 -24 394 -25 402 -28 ct 
409 -30 416 -34 423 -38 ct 429 -43 435 -48 439 -54 ct 444 -60 449 -67 453 -75 ct 
479 -61 l  475 -52 470 -44 463 -36 ct 457 -28 449 -21 441 -15 ct 432 -10 422 -5 411 -2 ct 
400 1 388 3 374 3 ct 355 3 337 0 323 -6 ct 308 -13 296 -21 286 -33 ct 276 -44 268 -57 263 -73 ct 
258 -88 256 -105 256 -123 ct 256 -142 259 -159 264 -174 ct 269 -190 277 -203 287 -213 ct 
297 -224 309 -232 324 -238 ct 339 -244 355 -247 374 -247 ct 400 -247 422 -242 439 -232 ct 
456 -222 469 -207 477 -187 ct 446 -176 l  444 -182 441 -188 437 -193 ct 433 -198 428 -203 422 -207 ct 
416 -211 409 -214 401 -216 ct 394 -219 385 -220 375 -220 ct p ef
pom

pum
6365 8373 t
187 0 m  57 -207 l  57 -201 57 -196 57 -190 ct 58 -185 58 -181 58 -175 ct 58 -170 58 -165 58 -161 ct 
58 0 l  29 0 l  29 -243 l  67 -243 l  199 -35 l  198 -40 198 -46 198 -52 ct 
197 -56 197 -62 197 -67 ct 197 -73 197 -78 197 -84 ct 197 -243 l  226 -243 l 
226 0 l  187 0 l  p ef
271 0 m  271 -243 l  304 -243 l  304 0 l  271 0 l  p ef
406 -216 m  406 -125 l  541 -125 l  541 -98 l  406 -98 l  406 1 l  373 1 l 
373 -243 l  546 -243 l  546 -216 l  406 -216 l  p ef
pom

pum
8151 8373 t
135 0 m  101 0 l  2 -243 l  36 -243 l  103 -72 l  105 -67 107 -62 109 -56 ct 
110 -51 112 -47 113 -43 ct 115 -38 116 -33 118 -29 ct 119 -33 121 -38 122 -42 ct 
124 -46 125 -51 127 -56 ct 129 -61 130 -66 132 -72 ct 199 -243 l  234 -243 l 
135 0 l  p ef
476 -124 m  476 -104 473 -86 467 -70 ct 461 -55 452 -42 442 -32 ct 431 -21 419 -13 404 -8 ct 
390 -3 374 0 358 0 ct 267 0 l  267 -243 l  347 -243 l  366 -243 383 -241 399 -236 ct 
415 -231 428 -224 440 -214 ct 451 -205 460 -192 466 -177 ct 473 -163 476 -145 476 -124 ct 
p
443 -124 m  443 -140 441 -155 436 -166 ct 431 -178 425 -187 416 -195 ct 408 -202 397 -208 386 -211 ct 
374 -215 361 -217 347 -217 ct 300 -217 l  300 -26 l  354 -26 l  367 -26 379 -28 389 -33 ct 
400 -37 410 -43 418 -51 ct 426 -59 432 -69 436 -82 ct 441 -94 443 -108 443 -124 ct 
p ef
pom

pum
9420 8373 t
235 0 m  235 -162 l  235 -168 236 -174 236 -180 ct 236 -186 236 -192 236 -197 ct 
236 -203 237 -208 237 -214 ct 235 -208 234 -202 232 -196 ct 231 -191 229 -186 227 -181 ct 
225 -175 224 -170 222 -166 ct 159 0 l  136 0 l  72 -166 l  72 -167 71 -169 70 -172 ct 
70 -174 69 -176 68 -179 ct 67 -181 66 -184 65 -187 ct 64 -190 64 -192 63 -195 ct 
61 -201 59 -207 57 -214 ct 57 -207 57 -201 58 -195 ct 58 -189 58 -184 58 -178 ct 
58 -172 58 -167 58 -162 ct 58 0 l  29 0 l  29 -243 l  72 -243 l  137 -74 l 
138 -72 139 -69 140 -66 ct 141 -62 142 -58 143 -54 ct 144 -51 145 -47 146 -44 ct 
147 -40 147 -38 148 -36 ct 148 -38 149 -40 150 -44 ct 151 -47 152 -51 153 -55 ct 
154 -58 155 -62 156 -66 ct 157 -69 159 -72 159 -74 ct 223 -243 l  265 -243 l 
265 0 l  235 0 l  p ef
417 3 m  404 3 391 1 379 -2 ct 367 -6 357 -11 348 -19 ct 339 -27 331 -36 326 -48 ct 
321 -59 318 -73 318 -89 ct 318 -244 l  351 -244 l  351 -92 l  351 -79 353 -69 356 -60 ct 
359 -52 364 -45 370 -39 ct 376 -34 383 -30 391 -27 ct 399 -25 407 -24 417 -24 ct 
426 -24 435 -25 444 -28 ct 452 -30 459 -34 466 -40 ct 472 -45 477 -52 481 -61 ct 
484 -70 486 -81 486 -94 ct 486 -244 l  519 -244 l  519 -92 l  519 -76 516 -62 511 -50 ct 
505 -38 498 -28 489 -20 ct 480 -12 469 -6 457 -3 ct 444 1 431 3 417 3 ct p ef
558 0 m  558 -243 l  591 -243 l  591 -27 l  714 -27 l  714 0 l  558 0 l 
p ef
915 0 m  887 -71 l  777 -71 l  749 0 l  715 0 l  814 -243 l  851 -243 l 
949 0 l  915 0 l  p
846 -177 m  845 -182 843 -186 841 -191 ct 839 -196 838 -200 837 -204 ct 835 -208 834 -211 834 -213 ct 
833 -216 832 -218 832 -218 ct 832 -218 831 -216 831 -213 ct 830 -211 829 -207 827 -203 ct 
826 -200 825 -195 823 -191 ct 821 -186 819 -181 818 -177 ct 787 -97 l  878 -97 l 
846 -177 l  p ef
1191 -124 m  1191 -104 1188 -86 1182 -70 ct 1176 -55 1167 -42 1157 -32 ct 1146 -21 1134 -13 1119 -8 ct 
1105 -3 1089 0 1073 0 ct 982 0 l  982 -243 l  1062 -243 l  1081 -243 1098 -241 1114 -236 ct 
1130 -231 1143 -224 1155 -214 ct 1166 -205 1175 -192 1181 -177 ct 1188 -163 1191 -145 1191 -124 ct 
p
1158 -124 m  1158 -140 1156 -155 1151 -166 ct 1146 -178 1140 -187 1131 -195 ct 
1123 -202 1112 -208 1101 -211 ct 1089 -215 1076 -217 1062 -217 ct 1015 -217 l 
1015 -26 l  1069 -26 l  1082 -26 1094 -28 1104 -33 ct 1115 -37 1125 -43 1133 -51 ct 
1141 -59 1147 -69 1151 -82 ct 1156 -94 1158 -108 1158 -124 ct p ef
1429 -124 m  1429 -104 1426 -86 1420 -70 ct 1414 -55 1405 -42 1395 -32 ct 1384 -21 1372 -13 1357 -8 ct 
1343 -3 1327 0 1311 0 ct 1220 0 l  1220 -243 l  1300 -243 l  1319 -243 1336 -241 1352 -236 ct 
1368 -231 1381 -224 1393 -214 ct 1404 -205 1413 -192 1419 -177 ct 1426 -163 1429 -145 1429 -124 ct 
p
1396 -124 m  1396 -140 1394 -155 1389 -166 ct 1384 -178 1378 -187 1369 -195 ct 
1361 -202 1350 -208 1339 -211 ct 1327 -215 1314 -217 1300 -217 ct 1253 -217 l 
1253 -26 l  1307 -26 l  1320 -26 1332 -28 1342 -33 ct 1353 -37 1363 -43 1371 -51 ct 
1379 -59 1385 -69 1389 -82 ct 1394 -94 1396 -108 1396 -124 ct p ef
pom

pum
11472 8373 t
258 -123 m  258 -104 255 -87 250 -71 ct 244 -56 236 -43 226 -31 ct 215 -20 203 -12 188 -6 ct 
173 0 156 3 137 3 ct 117 3 100 0 84 -6 ct 69 -13 57 -21 47 -33 ct 37 -44 29 -57 24 -73 ct 
19 -88 17 -105 17 -123 ct 17 -142 19 -159 25 -174 ct 30 -190 38 -203 48 -213 ct 
58 -224 71 -232 86 -238 ct 101 -244 118 -247 137 -247 ct 157 -247 174 -244 189 -238 ct 
204 -232 216 -224 227 -213 ct 237 -202 244 -189 250 -174 ct 255 -159 258 -142 258 -123 ct 
p
224 -123 m  224 -138 222 -151 218 -163 ct 215 -175 209 -185 202 -194 ct 195 -202 186 -209 175 -213 ct 
164 -218 152 -220 137 -220 ct 123 -220 110 -218 99 -213 ct 88 -209 79 -202 72 -194 ct 
65 -185 59 -175 56 -163 ct 52 -151 50 -138 50 -123 ct 50 -108 52 -95 56 -83 ct 
59 -71 65 -60 72 -52 ct 80 -43 89 -36 100 -31 ct 110 -26 123 -24 137 -24 ct 152 -24 165 -26 176 -31 ct 
187 -36 196 -43 203 -52 ct 210 -61 216 -71 219 -83 ct 222 -95 224 -109 224 -123 ct 
p ef
525 0 m  486 0 l  444 -154 l  443 -159 441 -164 440 -170 ct 439 -176 437 -182 436 -187 ct 
435 -193 433 -200 432 -206 ct 431 -200 429 -193 428 -187 ct 426 -181 425 -176 424 -170 ct 
422 -164 421 -159 420 -154 ct 377 0 l  338 0 l  267 -243 l  301 -243 l  344 -89 l 
346 -81 348 -74 350 -67 ct 352 -60 353 -54 355 -48 ct 356 -41 358 -35 359 -29 ct 
360 -37 362 -45 364 -52 ct 365 -56 366 -59 367 -63 ct 367 -66 368 -70 369 -73 ct 
370 -77 371 -80 372 -83 ct 372 -86 373 -89 374 -92 ct 416 -243 l  448 -243 l 
490 -92 l  491 -89 491 -86 492 -83 ct 493 -80 494 -77 495 -73 ct 496 -70 497 -66 497 -63 ct 
498 -59 499 -56 500 -53 ct 502 -45 503 -37 505 -29 ct 505 -29 506 -31 507 -35 ct 
508 -39 509 -44 510 -50 ct 511 -56 513 -62 515 -69 ct 516 -76 518 -83 520 -89 ct 
563 -243 l  597 -243 l  525 0 l  p ef
801 -68 m  801 -57 799 -48 795 -39 ct 791 -31 785 -23 777 -17 ct 769 -11 758 -6 746 -2 ct 
733 1 718 3 701 3 ct 671 3 647 -2 630 -13 ct 613 -23 603 -39 598 -59 ct 630 -65 l 
632 -59 634 -53 637 -48 ct 641 -43 645 -38 651 -35 ct 657 -31 664 -28 672 -26 ct 
680 -24 690 -23 702 -23 ct 712 -23 721 -24 729 -25 ct 737 -27 744 -29 750 -33 ct 
756 -36 760 -41 764 -46 ct 767 -52 769 -58 769 -66 ct 769 -74 767 -80 763 -85 ct 
760 -90 755 -94 748 -97 ct 741 -101 734 -103 725 -105 ct 715 -108 705 -110 694 -113 ct 
688 -114 681 -116 674 -117 ct 667 -119 661 -121 654 -124 ct 648 -126 642 -129 637 -133 ct 
631 -136 626 -140 622 -145 ct 618 -149 615 -155 613 -161 ct 611 -167 609 -174 609 -182 ct 
609 -193 612 -203 616 -212 ct 621 -220 628 -227 636 -232 ct 644 -237 654 -241 665 -243 ct 
676 -246 689 -247 702 -247 ct 717 -247 730 -246 740 -243 ct 751 -241 760 -238 767 -233 ct 
775 -228 781 -222 785 -215 ct 789 -208 793 -200 796 -191 ct 763 -185 l  762 -191 759 -197 756 -201 ct 
753 -206 749 -210 744 -213 ct 739 -216 733 -218 726 -220 ct 719 -221 711 -222 701 -222 ct 
690 -222 681 -221 673 -219 ct 665 -217 659 -214 654 -211 ct 650 -208 647 -203 644 -199 ct 
642 -194 641 -189 641 -184 ct 641 -176 643 -171 647 -166 ct 651 -161 655 -157 662 -154 ct 
668 -151 675 -149 683 -146 ct 691 -144 700 -142 709 -140 ct 717 -139 724 -137 732 -135 ct 
739 -133 746 -131 753 -129 ct 760 -126 766 -123 772 -120 ct 778 -117 783 -113 787 -108 ct 
792 -103 795 -97 798 -91 ct 800 -84 801 -76 801 -68 ct p ef
pom

pum
13404 8373 t
205 0 m  11 0 l  11 -25 l  159 -216 l  24 -216 l  24 -243 l  197 -243 l 
197 -219 l  49 -27 l  205 -27 l  205 0 l  p ef
349 -220 m  335 -220 323 -218 312 -213 ct 301 -209 292 -202 285 -194 ct 278 -185 273 -175 269 -163 ct 
265 -151 263 -138 263 -123 ct 263 -108 265 -95 269 -83 ct 273 -71 279 -60 286 -52 ct 
294 -43 303 -36 314 -31 ct 324 -26 336 -24 350 -24 ct 359 -24 368 -25 376 -28 ct 
383 -30 390 -34 397 -38 ct 403 -43 409 -48 413 -54 ct 418 -60 423 -67 427 -75 ct 
453 -61 l  449 -52 444 -44 437 -36 ct 431 -28 423 -21 415 -15 ct 406 -10 396 -5 385 -2 ct 
374 1 362 3 348 3 ct 329 3 311 0 297 -6 ct 282 -13 270 -21 260 -33 ct 250 -44 242 -57 237 -73 ct 
232 -88 230 -105 230 -123 ct 230 -142 233 -159 238 -174 ct 243 -190 251 -203 261 -213 ct 
271 -224 283 -232 298 -238 ct 313 -244 329 -247 348 -247 ct 374 -247 396 -242 413 -232 ct 
430 -222 443 -207 451 -187 ct 420 -176 l  418 -182 415 -188 411 -193 ct 407 -198 402 -203 396 -207 ct 
390 -211 383 -214 375 -216 ct 368 -219 359 -220 349 -220 ct p ef
pom

pum
968 7926 t
183 -122 m  183 -99 180 -79 176 -63 ct 171 -47 165 -34 158 -25 ct 150 -15 141 -8 131 -3 ct 
120 1 109 3 98 3 ct 86 3 75 1 65 -3 ct 54 -8 46 -15 38 -24 ct 30 -34 25 -47 20 -63 ct 
16 -79 14 -99 14 -122 ct 14 -146 16 -167 20 -183 ct 25 -199 31 -212 38 -221 ct 
46 -231 55 -237 65 -241 ct 75 -245 87 -247 99 -247 ct 110 -247 121 -245 131 -241 ct 
142 -237 150 -231 158 -221 ct 166 -212 172 -199 176 -183 ct 180 -167 183 -146 183 -122 ct 
p
151 -122 m  151 -141 150 -157 148 -170 ct 145 -183 142 -193 137 -201 ct 133 -209 127 -214 121 -217 ct 
114 -220 107 -222 99 -222 ct 90 -222 82 -220 76 -217 ct 69 -214 63 -208 59 -201 ct 
54 -193 51 -183 49 -170 ct 46 -157 45 -141 45 -122 ct 45 -103 46 -88 49 -75 ct 
51 -62 54 -52 59 -44 ct 64 -36 69 -31 76 -27 ct 82 -24 90 -22 98 -22 ct 106 -22 114 -24 120 -27 ct 
127 -31 132 -36 137 -44 ct 141 -52 145 -62 147 -75 ct 150 -88 151 -103 151 -122 ct 
p ef
pom

pum
677 6934 t
183 -122 m  183 -99 180 -79 176 -63 ct 171 -47 165 -34 158 -25 ct 150 -15 141 -8 131 -3 ct 
120 1 109 3 98 3 ct 86 3 75 1 65 -3 ct 54 -8 46 -15 38 -24 ct 30 -34 25 -47 20 -63 ct 
16 -79 14 -99 14 -122 ct 14 -146 16 -167 20 -183 ct 25 -199 31 -212 38 -221 ct 
46 -231 55 -237 65 -241 ct 75 -245 87 -247 99 -247 ct 110 -247 121 -245 131 -241 ct 
142 -237 150 -231 158 -221 ct 166 -212 172 -199 176 -183 ct 180 -167 183 -146 183 -122 ct 
p
151 -122 m  151 -141 150 -157 148 -170 ct 145 -183 142 -193 137 -201 ct 133 -209 127 -214 121 -217 ct 
114 -220 107 -222 99 -222 ct 90 -222 82 -220 76 -217 ct 69 -214 63 -208 59 -201 ct 
54 -193 51 -183 49 -170 ct 46 -157 45 -141 45 -122 ct 45 -103 46 -88 49 -75 ct 
51 -62 54 -52 59 -44 ct 64 -36 69 -31 76 -27 ct 82 -24 90 -22 98 -22 ct 106 -22 114 -24 120 -27 ct 
127 -31 132 -36 137 -44 ct 141 -52 145 -62 147 -75 ct 150 -88 151 -103 151 -122 ct 
p ef
217 0 m  217 -38 l  251 -38 l  251 0 l  217 0 l  p ef
473 -80 m  473 -67 471 -56 467 -46 ct 463 -36 458 -27 451 -20 ct 443 -13 434 -7 424 -3 ct 
413 1 400 3 386 3 ct 374 3 362 1 353 -1 ct 343 -4 335 -9 329 -14 ct 322 -19 317 -25 313 -32 ct 
309 -39 307 -47 305 -55 ct 337 -58 l  338 -54 340 -49 342 -45 ct 344 -41 347 -37 351 -33 ct 
355 -30 360 -27 366 -25 ct 372 -23 379 -22 387 -22 ct 395 -22 402 -24 409 -26 ct 
415 -29 421 -32 426 -37 ct 430 -42 434 -48 436 -55 ct 439 -62 440 -70 440 -79 ct 
440 -86 439 -93 437 -99 ct 434 -106 431 -111 426 -116 ct 422 -120 416 -124 410 -126 ct 
403 -129 396 -130 388 -130 ct 383 -130 378 -130 373 -129 ct 369 -128 365 -126 361 -125 ct 
358 -123 354 -121 351 -119 ct 348 -117 345 -115 343 -113 ct 312 -113 l  320 -243 l 
458 -243 l  458 -217 l  349 -217 l  344 -140 l  349 -144 356 -148 365 -151 ct 
373 -154 383 -155 394 -155 ct 406 -155 417 -154 427 -150 ct 436 -146 445 -141 451 -134 ct 
458 -128 463 -120 467 -110 ct 471 -101 473 -91 473 -80 ct p ef
pom

pum
968 5943 t
27 0 m  27 -26 l  89 -26 l  89 -213 l  34 -174 l  34 -204 l  91 -243 l 
120 -243 l  120 -26 l  179 -26 l  179 0 l  27 0 l  p ef
pom

pum
677 4952 t
27 0 m  27 -26 l  89 -26 l  89 -213 l  34 -174 l  34 -204 l  91 -243 l 
120 -243 l  120 -26 l  179 -26 l  179 0 l  27 0 l  p ef
217 0 m  217 -38 l  251 -38 l  251 0 l  217 0 l  p ef
473 -80 m  473 -67 471 -56 467 -46 ct 463 -36 458 -27 451 -20 ct 443 -13 434 -7 424 -3 ct 
413 1 400 3 386 3 ct 374 3 362 1 353 -1 ct 343 -4 335 -9 329 -14 ct 322 -19 317 -25 313 -32 ct 
309 -39 307 -47 305 -55 ct 337 -58 l  338 -54 340 -49 342 -45 ct 344 -41 347 -37 351 -33 ct 
355 -30 360 -27 366 -25 ct 372 -23 379 -22 387 -22 ct 395 -22 402 -24 409 -26 ct 
415 -29 421 -32 426 -37 ct 430 -42 434 -48 436 -55 ct 439 -62 440 -70 440 -79 ct 
440 -86 439 -93 437 -99 ct 434 -106 431 -111 426 -116 ct 422 -120 416 -124 410 -126 ct 
403 -129 396 -130 388 -130 ct 383 -130 378 -130 373 -129 ct 369 -128 365 -126 361 -125 ct 
358 -123 354 -121 351 -119 ct 348 -117 345 -115 343 -113 ct 312 -113 l  320 -243 l 
458 -243 l  458 -217 l  349 -217 l  344 -140 l  349 -144 356 -148 365 -151 ct 
373 -154 383 -155 394 -155 ct 406 -155 417 -154 427 -150 ct 436 -146 445 -141 451 -134 ct 
458 -128 463 -120 467 -110 ct 471 -101 473 -91 473 -80 ct p ef
pom

pum
968 3962 t
18 0 m  18 -22 l  24 -35 31 -47 39 -58 ct 48 -68 57 -77 66 -85 ct 75 -94 84 -101 94 -109 ct 
103 -116 111 -123 118 -130 ct 126 -137 132 -145 136 -152 ct 141 -160 143 -169 143 -179 ct 
143 -186 142 -192 140 -197 ct 138 -202 135 -207 131 -210 ct 127 -214 122 -217 117 -218 ct 
111 -220 105 -221 99 -221 ct 92 -221 87 -220 81 -218 ct 76 -217 71 -214 67 -211 ct 
62 -207 59 -203 56 -198 ct 53 -193 52 -187 51 -180 ct 19 -183 l  20 -192 23 -200 26 -208 ct 
30 -215 35 -222 42 -228 ct 49 -234 57 -238 66 -242 ct 75 -245 86 -247 99 -247 ct 
111 -247 121 -245 131 -242 ct 140 -239 148 -235 155 -229 ct 161 -224 166 -217 170 -209 ct 
173 -200 175 -191 175 -180 ct 175 -172 173 -164 170 -157 ct 167 -149 164 -142 159 -136 ct 
154 -129 148 -123 142 -116 ct 135 -110 129 -104 122 -98 ct 115 -92 107 -86 100 -81 ct 
93 -75 87 -69 80 -63 ct 74 -57 68 -51 63 -45 ct 58 -39 55 -33 52 -26 ct 179 -26 l 
179 0 l  18 0 l  p ef
pom

pum
677 2971 t
18 0 m  18 -22 l  24 -35 31 -47 39 -58 ct 48 -68 57 -77 66 -85 ct 75 -94 84 -101 94 -109 ct 
103 -116 111 -123 118 -130 ct 126 -137 132 -145 136 -152 ct 141 -160 143 -169 143 -179 ct 
143 -186 142 -192 140 -197 ct 138 -202 135 -207 131 -210 ct 127 -214 122 -217 117 -218 ct 
111 -220 105 -221 99 -221 ct 92 -221 87 -220 81 -218 ct 76 -217 71 -214 67 -211 ct 
62 -207 59 -203 56 -198 ct 53 -193 52 -187 51 -180 ct 19 -183 l  20 -192 23 -200 26 -208 ct 
30 -215 35 -222 42 -228 ct 49 -234 57 -238 66 -242 ct 75 -245 86 -247 99 -247 ct 
111 -247 121 -245 131 -242 ct 140 -239 148 -235 155 -229 ct 161 -224 166 -217 170 -209 ct 
173 -200 175 -191 175 -180 ct 175 -172 173 -164 170 -157 ct 167 -149 164 -142 159 -136 ct 
154 -129 148 -123 142 -116 ct 135 -110 129 -104 122 -98 ct 115 -92 107 -86 100 -81 ct 
93 -75 87 -69 80 -63 ct 74 -57 68 -51 63 -45 ct 58 -39 55 -33 52 -26 ct 179 -26 l 
179 0 l  18 0 l  p ef
217 0 m  217 -38 l  251 -38 l  251 0 l  217 0 l  p ef
473 -80 m  473 -67 471 -56 467 -46 ct 463 -36 458 -27 451 -20 ct 443 -13 434 -7 424 -3 ct 
413 1 400 3 386 3 ct 374 3 362 1 353 -1 ct 343 -4 335 -9 329 -14 ct 322 -19 317 -25 313 -32 ct 
309 -39 307 -47 305 -55 ct 337 -58 l  338 -54 340 -49 342 -45 ct 344 -41 347 -37 351 -33 ct 
355 -30 360 -27 366 -25 ct 372 -23 379 -22 387 -22 ct 395 -22 402 -24 409 -26 ct 
415 -29 421 -32 426 -37 ct 430 -42 434 -48 436 -55 ct 439 -62 440 -70 440 -79 ct 
440 -86 439 -93 437 -99 ct 434 -106 431 -111 426 -116 ct 422 -120 416 -124 410 -126 ct 
403 -129 396 -130 388 -130 ct 383 -130 378 -130 373 -129 ct 369 -128 365 -126 361 -125 ct 
358 -123 354 -121 351 -119 ct 348 -117 345 -115 343 -113 ct 312 -113 l  320 -243 l 
458 -243 l  458 -217 l  349 -217 l  344 -140 l  349 -144 356 -148 365 -151 ct 
373 -154 383 -155 394 -155 ct 406 -155 417 -154 427 -150 ct 436 -146 445 -141 451 -134 ct 
458 -128 463 -120 467 -110 ct 471 -101 473 -91 473 -80 ct p ef
pom

pum
968 1980 t
181 -68 m  181 -57 179 -47 175 -38 ct 172 -29 166 -22 160 -16 ct 153 -10 144 -5 134 -2 ct 
123 1 112 3 98 3 ct 83 3 71 1 60 -3 ct 50 -6 42 -11 35 -17 ct 28 -24 23 -31 20 -39 ct 
17 -46 14 -55 13 -63 ct 46 -66 l  46 -60 48 -54 51 -48 ct 53 -43 56 -38 61 -35 ct 
65 -31 70 -28 76 -26 ct 83 -24 90 -23 98 -23 ct 114 -23 126 -27 135 -34 ct 144 -42 149 -54 149 -69 ct 
149 -78 147 -85 143 -90 ct 139 -96 134 -100 128 -103 ct 122 -106 115 -108 109 -109 ct 
102 -110 95 -111 89 -111 ct 72 -111 l  72 -138 l  89 -138 l  94 -138 101 -139 107 -140 ct 
113 -141 119 -143 124 -146 ct 129 -149 134 -154 137 -159 ct 141 -164 142 -171 142 -180 ct 
142 -193 138 -203 131 -210 ct 123 -218 112 -221 97 -221 ct 83 -221 72 -218 64 -211 ct 
55 -204 50 -194 49 -182 ct 18 -184 l  19 -195 22 -204 26 -212 ct 31 -220 37 -226 44 -231 ct 
51 -237 59 -241 68 -243 ct 77 -246 87 -247 97 -247 ct 111 -247 122 -245 132 -242 ct 
142 -239 150 -234 156 -228 ct 162 -222 167 -216 170 -208 ct 173 -200 174 -192 174 -183 ct 
174 -176 173 -169 171 -163 ct 169 -157 166 -151 162 -146 ct 158 -141 153 -137 146 -134 ct 
140 -130 132 -127 123 -125 ct 123 -125 l  133 -124 142 -122 149 -118 ct 156 -115 162 -111 167 -105 ct 
171 -100 175 -95 177 -88 ct 180 -82 181 -75 181 -68 ct p ef
pom

pum
677 988 t
181 -68 m  181 -57 179 -47 175 -38 ct 172 -29 166 -22 160 -16 ct 153 -10 144 -5 134 -2 ct 
123 1 112 3 98 3 ct 83 3 71 1 60 -3 ct 50 -6 42 -11 35 -17 ct 28 -24 23 -31 20 -39 ct 
17 -46 14 -55 13 -63 ct 46 -66 l  46 -60 48 -54 51 -48 ct 53 -43 56 -38 61 -35 ct 
65 -31 70 -28 76 -26 ct 83 -24 90 -23 98 -23 ct 114 -23 126 -27 135 -34 ct 144 -42 149 -54 149 -69 ct 
149 -78 147 -85 143 -90 ct 139 -96 134 -100 128 -103 ct 122 -106 115 -108 109 -109 ct 
102 -110 95 -111 89 -111 ct 72 -111 l  72 -138 l  89 -138 l  94 -138 101 -139 107 -140 ct 
113 -141 119 -143 124 -146 ct 129 -149 134 -154 137 -159 ct 141 -164 142 -171 142 -180 ct 
142 -193 138 -203 131 -210 ct 123 -218 112 -221 97 -221 ct 83 -221 72 -218 64 -211 ct 
55 -204 50 -194 49 -182 ct 18 -184 l  19 -195 22 -204 26 -212 ct 31 -220 37 -226 44 -231 ct 
51 -237 59 -241 68 -243 ct 77 -246 87 -247 97 -247 ct 111 -247 122 -245 132 -242 ct 
142 -239 150 -234 156 -228 ct 162 -222 167 -216 170 -208 ct 173 -200 174 -192 174 -183 ct 
174 -176 173 -169 171 -163 ct 169 -157 166 -151 162 -146 ct 158 -141 153 -137 146 -134 ct 
140 -130 132 -127 123 -125 ct 123 -125 l  133 -124 142 -122 149 -118 ct 156 -115 162 -111 167 -105 ct 
171 -100 175 -95 177 -88 ct 180 -82 181 -75 181 -68 ct p ef
217 0 m  217 -38 l  251 -38 l  251 0 l  217 0 l  p ef
473 -80 m  473 -67 471 -56 467 -46 ct 463 -36 458 -27 451 -20 ct 443 -13 434 -7 424 -3 ct 
413 1 400 3 386 3 ct 374 3 362 1 353 -1 ct 343 -4 335 -9 329 -14 ct 322 -19 317 -25 313 -32 ct 
309 -39 307 -47 305 -55 ct 337 -58 l  338 -54 340 -49 342 -45 ct 344 -41 347 -37 351 -33 ct 
355 -30 360 -27 366 -25 ct 372 -23 379 -22 387 -22 ct 395 -22 402 -24 409 -26 ct 
415 -29 421 -32 426 -37 ct 430 -42 434 -48 436 -55 ct 439 -62 440 -70 440 -79 ct 
440 -86 439 -93 437 -99 ct 434 -106 431 -111 426 -116 ct 422 -120 416 -124 410 -126 ct 
403 -129 396 -130 388 -130 ct 383 -130 378 -130 373 -129 ct 369 -128 365 -126 361 -125 ct 
358 -123 354 -121 351 -119 ct 348 -117 345 -115 343 -113 ct 312 -113 l  320 -243 l 
458 -243 l  458 -217 l  349 -217 l  344 -140 l  349 -144 356 -148 365 -151 ct 
373 -154 383 -155 394 -155 ct 406 -155 417 -154 427 -150 ct 436 -146 445 -141 451 -134 ct 
458 -128 463 -120 467 -110 ct 471 -101 473 -91 473 -80 ct p ef
pom

pum
6288 8968 t
232 -110 m  232 -93 230 -78 225 -64 ct 220 -50 213 -38 203 -28 ct 194 -18 183 -10 169 -5 ct 
156 0 141 3 123 3 ct 105 3 90 0 76 -5 ct 63 -11 51 -19 42 -29 ct 33 -39 26 -51 22 -65 ct 
17 -79 15 -94 15 -110 ct 15 -128 17 -143 22 -157 ct 27 -170 34 -182 43 -192 ct 
52 -201 64 -209 77 -214 ct 91 -219 106 -222 124 -222 ct 141 -222 157 -219 170 -214 ct 
184 -209 195 -201 204 -192 ct 213 -182 220 -170 225 -156 ct 230 -143 232 -127 232 -110 ct 
p
202 -110 m  202 -124 200 -136 197 -146 ct 193 -157 188 -166 182 -174 ct 175 -182 167 -187 157 -192 ct 
148 -196 136 -198 124 -198 ct 111 -198 99 -196 89 -192 ct 80 -187 71 -182 65 -174 ct 
58 -166 53 -157 50 -146 ct 47 -136 45 -124 45 -110 ct 45 -97 47 -85 50 -74 ct 54 -63 59 -54 65 -46 ct 
72 -38 80 -32 90 -28 ct 99 -23 111 -21 123 -21 ct 137 -21 149 -23 159 -28 ct 169 -32 177 -38 183 -46 ct 
190 -54 194 -64 197 -75 ct 200 -86 202 -98 202 -110 ct p ef
402 -85 m  402 -72 400 -60 398 -50 ct 396 -39 393 -30 388 -22 ct 383 -14 377 -8 369 -4 ct 
361 1 351 3 340 3 ct 328 3 317 1 308 -4 ct 299 -8 292 -16 288 -26 ct 287 -26 l 
287 -26 287 -25 287 -23 ct 287 -22 287 -20 287 -17 ct 287 -15 287 -12 287 -9 ct 
287 -6 287 -3 287 0 ct 287 66 l  259 66 l  259 -134 l  259 -138 259 -141 259 -145 ct 
259 -149 259 -152 259 -155 ct 259 -158 259 -161 259 -163 ct 259 -165 259 -167 259 -168 ct 
286 -168 l  286 -168 286 -166 286 -165 ct 286 -163 286 -161 286 -158 ct 287 -155 287 -153 287 -150 ct 
287 -147 287 -144 287 -141 ct 288 -141 l  290 -146 293 -151 297 -155 ct 300 -159 304 -162 308 -164 ct 
312 -167 317 -168 322 -169 ct 327 -170 333 -171 340 -171 ct 351 -171 361 -169 369 -165 ct 
377 -161 383 -155 388 -147 ct 393 -140 396 -131 398 -120 ct 400 -110 402 -98 402 -85 ct 
p
372 -84 m  372 -95 372 -104 370 -112 ct 369 -120 367 -127 364 -132 ct 361 -138 357 -142 352 -145 ct 
347 -148 340 -149 333 -149 ct 326 -149 321 -149 315 -147 ct 310 -145 305 -142 301 -137 ct 
297 -132 293 -125 291 -116 ct 289 -107 287 -96 287 -82 ct 287 -70 288 -60 290 -52 ct 
292 -44 295 -37 299 -32 ct 303 -27 307 -23 313 -21 ct 319 -19 325 -18 332 -18 ct 
340 -18 346 -19 352 -22 ct 357 -25 361 -29 364 -35 ct 367 -41 369 -48 370 -56 ct 
372 -64 372 -74 372 -84 ct p ef
509 -2 m  505 -1 500 0 496 1 ct 492 2 487 2 481 2 ct 458 2 447 -11 447 -36 ct 447 -148 l 
428 -148 l  428 -168 l  448 -168 l  457 -206 l  475 -206 l  475 -168 l 
506 -168 l  506 -148 l  475 -148 l  475 -42 l  475 -34 476 -28 479 -25 ct 
482 -22 486 -20 493 -20 ct 496 -20 498 -20 501 -21 ct 503 -21 506 -22 509 -22 ct 
509 -2 l  p ef
524 -203 m  524 -230 l  552 -230 l  552 -203 l  524 -203 l  p
524 0 m  524 -168 l  552 -168 l  552 0 l  524 0 l  p ef
701 0 m  701 -106 l  701 -115 701 -121 700 -127 ct 699 -132 697 -137 694 -140 ct 
692 -144 689 -146 685 -147 ct 681 -149 676 -149 671 -149 ct 665 -149 659 -148 655 -146 ct 
650 -144 646 -140 642 -136 ct 639 -131 636 -126 635 -120 ct 633 -113 632 -106 632 -97 ct 
632 0 l  604 0 l  604 -132 l  604 -136 604 -139 604 -143 ct 604 -147 604 -151 604 -154 ct 
604 -158 604 -161 603 -163 ct 603 -166 603 -167 603 -168 ct 630 -168 l  630 -167 630 -166 630 -164 ct 
630 -161 630 -159 630 -156 ct 630 -153 631 -150 631 -147 ct 631 -144 631 -141 631 -139 ct 
631 -139 l  634 -144 636 -148 639 -152 ct 642 -156 646 -160 649 -162 ct 653 -165 658 -167 663 -169 ct 
668 -170 674 -171 680 -171 ct 693 -171 703 -168 710 -163 ct 718 -158 723 -150 726 -139 ct 
726 -139 l  729 -144 732 -148 735 -152 ct 738 -156 742 -160 746 -162 ct 750 -165 754 -167 760 -169 ct 
765 -170 771 -171 777 -171 ct 786 -171 793 -170 799 -168 ct 805 -165 811 -162 814 -157 ct 
818 -152 821 -146 823 -139 ct 825 -131 826 -122 826 -112 ct 826 0 l  798 0 l 
798 -106 l  798 -115 798 -121 797 -127 ct 796 -132 794 -137 792 -140 ct 789 -144 786 -146 782 -147 ct 
778 -149 773 -149 768 -149 ct 762 -149 756 -148 752 -146 ct 747 -144 743 -141 739 -136 ct 
736 -132 733 -126 732 -120 ct 730 -113 729 -106 729 -97 ct 729 0 l  701 0 l 
p ef
868 -203 m  868 -230 l  896 -230 l  896 -203 l  868 -203 l  p
868 0 m  868 -168 l  896 -168 l  896 0 l  868 0 l  p ef
934 0 m  934 -21 l  1036 -146 l  940 -146 l  940 -168 l  1068 -168 l  1068 -147 l 
965 -22 l  1074 -22 l  1074 0 l  934 0 l  p ef
1149 3 m  1132 3 1120 -1 1111 -10 ct 1103 -19 1099 -32 1099 -47 ct 1099 -58 1101 -67 1105 -75 ct 
1109 -82 1114 -87 1121 -91 ct 1128 -95 1136 -98 1144 -100 ct 1153 -101 1162 -102 1171 -102 ct 
1209 -102 l  1209 -111 l  1209 -118 1208 -124 1207 -129 ct 1205 -134 1203 -138 1200 -141 ct 
1197 -144 1193 -146 1189 -148 ct 1184 -149 1179 -150 1173 -150 ct 1167 -150 1162 -149 1158 -149 ct 
1154 -148 1150 -146 1147 -144 ct 1144 -142 1141 -140 1139 -136 ct 1137 -133 1136 -128 1135 -123 ct 
1106 -126 l  1107 -132 1109 -138 1112 -144 ct 1115 -149 1119 -154 1124 -158 ct 
1130 -162 1136 -165 1144 -168 ct 1152 -170 1162 -171 1173 -171 ct 1194 -171 1210 -166 1221 -156 ct 
1232 -147 1237 -133 1237 -114 ct 1237 -42 l  1237 -34 1238 -28 1240 -23 ct 1242 -19 1247 -17 1253 -17 ct 
1254 -17 1256 -17 1257 -17 ct 1259 -18 1260 -18 1262 -18 ct 1262 -1 l  1258 0 1255 1 1251 1 ct 
1248 2 1244 2 1240 2 ct 1235 2 1230 1 1227 0 ct 1223 -2 1220 -4 1217 -7 ct 1215 -10 1213 -13 1212 -17 ct 
1211 -22 1210 -27 1210 -32 ct 1209 -32 l  1206 -27 1202 -22 1199 -18 ct 1195 -13 1191 -10 1186 -7 ct 
1182 -4 1176 -1 1170 1 ct 1164 2 1157 3 1149 3 ct p
1156 -18 m  1165 -18 1172 -20 1179 -23 ct 1186 -26 1191 -30 1196 -35 ct 1200 -40 1203 -46 1205 -52 ct 
1208 -58 1209 -63 1209 -69 ct 1209 -82 l  1178 -82 l  1171 -82 1165 -82 1159 -81 ct 
1153 -80 1147 -78 1142 -76 ct 1138 -73 1134 -70 1131 -65 ct 1129 -60 1127 -54 1127 -47 ct 
1127 -37 1130 -30 1135 -25 ct 1140 -20 1147 -18 1156 -18 ct p ef
1356 -2 m  1352 -1 1347 0 1343 1 ct 1339 2 1334 2 1328 2 ct 1305 2 1294 -11 1294 -36 ct 
1294 -148 l  1275 -148 l  1275 -168 l  1295 -168 l  1304 -206 l  1322 -206 l 
1322 -168 l  1353 -168 l  1353 -148 l  1322 -148 l  1322 -42 l  1322 -34 1323 -28 1326 -25 ct 
1329 -22 1333 -20 1340 -20 ct 1343 -20 1345 -20 1348 -21 ct 1350 -21 1353 -22 1356 -22 ct 
1356 -2 l  p ef
1370 -203 m  1370 -230 l  1398 -230 l  1398 -203 l  1370 -203 l  p
1370 0 m  1370 -168 l  1398 -168 l  1398 0 l  1370 0 l  p ef
1593 -84 m  1593 -55 1586 -33 1573 -19 ct 1560 -4 1541 3 1517 3 ct 1505 3 1495 1 1485 -2 ct 
1476 -6 1468 -11 1462 -18 ct 1456 -26 1451 -35 1447 -46 ct 1444 -57 1442 -69 1442 -84 ct 
1442 -142 1467 -171 1518 -171 ct 1531 -171 1542 -169 1551 -166 ct 1561 -162 1569 -157 1575 -149 ct 
1581 -142 1585 -133 1588 -122 ct 1591 -111 1593 -99 1593 -84 ct p
1563 -84 m  1563 -97 1562 -108 1560 -116 ct 1558 -125 1555 -132 1551 -137 ct 
1547 -142 1543 -145 1537 -147 ct 1531 -149 1525 -150 1518 -150 ct 1511 -150 1505 -149 1499 -147 ct 
1493 -145 1488 -141 1484 -136 ct 1480 -131 1477 -124 1475 -116 ct 1473 -107 1472 -97 1472 -84 ct 
1472 -71 1473 -60 1475 -52 ct 1477 -43 1481 -37 1485 -31 ct 1488 -26 1493 -23 1499 -21 ct 
1504 -19 1510 -18 1516 -18 ct 1524 -18 1530 -19 1536 -21 ct 1542 -23 1547 -26 1551 -31 ct 
1555 -36 1558 -43 1560 -52 ct 1562 -60 1563 -71 1563 -84 ct p ef
1742 0 m  1742 -106 l  1742 -115 1742 -121 1740 -127 ct 1739 -132 1737 -137 1734 -140 ct 
1732 -144 1728 -146 1724 -147 ct 1719 -149 1714 -149 1707 -149 ct 1701 -149 1695 -148 1690 -146 ct 
1684 -144 1680 -140 1676 -136 ct 1672 -131 1669 -126 1667 -120 ct 1665 -113 1664 -106 1664 -97 ct 
1664 0 l  1636 0 l  1636 -132 l  1636 -136 1636 -139 1636 -143 ct 1636 -147 1636 -151 1636 -154 ct 
1636 -158 1636 -161 1635 -163 ct 1635 -166 1635 -167 1635 -168 ct 1662 -168 l 
1662 -167 1662 -166 1662 -164 ct 1662 -161 1662 -159 1662 -156 ct 1662 -153 1663 -150 1663 -147 ct 
1663 -144 1663 -141 1663 -139 ct 1663 -139 l  1666 -144 1669 -148 1672 -152 ct 
1675 -156 1679 -160 1683 -162 ct 1688 -165 1692 -167 1698 -169 ct 1703 -170 1710 -171 1717 -171 ct 
1726 -171 1734 -170 1741 -168 ct 1748 -165 1753 -162 1758 -157 ct 1762 -152 1765 -146 1767 -139 ct 
1769 -131 1770 -122 1770 -112 ct 1770 0 l  1742 0 l  p ef
1947 -47 m  1947 -39 1945 -32 1942 -26 ct 1939 -19 1934 -14 1929 -10 ct 1923 -6 1916 -3 1907 0 ct 
1899 2 1889 3 1878 3 ct 1869 3 1860 2 1852 1 ct 1844 -1 1837 -3 1831 -6 ct 1826 -10 1821 -14 1817 -20 ct 
1813 -25 1810 -32 1808 -40 ct 1833 -44 l  1835 -35 1840 -29 1847 -25 ct 1855 -20 1865 -18 1878 -18 ct 
1884 -18 1890 -19 1895 -20 ct 1900 -20 1904 -22 1908 -24 ct 1911 -26 1914 -29 1916 -32 ct 
1918 -35 1919 -39 1919 -44 ct 1919 -49 1918 -54 1916 -57 ct 1913 -60 1910 -63 1906 -65 ct 
1902 -67 1896 -69 1890 -71 ct 1884 -72 1878 -74 1870 -76 ct 1864 -78 1857 -80 1850 -82 ct 
1844 -84 1838 -87 1832 -91 ct 1827 -94 1823 -99 1820 -104 ct 1816 -109 1815 -116 1815 -124 ct 
1815 -139 1820 -151 1831 -159 ct 1842 -167 1858 -171 1879 -171 ct 1897 -171 1912 -168 1923 -161 ct 
1934 -155 1941 -144 1944 -130 ct 1918 -127 l  1917 -131 1916 -135 1913 -138 ct 
1911 -141 1908 -143 1904 -145 ct 1901 -147 1897 -148 1892 -149 ct 1888 -150 1883 -150 1879 -150 ct 
1866 -150 1857 -148 1851 -144 ct 1845 -140 1842 -135 1842 -127 ct 1842 -122 1843 -118 1845 -115 ct 
1847 -112 1850 -110 1854 -108 ct 1858 -106 1863 -104 1869 -103 ct 1874 -101 1880 -100 1887 -98 ct 
1892 -97 1896 -96 1901 -94 ct 1906 -93 1910 -91 1914 -90 ct 1919 -88 1923 -86 1927 -83 ct 
1931 -81 1934 -78 1937 -74 ct 1940 -71 1942 -67 1944 -62 ct 1946 -58 1947 -53 1947 -47 ct 
p ef
pom

pum
387 6068 t
90.0 r 26 0 m  26 -219 l  192 -219 l  192 -195 l  56 -195 l  56 -124 l  183 -124 l 
183 -100 l  56 -100 l  56 -24 l  198 -24 l  198 0 l  26 0 l  p ef
336 0 m  291 -69 l  246 0 l  216 0 l  275 -86 l  218 -168 l  249 -168 l 
291 -103 l  333 -168 l  364 -168 l  307 -87 l  368 0 l  336 0 l  p ef
413 -78 m  413 -69 414 -61 416 -54 ct 417 -46 420 -40 424 -35 ct 428 -29 433 -25 438 -22 ct 
444 -19 451 -18 460 -18 ct 472 -18 482 -20 489 -25 ct 496 -30 501 -36 504 -44 ct 
528 -37 l  526 -32 524 -27 521 -23 ct 518 -18 513 -14 508 -10 ct 503 -6 496 -3 488 -1 ct 
480 2 471 3 460 3 ct 435 3 416 -4 403 -19 ct 390 -34 384 -56 384 -85 ct 384 -101 385 -114 389 -125 ct 
393 -136 399 -145 406 -152 ct 412 -158 420 -163 429 -166 ct 439 -169 448 -171 459 -171 ct 
473 -171 485 -169 494 -164 ct 503 -160 511 -153 517 -145 ct 523 -137 527 -128 529 -117 ct 
532 -106 533 -94 533 -82 ct 533 -78 l  413 -78 l  p
504 -99 m  502 -117 498 -130 490 -138 ct 483 -146 472 -150 458 -150 ct 454 -150 449 -150 444 -148 ct 
438 -147 434 -144 429 -140 ct 425 -136 421 -131 418 -125 ct 415 -118 414 -110 413 -99 ct 
504 -99 l  p ef
599 -85 m  599 -75 599 -66 601 -58 ct 602 -50 605 -43 608 -37 ct 611 -32 616 -27 621 -24 ct 
626 -21 633 -19 641 -19 ct 651 -19 659 -22 666 -27 ct 673 -32 677 -40 678 -51 ct 
707 -51 l  706 -44 704 -37 701 -31 ct 697 -24 693 -18 688 -13 ct 683 -8 676 -4 668 -1 ct 
661 1 652 3 642 3 ct 629 3 618 1 608 -4 ct 599 -8 592 -14 586 -22 ct 580 -30 576 -39 573 -50 ct 
571 -60 570 -72 570 -84 ct 570 -95 570 -105 572 -114 ct 574 -123 577 -130 580 -137 ct 
584 -143 587 -149 592 -153 ct 597 -157 602 -161 607 -163 ct 612 -166 618 -168 624 -169 ct 
630 -170 636 -171 642 -171 ct 651 -171 659 -170 667 -167 ct 674 -165 680 -161 686 -157 ct 
691 -152 695 -147 699 -141 ct 702 -135 704 -128 706 -121 ct 677 -119 l  676 -128 672 -135 666 -141 ct 
660 -146 652 -149 641 -149 ct 633 -149 626 -148 621 -145 ct 616 -143 611 -139 608 -133 ct 
605 -128 602 -121 601 -113 ct 599 -105 599 -96 599 -85 ct p ef
763 -168 m  763 -62 l  763 -53 763 -47 765 -41 ct 766 -36 768 -31 770 -28 ct 
773 -24 777 -22 781 -21 ct 785 -19 791 -19 797 -19 ct 804 -19 810 -20 815 -22 ct 
821 -24 825 -28 829 -32 ct 833 -37 836 -42 838 -48 ct 840 -55 841 -62 841 -71 ct 
841 -168 l  869 -168 l  869 -36 l  869 -32 869 -29 869 -25 ct 869 -21 869 -17 869 -14 ct 
869 -10 869 -7 869 -5 ct 870 -2 870 -1 870 0 ct 843 0 l  843 -1 843 -2 843 -4 ct 
843 -7 843 -9 843 -12 ct 842 -15 842 -18 842 -21 ct 842 -24 842 -27 842 -29 ct 
842 -29 l  839 -24 836 -20 833 -16 ct 830 -12 826 -8 822 -6 ct 817 -3 812 -1 807 1 ct 
802 2 795 3 788 3 ct 779 3 771 2 764 0 ct 757 -3 752 -6 747 -11 ct 743 -16 740 -22 738 -29 ct 
736 -37 735 -46 735 -56 ct 735 -168 l  763 -168 l  p ef
986 -2 m  982 -1 977 0 973 1 ct 969 2 964 2 958 2 ct 935 2 924 -11 924 -36 ct 924 -148 l 
905 -148 l  905 -168 l  925 -168 l  934 -206 l  952 -206 l  952 -168 l 
983 -168 l  983 -148 l  952 -148 l  952 -42 l  952 -34 953 -28 956 -25 ct 
959 -22 963 -20 970 -20 ct 973 -20 975 -20 978 -21 ct 980 -21 983 -22 986 -22 ct 
986 -2 l  p ef
1000 -203 m  1000 -230 l  1028 -230 l  1028 -203 l  1000 -203 l  p
1000 0 m  1000 -168 l  1028 -168 l  1028 0 l  1000 0 l  p ef
1222 -84 m  1222 -55 1215 -33 1202 -19 ct 1189 -4 1170 3 1146 3 ct 1134 3 1124 1 1114 -2 ct 
1105 -6 1097 -11 1091 -18 ct 1085 -26 1080 -35 1076 -46 ct 1073 -57 1071 -69 1071 -84 ct 
1071 -142 1096 -171 1147 -171 ct 1160 -171 1171 -169 1180 -166 ct 1190 -162 1198 -157 1204 -149 ct 
1210 -142 1214 -133 1217 -122 ct 1220 -111 1222 -99 1222 -84 ct p
1192 -84 m  1192 -97 1191 -108 1189 -116 ct 1187 -125 1184 -132 1180 -137 ct 
1176 -142 1172 -145 1166 -147 ct 1160 -149 1154 -150 1147 -150 ct 1140 -150 1134 -149 1128 -147 ct 
1122 -145 1117 -141 1113 -136 ct 1109 -131 1106 -124 1104 -116 ct 1102 -107 1101 -97 1101 -84 ct 
1101 -71 1102 -60 1104 -52 ct 1106 -43 1110 -37 1114 -31 ct 1117 -26 1122 -23 1128 -21 ct 
1133 -19 1139 -18 1145 -18 ct 1153 -18 1159 -19 1165 -21 ct 1171 -23 1176 -26 1180 -31 ct 
1184 -36 1187 -43 1189 -52 ct 1191 -60 1192 -71 1192 -84 ct p ef
1372 0 m  1372 -106 l  1372 -115 1372 -121 1370 -127 ct 1369 -132 1367 -137 1364 -140 ct 
1362 -144 1358 -146 1354 -147 ct 1349 -149 1344 -149 1337 -149 ct 1331 -149 1325 -148 1320 -146 ct 
1314 -144 1310 -140 1306 -136 ct 1302 -131 1299 -126 1297 -120 ct 1295 -113 1294 -106 1294 -97 ct 
1294 0 l  1266 0 l  1266 -132 l  1266 -136 1266 -139 1266 -143 ct 1266 -147 1266 -151 1266 -154 ct 
1266 -158 1266 -161 1265 -163 ct 1265 -166 1265 -167 1265 -168 ct 1292 -168 l 
1292 -167 1292 -166 1292 -164 ct 1292 -161 1292 -159 1292 -156 ct 1292 -153 1293 -150 1293 -147 ct 
1293 -144 1293 -141 1293 -139 ct 1293 -139 l  1296 -144 1299 -148 1302 -152 ct 
1305 -156 1309 -160 1313 -162 ct 1318 -165 1322 -167 1328 -169 ct 1333 -170 1340 -171 1347 -171 ct 
1356 -171 1364 -170 1371 -168 ct 1378 -165 1383 -162 1388 -157 ct 1392 -152 1395 -146 1397 -139 ct 
1399 -131 1400 -122 1400 -112 ct 1400 0 l  1372 0 l  p ef
1620 -194 m  1620 1 l  1590 1 l  1590 -194 l  1515 -194 l  1515 -218 l 
1695 -218 l  1695 -194 l  1620 -194 l  p ef
1714 -203 m  1714 -230 l  1742 -230 l  1742 -203 l  1714 -203 l  p
1714 0 m  1714 -168 l  1742 -168 l  1742 0 l  1714 0 l  p ef
1892 0 m  1892 -106 l  1892 -115 1892 -121 1891 -127 ct 1890 -132 1888 -137 1885 -140 ct 
1883 -144 1880 -146 1876 -147 ct 1872 -149 1867 -149 1862 -149 ct 1856 -149 1850 -148 1846 -146 ct 
1841 -144 1837 -140 1833 -136 ct 1830 -131 1827 -126 1826 -120 ct 1824 -113 1823 -106 1823 -97 ct 
1823 0 l  1795 0 l  1795 -132 l  1795 -136 1795 -139 1795 -143 ct 1795 -147 1795 -151 1795 -154 ct 
1795 -158 1795 -161 1794 -163 ct 1794 -166 1794 -167 1794 -168 ct 1821 -168 l 
1821 -167 1821 -166 1821 -164 ct 1821 -161 1821 -159 1821 -156 ct 1821 -153 1822 -150 1822 -147 ct 
1822 -144 1822 -141 1822 -139 ct 1822 -139 l  1825 -144 1827 -148 1830 -152 ct 
1833 -156 1837 -160 1840 -162 ct 1844 -165 1849 -167 1854 -169 ct 1859 -170 1865 -171 1871 -171 ct 
1884 -171 1894 -168 1901 -163 ct 1909 -158 1914 -150 1917 -139 ct 1917 -139 l 
1920 -144 1923 -148 1926 -152 ct 1929 -156 1933 -160 1937 -162 ct 1941 -165 1945 -167 1951 -169 ct 
1956 -170 1962 -171 1968 -171 ct 1977 -171 1984 -170 1990 -168 ct 1996 -165 2002 -162 2005 -157 ct 
2009 -152 2012 -146 2014 -139 ct 2016 -131 2017 -122 2017 -112 ct 2017 0 l  1989 0 l 
1989 -106 l  1989 -115 1989 -121 1988 -127 ct 1987 -132 1985 -137 1983 -140 ct 
1980 -144 1977 -146 1973 -147 ct 1969 -149 1964 -149 1959 -149 ct 1953 -149 1947 -148 1943 -146 ct 
1938 -144 1934 -141 1930 -136 ct 1927 -132 1924 -126 1923 -120 ct 1921 -113 1920 -106 1920 -97 ct 
1920 0 l  1892 0 l  p ef
2080 -78 m  2080 -69 2081 -61 2083 -54 ct 2084 -46 2087 -40 2091 -35 ct 2095 -29 2100 -25 2105 -22 ct 
2111 -19 2118 -18 2127 -18 ct 2139 -18 2149 -20 2156 -25 ct 2163 -30 2168 -36 2171 -44 ct 
2195 -37 l  2193 -32 2191 -27 2188 -23 ct 2185 -18 2180 -14 2175 -10 ct 2170 -6 2163 -3 2155 -1 ct 
2147 2 2138 3 2127 3 ct 2102 3 2083 -4 2070 -19 ct 2057 -34 2051 -56 2051 -85 ct 
2051 -101 2052 -114 2056 -125 ct 2060 -136 2066 -145 2073 -152 ct 2079 -158 2087 -163 2096 -166 ct 
2106 -169 2115 -171 2126 -171 ct 2140 -171 2152 -169 2161 -164 ct 2170 -160 2178 -153 2184 -145 ct 
2190 -137 2194 -128 2196 -117 ct 2199 -106 2200 -94 2200 -82 ct 2200 -78 l  2080 -78 l 
p
2171 -99 m  2169 -117 2165 -130 2157 -138 ct 2150 -146 2139 -150 2125 -150 ct 
2121 -150 2116 -150 2111 -148 ct 2105 -147 2101 -144 2096 -140 ct 2092 -136 2088 -131 2085 -125 ct 
2082 -118 2081 -110 2080 -99 ct 2171 -99 l  p ef
2322 -82 m  2322 -97 2323 -110 2325 -124 ct 2327 -137 2331 -149 2335 -161 ct 
2340 -174 2346 -185 2353 -197 ct 2360 -208 2369 -219 2379 -230 ct 2406 -230 l 
2396 -219 2388 -208 2381 -197 ct 2374 -185 2368 -173 2363 -161 ct 2359 -149 2355 -136 2353 -123 ct 
2351 -110 2350 -96 2350 -82 ct 2350 -68 2351 -54 2353 -41 ct 2355 -28 2359 -15 2363 -3 ct 
2368 9 2374 21 2381 33 ct 2388 44 2396 55 2406 66 ct 2379 66 l  2369 55 2360 44 2353 33 ct 
2346 21 2340 10 2335 -3 ct 2331 -15 2327 -27 2325 -40 ct 2323 -53 2322 -67 2322 -82 ct 
2322 -82 l  p ef
2556 -47 m  2556 -39 2554 -32 2551 -26 ct 2548 -19 2543 -14 2538 -10 ct 2532 -6 2525 -3 2516 0 ct 
2508 2 2498 3 2487 3 ct 2478 3 2469 2 2461 1 ct 2453 -1 2446 -3 2440 -6 ct 2435 -10 2430 -14 2426 -20 ct 
2422 -25 2419 -32 2417 -40 ct 2442 -44 l  2444 -35 2449 -29 2456 -25 ct 2464 -20 2474 -18 2487 -18 ct 
2493 -18 2499 -19 2504 -20 ct 2509 -20 2513 -22 2517 -24 ct 2520 -26 2523 -29 2525 -32 ct 
2527 -35 2528 -39 2528 -44 ct 2528 -49 2527 -54 2525 -57 ct 2522 -60 2519 -63 2515 -65 ct 
2511 -67 2505 -69 2499 -71 ct 2493 -72 2487 -74 2479 -76 ct 2473 -78 2466 -80 2459 -82 ct 
2453 -84 2447 -87 2441 -91 ct 2436 -94 2432 -99 2429 -104 ct 2425 -109 2424 -116 2424 -124 ct 
2424 -139 2429 -151 2440 -159 ct 2451 -167 2467 -171 2488 -171 ct 2506 -171 2521 -168 2532 -161 ct 
2543 -155 2550 -144 2553 -130 ct 2527 -127 l  2526 -131 2525 -135 2522 -138 ct 
2520 -141 2517 -143 2513 -145 ct 2510 -147 2506 -148 2501 -149 ct 2497 -150 2492 -150 2488 -150 ct 
2475 -150 2466 -148 2460 -144 ct 2454 -140 2451 -135 2451 -127 ct 2451 -122 2452 -118 2454 -115 ct 
2456 -112 2459 -110 2463 -108 ct 2467 -106 2472 -104 2478 -103 ct 2483 -101 2489 -100 2496 -98 ct 
2501 -97 2505 -96 2510 -94 ct 2515 -93 2519 -91 2523 -90 ct 2528 -88 2532 -86 2536 -83 ct 
2540 -81 2543 -78 2546 -74 ct 2549 -71 2551 -67 2553 -62 ct 2555 -58 2556 -53 2556 -47 ct 
p ef
2609 -78 m  2609 -69 2610 -61 2612 -54 ct 2613 -46 2616 -40 2620 -35 ct 2624 -29 2629 -25 2634 -22 ct 
2640 -19 2647 -18 2656 -18 ct 2668 -18 2678 -20 2685 -25 ct 2692 -30 2697 -36 2700 -44 ct 
2724 -37 l  2722 -32 2720 -27 2717 -23 ct 2714 -18 2709 -14 2704 -10 ct 2699 -6 2692 -3 2684 -1 ct 
2676 2 2667 3 2656 3 ct 2631 3 2612 -4 2599 -19 ct 2586 -34 2580 -56 2580 -85 ct 
2580 -101 2581 -114 2585 -125 ct 2589 -136 2595 -145 2602 -152 ct 2608 -158 2616 -163 2625 -166 ct 
2635 -169 2644 -171 2655 -171 ct 2669 -171 2681 -169 2690 -164 ct 2699 -160 2707 -153 2713 -145 ct 
2719 -137 2723 -128 2725 -117 ct 2728 -106 2729 -94 2729 -82 ct 2729 -78 l  2609 -78 l 
p
2700 -99 m  2698 -117 2694 -130 2686 -138 ct 2679 -146 2668 -150 2654 -150 ct 
2650 -150 2645 -150 2640 -148 ct 2634 -147 2630 -144 2625 -140 ct 2621 -136 2617 -131 2614 -125 ct 
2611 -118 2610 -110 2609 -99 ct 2700 -99 l  p ef
2795 -85 m  2795 -75 2795 -66 2797 -58 ct 2798 -50 2801 -43 2804 -37 ct 2807 -32 2812 -27 2817 -24 ct 
2822 -21 2829 -19 2837 -19 ct 2847 -19 2855 -22 2862 -27 ct 2869 -32 2873 -40 2874 -51 ct 
2903 -51 l  2902 -44 2900 -37 2897 -31 ct 2893 -24 2889 -18 2884 -13 ct 2879 -8 2872 -4 2864 -1 ct 
2857 1 2848 3 2838 3 ct 2825 3 2814 1 2804 -4 ct 2795 -8 2788 -14 2782 -22 ct 2776 -30 2772 -39 2769 -50 ct 
2767 -60 2766 -72 2766 -84 ct 2766 -95 2766 -105 2768 -114 ct 2770 -123 2773 -130 2776 -137 ct 
2780 -143 2783 -149 2788 -153 ct 2793 -157 2798 -161 2803 -163 ct 2808 -166 2814 -168 2820 -169 ct 
2826 -170 2832 -171 2838 -171 ct 2847 -171 2855 -170 2863 -167 ct 2870 -165 2876 -161 2882 -157 ct 
2887 -152 2891 -147 2895 -141 ct 2898 -135 2900 -128 2902 -121 ct 2873 -119 l 
2872 -128 2868 -135 2862 -141 ct 2856 -146 2848 -149 2837 -149 ct 2829 -149 2822 -148 2817 -145 ct 
2812 -143 2807 -139 2804 -133 ct 2801 -128 2798 -121 2797 -113 ct 2795 -105 2795 -96 2795 -85 ct 
p ef
2996 -82 m  2996 -67 2995 -53 2993 -40 ct 2991 -27 2987 -15 2983 -3 ct 2978 10 2972 21 2965 33 ct 
2958 44 2949 55 2939 66 ct 2912 66 l  2922 55 2930 44 2937 33 ct 2944 21 2950 9 2955 -3 ct 
2959 -15 2963 -28 2965 -41 ct 2967 -54 2968 -68 2968 -82 ct 2968 -96 2967 -110 2965 -123 ct 
2963 -136 2959 -149 2955 -161 ct 2950 -173 2944 -185 2937 -197 ct 2930 -208 2922 -219 2912 -230 ct 
2939 -230 l  2949 -219 2958 -208 2965 -197 ct 2972 -185 2978 -174 2983 -161 ct 
2987 -149 2991 -137 2993 -124 ct 2995 -110 2996 -97 2996 -82 ct 2996 -82 l  p ef
pom
gr
gs
0 0 m 14097 0 l 14097 9140 l 0 9140 l 0 0 l eoclip newpath
gr
gr
gr
gr
0 9141 t 
pom
count op_count sub {pop} repeat countdictstack dict_count sub {end} repeat b4_inc_state restore
%%PageTrailer
%%Trailer
%%EOF
