%!PS-Adobe-3.0 EPSF-3.0 
%%BoundingBox: 0 0 553 258
%%Pages: 0
%%Creator: LibreOffice 3.5
%%Title: none
%%CreationDate: none
%%LanguageLevel: 2
%%EndComments
%%BeginProlog
%%BeginResource: procset SDRes-Prolog 1.0 0
/b4_inc_state save def
/dict_count countdictstack def
/op_count count 1 sub def
userdict begin
0 setgray 0 setlinecap 1 setlinewidth 0 setlinejoin 10 setmiterlimit[] 0 setdash newpath
/languagelevel where {pop languagelevel 1 ne {false setstrokeadjust false setoverprint} if} if
/bdef {bind def} bind def
/c {setrgbcolor} bdef
/l {neg lineto} bdef
/rl {neg rlineto} bdef
/lc {setlinecap} bdef
/lj {setlinejoin} bdef
/lw {setlinewidth} bdef
/ml {setmiterlimit} bdef
/ld {setdash} bdef
/m {neg moveto} bdef
/ct {6 2 roll neg 6 2 roll neg 6 2 roll neg curveto} bdef
/r {rotate} bdef
/t {neg translate} bdef
/s {scale} bdef
/sw {show} bdef
/gs {gsave} bdef
/gr {grestore} bdef
/f {findfont dup length dict begin
{1 index /FID ne {def} {pop pop} ifelse} forall /Encoding ISOLatin1Encoding def
currentdict end /NFont exch definefont pop /NFont findfont} bdef
/p {closepath} bdef
/sf {scalefont setfont} bdef
/ef {eofill}bdef
/pc {closepath stroke}bdef
/ps {stroke}bdef
/pum {matrix currentmatrix}bdef
/pom {setmatrix}bdef
/bs {/aString exch def /nXOfs exch def /nWidth exch def currentpoint nXOfs 0 rmoveto pum nWidth aString stringwidth pop div 1 scale aString show pom moveto} bdef
%%EndResource
%%EndProlog
%%BeginSetup
%%EndSetup
%%Page: 1 1
%%BeginPageSetup
%%EndPageSetup
pum
0.02836 0.0283 s 
0 -9114 t
/tm matrix currentmatrix def
tm setmatrix
-1000 -1792 t 
1 1 s 

gs
tm setmatrix
0 0 t 
1 1 s 
gs
gs
0 0 m 19494 0 l 19494 9113 l 0 9113 l 0 0 l eoclip newpath
gs
0 0 m 19494 0 l 19494 9113 l 0 9113 l 0 0 l eoclip newpath
1.000 1.000 1.000 c 9747 9114 m  0 9114 l  0 0 l  19495 0 l  19495 9114 l 
9747 9114 l  p ef



0 lw 1 lj 0.703 0.703 0.703 c 7279 7865 m  1565 7865 l  1565 1061 l  12992 1061 l 
12992 7865 l  7279 7865 l  pc
12992 7864 m  1565 7864 l  ps
12992 7108 m  1565 7108 l  ps
12992 6352 m  1565 6352 l  ps
12992 5596 m  1565 5596 l  ps
12992 4840 m  1565 4840 l  ps
12992 4084 m  1565 4084 l  ps
12992 3327 m  1565 3327 l  ps
12992 2571 m  1565 2571 l  ps
12992 1816 m  1565 1816 l  ps
12992 1060 m  1565 1060 l  ps

1565 8014 m  1565 7864 l  ps
1565 8014 m  1565 7864 l  ps
7278 8014 m  7278 7864 l  ps
7278 8014 m  7278 7864 l  ps
12992 8014 m  12992 7864 l  ps
12992 8014 m  12992 7864 l  ps
1565 7864 m  12992 7864 l  ps
1415 7864 m  1565 7864 l  ps
1415 7864 m  1565 7864 l  ps
1415 7108 m  1565 7108 l  ps
1415 7108 m  1565 7108 l  ps
1415 6352 m  1565 6352 l  ps
1415 6352 m  1565 6352 l  ps
1415 5596 m  1565 5596 l  ps
1415 5596 m  1565 5596 l  ps
1415 4840 m  1565 4840 l  ps
1415 4840 m  1565 4840 l  ps
1415 4084 m  1565 4084 l  ps
1415 4084 m  1565 4084 l  ps
1415 3327 m  1565 3327 l  ps
1415 3327 m  1565 3327 l  ps
1415 2571 m  1565 2571 l  ps
1415 2571 m  1565 2571 l  ps
1415 1816 m  1565 1816 l  ps
1415 1816 m  1565 1816 l  ps
1415 1060 m  1565 1060 l  ps
1415 1060 m  1565 1060 l  ps
1565 7864 m  1565 1060 l  ps
80 lw 1.000 0.261 0.058 c 1565 7705 m  7278 7183 l  12992 1853 l  ps
1440 7705 m  1565 7830 l  1690 7705 l  1565 7580 l  1440 7705 l  p ef
0 lw 1440 7705 m  1565 7830 l  1690 7705 l  1565 7580 l  1440 7705 l  pc
7153 7183 m  7278 7308 l  7403 7183 l  7278 7058 l  7153 7183 l  p ef
7153 7183 m  7278 7308 l  7403 7183 l  7278 7058 l  7153 7183 l  pc
12867 1853 m  12992 1978 l  13117 1853 l  12992 1728 l  12867 1853 l  p ef
12867 1853 m  12992 1978 l  13117 1853 l  12992 1728 l  12867 1853 l  pc
80 lw 1.000 0.828 0.128 c 1565 7640 m  7278 7368 l  12992 4159 l  ps
1440 7515 m  1565 7765 l  1690 7515 l  1440 7515 l  p ef
0 lw 1440 7515 m  1565 7765 l  1690 7515 l  1440 7515 l  pc
7153 7243 m  7278 7493 l  7403 7243 l  7153 7243 l  p ef
7153 7243 m  7278 7493 l  7403 7243 l  7153 7243 l  pc
12867 4034 m  12992 4284 l  13117 4034 l  12867 4034 l  p ef
12867 4034 m  12992 4284 l  13117 4034 l  12867 4034 l  pc

pum
1289 8432 t
0.003 0.003 0.003 c 27 0 m  27 -26 l  89 -26 l  89 -213 l  34 -174 l  34 -204 l 
91 -243 l  120 -243 l  120 -26 l  179 -26 l  179 0 l  27 0 l  p ef
364 -218 m  351 -200 340 -182 330 -165 ct 320 -147 311 -130 304 -113 ct 296 -95 291 -77 286 -59 ct 
282 -41 280 -21 280 -1 ct 248 -1 l  248 -20 250 -39 255 -58 ct 259 -76 266 -95 273 -113 ct 
281 -131 290 -148 301 -166 ct 311 -183 322 -200 334 -217 ct 203 -217 l  203 -243 l 
364 -243 l  364 -218 l  p ef
551 -80 m  551 -68 549 -57 546 -47 ct 542 -36 537 -28 531 -20 ct 524 -13 516 -7 506 -3 ct 
496 1 485 3 472 3 ct 458 3 446 0 435 -5 ct 425 -11 416 -18 409 -28 ct 402 -39 397 -51 393 -66 ct 
390 -81 388 -97 388 -116 ct 388 -138 390 -157 394 -173 ct 398 -190 404 -203 411 -214 ct 
418 -225 428 -233 438 -239 ct 449 -244 461 -247 475 -247 ct 483 -247 491 -246 498 -244 ct 
505 -243 512 -240 518 -236 ct 524 -232 529 -227 533 -221 ct 538 -215 541 -207 544 -198 ct 
514 -192 l  511 -203 506 -210 499 -215 ct 492 -220 484 -222 474 -222 ct 466 -222 458 -220 451 -216 ct 
444 -212 439 -206 434 -198 ct 429 -190 425 -180 423 -168 ct 420 -156 419 -142 419 -126 ct 
424 -136 432 -144 443 -150 ct 453 -155 465 -158 478 -158 ct 489 -158 499 -156 508 -153 ct 
517 -149 524 -144 531 -137 ct 537 -130 542 -122 546 -113 ct 549 -103 551 -92 551 -80 ct 
p
519 -79 m  519 -87 518 -95 516 -102 ct 514 -108 511 -114 507 -119 ct 503 -124 498 -128 492 -130 ct 
485 -133 478 -134 470 -134 ct 465 -134 459 -133 453 -131 ct 448 -130 442 -127 438 -123 ct 
433 -120 429 -115 426 -109 ct 423 -102 422 -95 422 -86 ct 422 -77 423 -69 425 -61 ct 
428 -53 431 -46 435 -41 ct 440 -35 445 -30 451 -27 ct 457 -24 464 -22 471 -22 ct 
479 -22 486 -23 491 -26 ct 497 -29 502 -32 507 -37 ct 511 -42 514 -48 516 -55 ct 
518 -62 519 -70 519 -79 ct p ef
pom

pum
7002 8432 t
181 -68 m  181 -57 179 -47 175 -38 ct 172 -29 166 -22 160 -16 ct 153 -10 144 -5 134 -2 ct 
123 1 112 3 98 3 ct 83 3 71 1 60 -3 ct 50 -6 42 -11 35 -17 ct 28 -24 23 -31 20 -39 ct 
17 -46 14 -55 13 -63 ct 46 -66 l  46 -60 48 -54 51 -48 ct 53 -43 56 -38 61 -35 ct 
65 -31 70 -28 76 -26 ct 83 -24 90 -23 98 -23 ct 114 -23 126 -27 135 -34 ct 144 -42 149 -54 149 -69 ct 
149 -78 147 -85 143 -90 ct 139 -96 134 -100 128 -103 ct 122 -106 115 -108 109 -109 ct 
102 -110 95 -111 89 -111 ct 72 -111 l  72 -138 l  89 -138 l  94 -138 101 -139 107 -140 ct 
113 -141 119 -143 124 -146 ct 129 -149 134 -154 137 -159 ct 141 -164 142 -171 142 -180 ct 
142 -193 138 -203 131 -210 ct 123 -218 112 -221 97 -221 ct 83 -221 72 -218 64 -211 ct 
55 -204 50 -194 49 -182 ct 18 -184 l  19 -195 22 -204 26 -212 ct 31 -220 37 -226 44 -231 ct 
51 -237 59 -241 68 -243 ct 77 -246 87 -247 97 -247 ct 111 -247 122 -245 132 -242 ct 
142 -239 150 -234 156 -228 ct 162 -222 167 -216 170 -208 ct 173 -200 174 -192 174 -183 ct 
174 -176 173 -169 171 -163 ct 169 -157 166 -151 162 -146 ct 158 -141 153 -137 146 -134 ct 
140 -130 132 -127 123 -125 ct 123 -125 l  133 -124 142 -122 149 -118 ct 156 -115 162 -111 167 -105 ct 
171 -100 175 -95 177 -88 ct 180 -82 181 -75 181 -68 ct p ef
203 0 m  203 -22 l  209 -35 216 -47 224 -58 ct 233 -68 242 -77 251 -85 ct 260 -94 269 -101 279 -109 ct 
288 -116 296 -123 303 -130 ct 311 -137 317 -145 321 -152 ct 326 -160 328 -169 328 -179 ct 
328 -186 327 -192 325 -197 ct 323 -202 320 -207 316 -210 ct 312 -214 307 -217 302 -218 ct 
296 -220 290 -221 284 -221 ct 277 -221 272 -220 266 -218 ct 261 -217 256 -214 252 -211 ct 
247 -207 244 -203 241 -198 ct 238 -193 237 -187 236 -180 ct 204 -183 l  205 -192 208 -200 211 -208 ct 
215 -215 220 -222 227 -228 ct 234 -234 242 -238 251 -242 ct 260 -245 271 -247 284 -247 ct 
296 -247 306 -245 316 -242 ct 325 -239 333 -235 340 -229 ct 346 -224 351 -217 355 -209 ct 
358 -200 360 -191 360 -180 ct 360 -172 358 -164 355 -157 ct 352 -149 349 -142 344 -136 ct 
339 -129 333 -123 327 -116 ct 320 -110 314 -104 307 -98 ct 300 -92 292 -86 285 -81 ct 
278 -75 272 -69 265 -63 ct 259 -57 253 -51 248 -45 ct 243 -39 240 -33 237 -26 ct 
364 -26 l  364 0 l  203 0 l  p ef
553 -122 m  553 -99 550 -79 546 -63 ct 541 -47 535 -34 528 -25 ct 520 -15 511 -8 501 -3 ct 
490 1 479 3 468 3 ct 456 3 445 1 435 -3 ct 424 -8 416 -15 408 -24 ct 400 -34 395 -47 390 -63 ct 
386 -79 384 -99 384 -122 ct 384 -146 386 -167 390 -183 ct 395 -199 401 -212 408 -221 ct 
416 -231 425 -237 435 -241 ct 445 -245 457 -247 469 -247 ct 480 -247 491 -245 501 -241 ct 
512 -237 520 -231 528 -221 ct 536 -212 542 -199 546 -183 ct 550 -167 553 -146 553 -122 ct 
p
521 -122 m  521 -141 520 -157 518 -170 ct 515 -183 512 -193 507 -201 ct 503 -209 497 -214 491 -217 ct 
484 -220 477 -222 469 -222 ct 460 -222 452 -220 446 -217 ct 439 -214 433 -208 429 -201 ct 
424 -193 421 -183 419 -170 ct 416 -157 415 -141 415 -122 ct 415 -103 416 -88 419 -75 ct 
421 -62 424 -52 429 -44 ct 434 -36 439 -31 446 -27 ct 452 -24 460 -22 468 -22 ct 
476 -22 484 -24 490 -27 ct 497 -31 502 -36 507 -44 ct 511 -52 515 -62 517 -75 ct 
520 -88 521 -103 521 -122 ct p ef
pom

pum
12715 8432 t
181 -80 m  181 -68 179 -57 176 -47 ct 172 -36 167 -28 161 -20 ct 154 -13 146 -7 136 -3 ct 
126 1 115 3 102 3 ct 88 3 76 0 65 -5 ct 55 -11 46 -18 39 -28 ct 32 -39 27 -51 23 -66 ct 
20 -81 18 -97 18 -116 ct 18 -138 20 -157 24 -173 ct 28 -190 34 -203 41 -214 ct 
48 -225 58 -233 68 -239 ct 79 -244 91 -247 105 -247 ct 113 -247 121 -246 128 -244 ct 
135 -243 142 -240 148 -236 ct 154 -232 159 -227 163 -221 ct 168 -215 171 -207 174 -198 ct 
144 -192 l  141 -203 136 -210 129 -215 ct 122 -220 114 -222 104 -222 ct 96 -222 88 -220 81 -216 ct 
74 -212 69 -206 64 -198 ct 59 -190 55 -180 53 -168 ct 50 -156 49 -142 49 -126 ct 
54 -136 62 -144 73 -150 ct 83 -155 95 -158 108 -158 ct 119 -158 129 -156 138 -153 ct 
147 -149 154 -144 161 -137 ct 167 -130 172 -122 176 -113 ct 179 -103 181 -92 181 -80 ct 
p
149 -79 m  149 -87 148 -95 146 -102 ct 144 -108 141 -114 137 -119 ct 133 -124 128 -128 122 -130 ct 
115 -133 108 -134 100 -134 ct 95 -134 89 -133 83 -131 ct 78 -130 72 -127 68 -123 ct 
63 -120 59 -115 56 -109 ct 53 -102 52 -95 52 -86 ct 52 -77 53 -69 55 -61 ct 58 -53 61 -46 65 -41 ct 
70 -35 75 -30 81 -27 ct 87 -24 94 -22 101 -22 ct 109 -22 116 -23 121 -26 ct 127 -29 132 -32 137 -37 ct 
141 -42 144 -48 146 -55 ct 148 -62 149 -70 149 -79 ct p ef
337 -55 m  337 0 l  308 0 l  308 -55 l  193 -55 l  193 -79 l  304 -243 l 
337 -243 l  337 -79 l  371 -79 l  371 -55 l  337 -55 l  p
308 -208 m  307 -207 307 -206 306 -205 ct 305 -203 304 -201 303 -199 ct 302 -197 300 -195 299 -193 ct 
298 -191 297 -189 296 -187 ct 234 -96 l  233 -95 232 -94 231 -92 ct 230 -91 229 -89 228 -88 ct 
227 -86 226 -84 224 -83 ct 223 -81 222 -80 222 -79 ct 308 -79 l  308 -208 l 
p ef
553 -122 m  553 -99 550 -79 546 -63 ct 541 -47 535 -34 528 -25 ct 520 -15 511 -8 501 -3 ct 
490 1 479 3 468 3 ct 456 3 445 1 435 -3 ct 424 -8 416 -15 408 -24 ct 400 -34 395 -47 390 -63 ct 
386 -79 384 -99 384 -122 ct 384 -146 386 -167 390 -183 ct 395 -199 401 -212 408 -221 ct 
416 -231 425 -237 435 -241 ct 445 -245 457 -247 469 -247 ct 480 -247 491 -245 501 -241 ct 
512 -237 520 -231 528 -221 ct 536 -212 542 -199 546 -183 ct 550 -167 553 -146 553 -122 ct 
p
521 -122 m  521 -141 520 -157 518 -170 ct 515 -183 512 -193 507 -201 ct 503 -209 497 -214 491 -217 ct 
484 -220 477 -222 469 -222 ct 460 -222 452 -220 446 -217 ct 439 -214 433 -208 429 -201 ct 
424 -193 421 -183 419 -170 ct 416 -157 415 -141 415 -122 ct 415 -103 416 -88 419 -75 ct 
421 -62 424 -52 429 -44 ct 434 -36 439 -31 446 -27 ct 452 -24 460 -22 468 -22 ct 
476 -22 484 -24 490 -27 ct 497 -31 502 -36 507 -44 ct 511 -52 515 -62 517 -75 ct 
520 -88 521 -103 521 -122 ct p ef
pom

pum
1131 7985 t
183 -122 m  183 -99 180 -79 176 -63 ct 171 -47 165 -34 158 -25 ct 150 -15 141 -8 131 -3 ct 
120 1 109 3 98 3 ct 86 3 75 1 65 -3 ct 54 -8 46 -15 38 -24 ct 30 -34 25 -47 20 -63 ct 
16 -79 14 -99 14 -122 ct 14 -146 16 -167 20 -183 ct 25 -199 31 -212 38 -221 ct 
46 -231 55 -237 65 -241 ct 75 -245 87 -247 99 -247 ct 110 -247 121 -245 131 -241 ct 
142 -237 150 -231 158 -221 ct 166 -212 172 -199 176 -183 ct 180 -167 183 -146 183 -122 ct 
p
151 -122 m  151 -141 150 -157 148 -170 ct 145 -183 142 -193 137 -201 ct 133 -209 127 -214 121 -217 ct 
114 -220 107 -222 99 -222 ct 90 -222 82 -220 76 -217 ct 69 -214 63 -208 59 -201 ct 
54 -193 51 -183 49 -170 ct 46 -157 45 -141 45 -122 ct 45 -103 46 -88 49 -75 ct 
51 -62 54 -52 59 -44 ct 64 -36 69 -31 76 -27 ct 82 -24 90 -22 98 -22 ct 106 -22 114 -24 120 -27 ct 
127 -31 132 -36 137 -44 ct 141 -52 145 -62 147 -75 ct 150 -88 151 -103 151 -122 ct 
p ef
pom

pum
840 7229 t
183 -122 m  183 -99 180 -79 176 -63 ct 171 -47 165 -34 158 -25 ct 150 -15 141 -8 131 -3 ct 
120 1 109 3 98 3 ct 86 3 75 1 65 -3 ct 54 -8 46 -15 38 -24 ct 30 -34 25 -47 20 -63 ct 
16 -79 14 -99 14 -122 ct 14 -146 16 -167 20 -183 ct 25 -199 31 -212 38 -221 ct 
46 -231 55 -237 65 -241 ct 75 -245 87 -247 99 -247 ct 110 -247 121 -245 131 -241 ct 
142 -237 150 -231 158 -221 ct 166 -212 172 -199 176 -183 ct 180 -167 183 -146 183 -122 ct 
p
151 -122 m  151 -141 150 -157 148 -170 ct 145 -183 142 -193 137 -201 ct 133 -209 127 -214 121 -217 ct 
114 -220 107 -222 99 -222 ct 90 -222 82 -220 76 -217 ct 69 -214 63 -208 59 -201 ct 
54 -193 51 -183 49 -170 ct 46 -157 45 -141 45 -122 ct 45 -103 46 -88 49 -75 ct 
51 -62 54 -52 59 -44 ct 64 -36 69 -31 76 -27 ct 82 -24 90 -22 98 -22 ct 106 -22 114 -24 120 -27 ct 
127 -31 132 -36 137 -44 ct 141 -52 145 -62 147 -75 ct 150 -88 151 -103 151 -122 ct 
p ef
217 0 m  217 -38 l  251 -38 l  251 0 l  217 0 l  p ef
309 0 m  309 -22 l  315 -35 322 -47 330 -58 ct 339 -68 348 -77 357 -85 ct 366 -94 375 -101 385 -109 ct 
394 -116 402 -123 409 -130 ct 417 -137 423 -145 427 -152 ct 432 -160 434 -169 434 -179 ct 
434 -186 433 -192 431 -197 ct 429 -202 426 -207 422 -210 ct 418 -214 413 -217 408 -218 ct 
402 -220 396 -221 390 -221 ct 383 -221 378 -220 372 -218 ct 367 -217 362 -214 358 -211 ct 
353 -207 350 -203 347 -198 ct 344 -193 343 -187 342 -180 ct 310 -183 l  311 -192 314 -200 317 -208 ct 
321 -215 326 -222 333 -228 ct 340 -234 348 -238 357 -242 ct 366 -245 377 -247 390 -247 ct 
402 -247 412 -245 422 -242 ct 431 -239 439 -235 446 -229 ct 452 -224 457 -217 461 -209 ct 
464 -200 466 -191 466 -180 ct 466 -172 464 -164 461 -157 ct 458 -149 455 -142 450 -136 ct 
445 -129 439 -123 433 -116 ct 426 -110 420 -104 413 -98 ct 406 -92 398 -86 391 -81 ct 
384 -75 378 -69 371 -63 ct 365 -57 359 -51 354 -45 ct 349 -39 346 -33 343 -26 ct 
470 -26 l  470 0 l  309 0 l  p ef
pom

pum
840 6473 t
183 -122 m  183 -99 180 -79 176 -63 ct 171 -47 165 -34 158 -25 ct 150 -15 141 -8 131 -3 ct 
120 1 109 3 98 3 ct 86 3 75 1 65 -3 ct 54 -8 46 -15 38 -24 ct 30 -34 25 -47 20 -63 ct 
16 -79 14 -99 14 -122 ct 14 -146 16 -167 20 -183 ct 25 -199 31 -212 38 -221 ct 
46 -231 55 -237 65 -241 ct 75 -245 87 -247 99 -247 ct 110 -247 121 -245 131 -241 ct 
142 -237 150 -231 158 -221 ct 166 -212 172 -199 176 -183 ct 180 -167 183 -146 183 -122 ct 
p
151 -122 m  151 -141 150 -157 148 -170 ct 145 -183 142 -193 137 -201 ct 133 -209 127 -214 121 -217 ct 
114 -220 107 -222 99 -222 ct 90 -222 82 -220 76 -217 ct 69 -214 63 -208 59 -201 ct 
54 -193 51 -183 49 -170 ct 46 -157 45 -141 45 -122 ct 45 -103 46 -88 49 -75 ct 
51 -62 54 -52 59 -44 ct 64 -36 69 -31 76 -27 ct 82 -24 90 -22 98 -22 ct 106 -22 114 -24 120 -27 ct 
127 -31 132 -36 137 -44 ct 141 -52 145 -62 147 -75 ct 150 -88 151 -103 151 -122 ct 
p ef
217 0 m  217 -38 l  251 -38 l  251 0 l  217 0 l  p ef
443 -55 m  443 0 l  414 0 l  414 -55 l  299 -55 l  299 -79 l  410 -243 l 
443 -243 l  443 -79 l  477 -79 l  477 -55 l  443 -55 l  p
414 -208 m  413 -207 413 -206 412 -205 ct 411 -203 410 -201 409 -199 ct 408 -197 406 -195 405 -193 ct 
404 -191 403 -189 402 -187 ct 340 -96 l  339 -95 338 -94 337 -92 ct 336 -91 335 -89 334 -88 ct 
333 -86 332 -84 330 -83 ct 329 -81 328 -80 328 -79 ct 414 -79 l  414 -208 l 
p ef
pom

pum
840 5717 t
183 -122 m  183 -99 180 -79 176 -63 ct 171 -47 165 -34 158 -25 ct 150 -15 141 -8 131 -3 ct 
120 1 109 3 98 3 ct 86 3 75 1 65 -3 ct 54 -8 46 -15 38 -24 ct 30 -34 25 -47 20 -63 ct 
16 -79 14 -99 14 -122 ct 14 -146 16 -167 20 -183 ct 25 -199 31 -212 38 -221 ct 
46 -231 55 -237 65 -241 ct 75 -245 87 -247 99 -247 ct 110 -247 121 -245 131 -241 ct 
142 -237 150 -231 158 -221 ct 166 -212 172 -199 176 -183 ct 180 -167 183 -146 183 -122 ct 
p
151 -122 m  151 -141 150 -157 148 -170 ct 145 -183 142 -193 137 -201 ct 133 -209 127 -214 121 -217 ct 
114 -220 107 -222 99 -222 ct 90 -222 82 -220 76 -217 ct 69 -214 63 -208 59 -201 ct 
54 -193 51 -183 49 -170 ct 46 -157 45 -141 45 -122 ct 45 -103 46 -88 49 -75 ct 
51 -62 54 -52 59 -44 ct 64 -36 69 -31 76 -27 ct 82 -24 90 -22 98 -22 ct 106 -22 114 -24 120 -27 ct 
127 -31 132 -36 137 -44 ct 141 -52 145 -62 147 -75 ct 150 -88 151 -103 151 -122 ct 
p ef
217 0 m  217 -38 l  251 -38 l  251 0 l  217 0 l  p ef
472 -80 m  472 -68 470 -57 467 -47 ct 463 -36 458 -28 452 -20 ct 445 -13 437 -7 427 -3 ct 
417 1 406 3 393 3 ct 379 3 367 0 356 -5 ct 346 -11 337 -18 330 -28 ct 323 -39 318 -51 314 -66 ct 
311 -81 309 -97 309 -116 ct 309 -138 311 -157 315 -173 ct 319 -190 325 -203 332 -214 ct 
339 -225 349 -233 359 -239 ct 370 -244 382 -247 396 -247 ct 404 -247 412 -246 419 -244 ct 
426 -243 433 -240 439 -236 ct 445 -232 450 -227 454 -221 ct 459 -215 462 -207 465 -198 ct 
435 -192 l  432 -203 427 -210 420 -215 ct 413 -220 405 -222 395 -222 ct 387 -222 379 -220 372 -216 ct 
365 -212 360 -206 355 -198 ct 350 -190 346 -180 344 -168 ct 341 -156 340 -142 340 -126 ct 
345 -136 353 -144 364 -150 ct 374 -155 386 -158 399 -158 ct 410 -158 420 -156 429 -153 ct 
438 -149 445 -144 452 -137 ct 458 -130 463 -122 467 -113 ct 470 -103 472 -92 472 -80 ct 
p
440 -79 m  440 -87 439 -95 437 -102 ct 435 -108 432 -114 428 -119 ct 424 -124 419 -128 413 -130 ct 
406 -133 399 -134 391 -134 ct 386 -134 380 -133 374 -131 ct 369 -130 363 -127 359 -123 ct 
354 -120 350 -115 347 -109 ct 344 -102 343 -95 343 -86 ct 343 -77 344 -69 346 -61 ct 
349 -53 352 -46 356 -41 ct 361 -35 366 -30 372 -27 ct 378 -24 385 -22 392 -22 ct 
400 -22 407 -23 412 -26 ct 418 -29 423 -32 428 -37 ct 432 -42 435 -48 437 -55 ct 
439 -62 440 -70 440 -79 ct p ef
pom

pum
840 4961 t
183 -122 m  183 -99 180 -79 176 -63 ct 171 -47 165 -34 158 -25 ct 150 -15 141 -8 131 -3 ct 
120 1 109 3 98 3 ct 86 3 75 1 65 -3 ct 54 -8 46 -15 38 -24 ct 30 -34 25 -47 20 -63 ct 
16 -79 14 -99 14 -122 ct 14 -146 16 -167 20 -183 ct 25 -199 31 -212 38 -221 ct 
46 -231 55 -237 65 -241 ct 75 -245 87 -247 99 -247 ct 110 -247 121 -245 131 -241 ct 
142 -237 150 -231 158 -221 ct 166 -212 172 -199 176 -183 ct 180 -167 183 -146 183 -122 ct 
p
151 -122 m  151 -141 150 -157 148 -170 ct 145 -183 142 -193 137 -201 ct 133 -209 127 -214 121 -217 ct 
114 -220 107 -222 99 -222 ct 90 -222 82 -220 76 -217 ct 69 -214 63 -208 59 -201 ct 
54 -193 51 -183 49 -170 ct 46 -157 45 -141 45 -122 ct 45 -103 46 -88 49 -75 ct 
51 -62 54 -52 59 -44 ct 64 -36 69 -31 76 -27 ct 82 -24 90 -22 98 -22 ct 106 -22 114 -24 120 -27 ct 
127 -31 132 -36 137 -44 ct 141 -52 145 -62 147 -75 ct 150 -88 151 -103 151 -122 ct 
p ef
217 0 m  217 -38 l  251 -38 l  251 0 l  217 0 l  p ef
472 -68 m  472 -58 470 -48 467 -40 ct 464 -31 459 -24 452 -17 ct 445 -11 437 -6 426 -2 ct 
416 1 404 3 389 3 ct 375 3 363 1 352 -2 ct 342 -6 333 -11 326 -17 ct 320 -23 315 -31 311 -40 ct 
308 -48 306 -58 306 -68 ct 306 -77 308 -85 310 -92 ct 313 -98 317 -104 321 -109 ct 
326 -114 331 -118 337 -121 ct 343 -125 349 -127 355 -128 ct 355 -128 l  348 -130 342 -132 337 -136 ct 
331 -140 327 -144 323 -149 ct 320 -154 317 -159 315 -166 ct 313 -172 312 -178 312 -185 ct 
312 -193 314 -201 317 -209 ct 320 -216 325 -223 332 -229 ct 338 -234 346 -239 355 -242 ct 
365 -245 376 -247 389 -247 ct 402 -247 413 -245 423 -242 ct 433 -239 441 -234 447 -228 ct 
453 -223 458 -216 461 -209 ct 464 -201 466 -193 466 -184 ct 466 -178 465 -171 463 -165 ct 
461 -159 458 -154 455 -149 ct 451 -144 447 -139 441 -136 ct 436 -132 430 -130 423 -129 ct 
423 -128 l  430 -127 436 -125 442 -122 ct 448 -119 453 -115 458 -110 ct 462 -105 466 -99 468 -92 ct 
471 -85 472 -77 472 -68 ct p
434 -183 m  434 -189 433 -194 431 -199 ct 430 -204 427 -209 424 -212 ct 420 -216 416 -219 410 -221 ct 
404 -223 397 -224 389 -224 ct 380 -224 374 -223 368 -221 ct 362 -219 358 -216 354 -212 ct 
350 -209 348 -204 346 -199 ct 345 -194 344 -189 344 -183 ct 344 -178 344 -173 346 -168 ct 
347 -163 349 -158 353 -154 ct 356 -150 360 -147 366 -144 ct 372 -141 380 -140 389 -140 ct 
399 -140 407 -141 412 -144 ct 418 -147 423 -150 426 -154 ct 429 -158 431 -163 432 -168 ct 
433 -173 434 -178 434 -183 ct p
440 -71 m  440 -77 439 -83 437 -88 ct 436 -94 433 -98 429 -103 ct 425 -107 420 -110 413 -113 ct 
407 -115 398 -117 389 -117 ct 379 -117 372 -115 365 -113 ct 359 -110 354 -107 350 -103 ct 
346 -98 343 -93 341 -88 ct 339 -82 338 -76 338 -70 ct 338 -63 339 -56 341 -50 ct 
343 -44 346 -39 350 -34 ct 354 -30 359 -26 366 -24 ct 372 -21 380 -20 390 -20 ct 
399 -20 407 -21 413 -24 ct 420 -26 425 -30 429 -34 ct 433 -39 436 -44 437 -50 ct 
439 -56 440 -63 440 -71 ct p ef
pom

pum
1131 4206 t
27 0 m  27 -26 l  89 -26 l  89 -213 l  34 -174 l  34 -204 l  91 -243 l 
120 -243 l  120 -26 l  179 -26 l  179 0 l  27 0 l  p ef
pom

pum
840 3449 t
27 0 m  27 -26 l  89 -26 l  89 -213 l  34 -174 l  34 -204 l  91 -243 l 
120 -243 l  120 -26 l  179 -26 l  179 0 l  27 0 l  p ef
217 0 m  217 -38 l  251 -38 l  251 0 l  217 0 l  p ef
309 0 m  309 -22 l  315 -35 322 -47 330 -58 ct 339 -68 348 -77 357 -85 ct 366 -94 375 -101 385 -109 ct 
394 -116 402 -123 409 -130 ct 417 -137 423 -145 427 -152 ct 432 -160 434 -169 434 -179 ct 
434 -186 433 -192 431 -197 ct 429 -202 426 -207 422 -210 ct 418 -214 413 -217 408 -218 ct 
402 -220 396 -221 390 -221 ct 383 -221 378 -220 372 -218 ct 367 -217 362 -214 358 -211 ct 
353 -207 350 -203 347 -198 ct 344 -193 343 -187 342 -180 ct 310 -183 l  311 -192 314 -200 317 -208 ct 
321 -215 326 -222 333 -228 ct 340 -234 348 -238 357 -242 ct 366 -245 377 -247 390 -247 ct 
402 -247 412 -245 422 -242 ct 431 -239 439 -235 446 -229 ct 452 -224 457 -217 461 -209 ct 
464 -200 466 -191 466 -180 ct 466 -172 464 -164 461 -157 ct 458 -149 455 -142 450 -136 ct 
445 -129 439 -123 433 -116 ct 426 -110 420 -104 413 -98 ct 406 -92 398 -86 391 -81 ct 
384 -75 378 -69 371 -63 ct 365 -57 359 -51 354 -45 ct 349 -39 346 -33 343 -26 ct 
470 -26 l  470 0 l  309 0 l  p ef
pom

pum
840 2693 t
27 0 m  27 -26 l  89 -26 l  89 -213 l  34 -174 l  34 -204 l  91 -243 l 
120 -243 l  120 -26 l  179 -26 l  179 0 l  27 0 l  p ef
217 0 m  217 -38 l  251 -38 l  251 0 l  217 0 l  p ef
443 -55 m  443 0 l  414 0 l  414 -55 l  299 -55 l  299 -79 l  410 -243 l 
443 -243 l  443 -79 l  477 -79 l  477 -55 l  443 -55 l  p
414 -208 m  413 -207 413 -206 412 -205 ct 411 -203 410 -201 409 -199 ct 408 -197 406 -195 405 -193 ct 
404 -191 403 -189 402 -187 ct 340 -96 l  339 -95 338 -94 337 -92 ct 336 -91 335 -89 334 -88 ct 
333 -86 332 -84 330 -83 ct 329 -81 328 -80 328 -79 ct 414 -79 l  414 -208 l 
p ef
pom

pum
840 1938 t
27 0 m  27 -26 l  89 -26 l  89 -213 l  34 -174 l  34 -204 l  91 -243 l 
120 -243 l  120 -26 l  179 -26 l  179 0 l  27 0 l  p ef
217 0 m  217 -38 l  251 -38 l  251 0 l  217 0 l  p ef
472 -80 m  472 -68 470 -57 467 -47 ct 463 -36 458 -28 452 -20 ct 445 -13 437 -7 427 -3 ct 
417 1 406 3 393 3 ct 379 3 367 0 356 -5 ct 346 -11 337 -18 330 -28 ct 323 -39 318 -51 314 -66 ct 
311 -81 309 -97 309 -116 ct 309 -138 311 -157 315 -173 ct 319 -190 325 -203 332 -214 ct 
339 -225 349 -233 359 -239 ct 370 -244 382 -247 396 -247 ct 404 -247 412 -246 419 -244 ct 
426 -243 433 -240 439 -236 ct 445 -232 450 -227 454 -221 ct 459 -215 462 -207 465 -198 ct 
435 -192 l  432 -203 427 -210 420 -215 ct 413 -220 405 -222 395 -222 ct 387 -222 379 -220 372 -216 ct 
365 -212 360 -206 355 -198 ct 350 -190 346 -180 344 -168 ct 341 -156 340 -142 340 -126 ct 
345 -136 353 -144 364 -150 ct 374 -155 386 -158 399 -158 ct 410 -158 420 -156 429 -153 ct 
438 -149 445 -144 452 -137 ct 458 -130 463 -122 467 -113 ct 470 -103 472 -92 472 -80 ct 
p
440 -79 m  440 -87 439 -95 437 -102 ct 435 -108 432 -114 428 -119 ct 424 -124 419 -128 413 -130 ct 
406 -133 399 -134 391 -134 ct 386 -134 380 -133 374 -131 ct 369 -130 363 -127 359 -123 ct 
354 -120 350 -115 347 -109 ct 344 -102 343 -95 343 -86 ct 343 -77 344 -69 346 -61 ct 
349 -53 352 -46 356 -41 ct 361 -35 366 -30 372 -27 ct 378 -24 385 -22 392 -22 ct 
400 -22 407 -23 412 -26 ct 418 -29 423 -32 428 -37 ct 432 -42 435 -48 437 -55 ct 
439 -62 440 -70 440 -79 ct p ef
pom

pum
840 1182 t
27 0 m  27 -26 l  89 -26 l  89 -213 l  34 -174 l  34 -204 l  91 -243 l 
120 -243 l  120 -26 l  179 -26 l  179 0 l  27 0 l  p ef
217 0 m  217 -38 l  251 -38 l  251 0 l  217 0 l  p ef
472 -68 m  472 -58 470 -48 467 -40 ct 464 -31 459 -24 452 -17 ct 445 -11 437 -6 426 -2 ct 
416 1 404 3 389 3 ct 375 3 363 1 352 -2 ct 342 -6 333 -11 326 -17 ct 320 -23 315 -31 311 -40 ct 
308 -48 306 -58 306 -68 ct 306 -77 308 -85 310 -92 ct 313 -98 317 -104 321 -109 ct 
326 -114 331 -118 337 -121 ct 343 -125 349 -127 355 -128 ct 355 -128 l  348 -130 342 -132 337 -136 ct 
331 -140 327 -144 323 -149 ct 320 -154 317 -159 315 -166 ct 313 -172 312 -178 312 -185 ct 
312 -193 314 -201 317 -209 ct 320 -216 325 -223 332 -229 ct 338 -234 346 -239 355 -242 ct 
365 -245 376 -247 389 -247 ct 402 -247 413 -245 423 -242 ct 433 -239 441 -234 447 -228 ct 
453 -223 458 -216 461 -209 ct 464 -201 466 -193 466 -184 ct 466 -178 465 -171 463 -165 ct 
461 -159 458 -154 455 -149 ct 451 -144 447 -139 441 -136 ct 436 -132 430 -130 423 -129 ct 
423 -128 l  430 -127 436 -125 442 -122 ct 448 -119 453 -115 458 -110 ct 462 -105 466 -99 468 -92 ct 
471 -85 472 -77 472 -68 ct p
434 -183 m  434 -189 433 -194 431 -199 ct 430 -204 427 -209 424 -212 ct 420 -216 416 -219 410 -221 ct 
404 -223 397 -224 389 -224 ct 380 -224 374 -223 368 -221 ct 362 -219 358 -216 354 -212 ct 
350 -209 348 -204 346 -199 ct 345 -194 344 -189 344 -183 ct 344 -178 344 -173 346 -168 ct 
347 -163 349 -158 353 -154 ct 356 -150 360 -147 366 -144 ct 372 -141 380 -140 389 -140 ct 
399 -140 407 -141 412 -144 ct 418 -147 423 -150 426 -154 ct 429 -158 431 -163 432 -168 ct 
433 -173 434 -178 434 -183 ct p
440 -71 m  440 -77 439 -83 437 -88 ct 436 -94 433 -98 429 -103 ct 425 -107 420 -110 413 -113 ct 
407 -115 398 -117 389 -117 ct 379 -117 372 -115 365 -113 ct 359 -110 354 -107 350 -103 ct 
346 -98 343 -93 341 -88 ct 339 -82 338 -76 338 -70 ct 338 -63 339 -56 341 -50 ct 
343 -44 346 -39 350 -34 ct 354 -30 359 -26 366 -24 ct 372 -21 380 -20 390 -20 ct 
399 -20 407 -21 413 -24 ct 420 -26 425 -30 429 -34 ct 433 -39 436 -44 437 -50 ct 
439 -56 440 -63 440 -71 ct p ef
pom


80 lw 1.000 0.261 0.058 c 14166 4306 m  14966 4306 l  ps
14460 4306 m  14566 4411 l  14671 4306 l  14566 4201 l  14460 4306 l  p ef
0 lw 14460 4306 m  14566 4411 l  14671 4306 l  14566 4201 l  14460 4306 l 
pc

80 lw 1.000 0.828 0.128 c 14166 4804 m  14966 4804 l  ps
14460 4699 m  14566 4909 l  14671 4699 l  14460 4699 l  p ef
0 lw 14460 4699 m  14566 4909 l  14671 4699 l  14460 4699 l  pc

pum
15066 4427 t
0.003 0.003 0.003 c 137 -220 m  123 -220 111 -218 100 -213 ct 89 -209 80 -202 73 -194 ct 
66 -185 61 -175 57 -163 ct 53 -151 51 -138 51 -123 ct 51 -108 53 -95 57 -83 ct 
61 -71 67 -60 74 -52 ct 82 -43 91 -36 102 -31 ct 112 -26 124 -24 138 -24 ct 147 -24 156 -25 164 -28 ct 
171 -30 178 -34 185 -38 ct 191 -43 197 -48 201 -54 ct 206 -60 211 -67 215 -75 ct 
241 -61 l  237 -52 232 -44 225 -36 ct 219 -28 211 -21 203 -15 ct 194 -10 184 -5 173 -2 ct 
162 1 150 3 136 3 ct 117 3 99 0 85 -6 ct 70 -13 58 -21 48 -33 ct 38 -44 30 -57 25 -73 ct 
20 -88 18 -105 18 -123 ct 18 -142 21 -159 26 -174 ct 31 -190 39 -203 49 -213 ct 
59 -224 71 -232 86 -238 ct 101 -244 117 -247 136 -247 ct 162 -247 184 -242 201 -232 ct 
218 -222 231 -207 239 -187 ct 208 -176 l  206 -182 203 -188 199 -193 ct 195 -198 190 -203 184 -207 ct 
178 -211 171 -214 163 -216 ct 156 -219 147 -220 137 -220 ct p ef
455 -170 m  455 -160 453 -150 450 -141 ct 446 -131 441 -124 434 -117 ct 427 -110 418 -105 408 -101 ct 
397 -97 385 -95 371 -95 ct 300 -95 l  300 -1 l  267 -1 l  267 -243 l  369 -243 l 
384 -243 396 -242 407 -238 ct 417 -235 426 -230 433 -223 ct 441 -217 446 -209 449 -200 ct 
453 -191 455 -181 455 -170 ct p
422 -170 m  422 -185 417 -197 408 -205 ct 398 -213 384 -217 365 -217 ct 300 -217 l 
300 -121 l  367 -121 l  386 -121 399 -125 408 -134 ct 417 -142 422 -154 422 -170 ct 
p ef
602 3 m  589 3 576 1 564 -2 ct 552 -6 542 -11 533 -19 ct 524 -27 516 -36 511 -48 ct 
506 -59 503 -73 503 -89 ct 503 -244 l  536 -244 l  536 -92 l  536 -79 538 -69 541 -60 ct 
544 -52 549 -45 555 -39 ct 561 -34 568 -30 576 -27 ct 584 -25 592 -24 602 -24 ct 
611 -24 620 -25 629 -28 ct 637 -30 644 -34 651 -40 ct 657 -45 662 -52 666 -61 ct 
669 -70 671 -81 671 -94 ct 671 -244 l  704 -244 l  704 -92 l  704 -76 701 -62 696 -50 ct 
690 -38 683 -28 674 -20 ct 665 -12 654 -6 642 -3 ct 629 1 616 3 602 3 ct p ef
849 0 m  849 -243 l  1033 -243 l  1033 -216 l  882 -216 l  882 -138 l 
1023 -138 l  1023 -111 l  882 -111 l  882 -27 l  1040 -27 l  1040 0 l 
849 0 l  p ef
1196 0 m  1146 -77 l  1095 0 l  1062 0 l  1128 -96 l  1065 -187 l  1099 -187 l 
1146 -114 l  1192 -187 l  1227 -187 l  1163 -96 l  1231 0 l  1196 0 l 
p ef
1292 -87 m  1292 -77 1293 -68 1295 -60 ct 1297 -52 1300 -45 1304 -39 ct 1308 -33 1313 -28 1320 -25 ct 
1327 -22 1334 -20 1344 -20 ct 1357 -20 1368 -23 1376 -28 ct 1384 -34 1390 -41 1392 -49 ct 
1420 -41 l  1418 -36 1415 -31 1411 -26 ct 1408 -20 1403 -16 1397 -11 ct 1392 -7 1384 -4 1375 -1 ct 
1367 2 1356 3 1344 3 ct 1316 3 1295 -5 1281 -22 ct 1266 -38 1259 -62 1259 -95 ct 
1259 -112 1261 -127 1266 -139 ct 1270 -151 1276 -161 1283 -169 ct 1291 -176 1300 -182 1310 -185 ct 
1320 -188 1331 -190 1342 -190 ct 1358 -190 1371 -187 1382 -182 ct 1392 -177 1401 -170 1407 -162 ct 
1413 -153 1418 -142 1421 -130 ct 1423 -118 1425 -105 1425 -91 ct 1425 -87 l 
1292 -87 l  p
1393 -111 m  1391 -130 1386 -145 1378 -154 ct 1369 -163 1357 -167 1342 -167 ct 
1337 -167 1331 -166 1326 -165 ct 1320 -163 1315 -160 1310 -156 ct 1305 -152 1301 -146 1298 -139 ct 
1294 -131 1292 -122 1292 -111 ct 1393 -111 l  p ef
1476 -95 m  1476 -84 1477 -74 1479 -65 ct 1480 -56 1483 -48 1487 -42 ct 1490 -35 1495 -30 1501 -27 ct 
1507 -23 1515 -21 1523 -21 ct 1534 -21 1544 -24 1551 -30 ct 1559 -36 1563 -45 1565 -57 ct 
1596 -57 l  1595 -49 1593 -42 1589 -34 ct 1586 -27 1581 -21 1575 -15 ct 1570 -10 1562 -5 1554 -2 ct 
1545 1 1535 3 1524 3 ct 1510 3 1497 1 1487 -4 ct 1477 -9 1469 -16 1462 -25 ct 1456 -34 1451 -44 1448 -56 ct 
1445 -67 1444 -80 1444 -94 ct 1444 -106 1445 -117 1447 -127 ct 1449 -137 1452 -145 1456 -152 ct 
1460 -159 1464 -165 1469 -170 ct 1474 -175 1480 -179 1485 -182 ct 1491 -185 1498 -187 1504 -188 ct 
1511 -190 1517 -190 1524 -190 ct 1534 -190 1544 -189 1552 -186 ct 1560 -183 1567 -179 1573 -174 ct 
1579 -169 1584 -163 1587 -157 ct 1591 -150 1594 -142 1595 -135 ct 1563 -132 l 
1562 -143 1558 -151 1551 -157 ct 1544 -163 1535 -166 1523 -166 ct 1514 -166 1507 -165 1501 -162 ct 
1495 -159 1490 -154 1487 -148 ct 1483 -142 1480 -135 1479 -126 ct 1477 -117 1476 -107 1476 -95 ct 
p ef
1668 -187 m  1668 -69 l  1668 -60 1669 -52 1670 -46 ct 1671 -40 1674 -35 1677 -31 ct 
1680 -27 1683 -25 1688 -23 ct 1693 -22 1699 -21 1707 -21 ct 1714 -21 1721 -22 1726 -25 ct 
1732 -27 1737 -31 1742 -36 ct 1746 -41 1749 -47 1751 -54 ct 1754 -61 1755 -70 1755 -79 ct 
1755 -187 l  1786 -187 l  1786 -40 l  1786 -36 1786 -32 1786 -28 ct 1786 -24 1786 -20 1786 -16 ct 
1786 -12 1786 -9 1787 -6 ct 1787 -3 1787 -1 1787 0 ct 1758 0 l  1757 -1 1757 -3 1757 -5 ct 
1757 -8 1757 -11 1757 -14 ct 1757 -17 1756 -20 1756 -24 ct 1756 -27 1756 -30 1756 -32 ct 
1756 -32 l  1753 -27 1749 -22 1746 -18 ct 1742 -13 1738 -10 1733 -7 ct 1729 -4 1723 -1 1717 1 ct 
1711 2 1704 3 1696 3 ct 1686 3 1677 2 1669 -1 ct 1662 -3 1656 -7 1651 -13 ct 1646 -18 1643 -25 1640 -33 ct 
1638 -41 1637 -51 1637 -63 ct 1637 -187 l  1668 -187 l  p ef
1894 -1 m  1890 0 1885 1 1880 2 ct 1875 3 1870 3 1863 3 ct 1838 3 1826 -11 1826 -39 ct 
1826 -164 l  1804 -164 l  1804 -187 l  1827 -187 l  1836 -228 l  1857 -228 l 
1857 -187 l  1891 -187 l  1891 -164 l  1857 -164 l  1857 -46 l  1857 -37 1858 -31 1861 -27 ct 
1864 -23 1869 -22 1877 -22 ct 1880 -22 1882 -22 1885 -22 ct 1888 -23 1891 -23 1894 -24 ct 
1894 -1 l  p ef
1929 -226 m  1929 -256 l  1960 -256 l  1960 -226 l  1929 -226 l  p
1929 0 m  1929 -187 l  1960 -187 l  1960 0 l  1929 0 l  p ef
2166 -94 m  2166 -61 2158 -37 2144 -21 ct 2130 -5 2109 3 2081 3 ct 2068 3 2057 1 2047 -3 ct 
2036 -7 2028 -13 2021 -21 ct 2014 -29 2008 -39 2004 -51 ct 2001 -63 1999 -77 1999 -94 ct 
1999 -158 2027 -190 2082 -190 ct 2097 -190 2109 -188 2120 -184 ct 2130 -180 2139 -174 2146 -166 ct 
2152 -158 2157 -148 2161 -136 ct 2164 -124 2166 -110 2166 -94 ct p
2133 -94 m  2133 -108 2132 -120 2130 -129 ct 2127 -139 2124 -146 2120 -152 ct 
2115 -158 2110 -161 2104 -164 ct 2098 -166 2091 -167 2083 -167 ct 2075 -167 2068 -166 2061 -164 ct 
2055 -161 2050 -157 2045 -152 ct 2041 -146 2037 -138 2035 -129 ct 2033 -120 2031 -108 2031 -94 ct 
2031 -79 2033 -67 2035 -58 ct 2038 -48 2041 -41 2046 -35 ct 2050 -30 2055 -26 2061 -23 ct 
2067 -21 2074 -20 2081 -20 ct 2089 -20 2096 -21 2103 -23 ct 2109 -26 2114 -29 2119 -35 ct 
2123 -41 2127 -48 2129 -58 ct 2132 -67 2133 -79 2133 -94 ct p ef
2312 0 m  2312 -118 l  2312 -127 2312 -135 2310 -141 ct 2309 -147 2307 -152 2304 -156 ct 
2301 -160 2297 -162 2292 -164 ct 2287 -165 2281 -166 2274 -166 ct 2266 -166 2260 -165 2254 -162 ct 
2248 -160 2243 -156 2239 -151 ct 2234 -146 2231 -140 2229 -133 ct 2227 -126 2226 -117 2226 -108 ct 
2226 0 l  2194 0 l  2194 -147 l  2194 -151 2194 -155 2194 -159 ct 2194 -163 2194 -167 2194 -171 ct 
2194 -175 2194 -178 2194 -181 ct 2194 -184 2194 -186 2193 -187 ct 2223 -187 l 
2223 -186 2223 -184 2223 -182 ct 2223 -179 2223 -176 2224 -173 ct 2224 -170 2224 -167 2224 -163 ct 
2224 -160 2224 -157 2224 -155 ct 2225 -155 l  2228 -160 2231 -165 2234 -169 ct 
2238 -174 2242 -177 2247 -180 ct 2252 -183 2257 -186 2263 -188 ct 2269 -189 2276 -190 2284 -190 ct 
2295 -190 2304 -189 2311 -186 ct 2318 -184 2325 -180 2329 -174 ct 2334 -169 2338 -162 2340 -154 ct 
2342 -146 2343 -136 2343 -124 ct 2343 0 l  2312 0 l  p ef
2556 -1 m  2552 0 2547 1 2542 2 ct 2537 3 2532 3 2525 3 ct 2500 3 2488 -11 2488 -39 ct 
2488 -164 l  2466 -164 l  2466 -187 l  2489 -187 l  2498 -228 l  2519 -228 l 
2519 -187 l  2553 -187 l  2553 -164 l  2519 -164 l  2519 -46 l  2519 -37 2520 -31 2523 -27 ct 
2526 -23 2531 -22 2539 -22 ct 2542 -22 2544 -22 2547 -22 ct 2550 -23 2553 -23 2556 -24 ct 
2556 -1 l  p ef
2590 -226 m  2590 -256 l  2621 -256 l  2621 -226 l  2590 -226 l  p
2590 0 m  2590 -187 l  2621 -187 l  2621 0 l  2590 0 l  p ef
2778 0 m  2778 -118 l  2778 -127 2778 -135 2777 -141 ct 2776 -147 2774 -152 2771 -156 ct 
2768 -160 2765 -162 2760 -164 ct 2756 -165 2751 -166 2744 -166 ct 2738 -166 2732 -165 2726 -162 ct 
2721 -160 2717 -156 2713 -151 ct 2709 -146 2706 -140 2704 -133 ct 2702 -126 2701 -117 2701 -108 ct 
2701 0 l  2670 0 l  2670 -147 l  2670 -151 2670 -155 2670 -159 ct 2670 -163 2670 -167 2670 -171 ct 
2670 -175 2670 -178 2670 -181 ct 2670 -184 2670 -186 2669 -187 ct 2699 -187 l 
2699 -186 2699 -184 2699 -182 ct 2699 -179 2699 -176 2700 -173 ct 2700 -170 2700 -167 2700 -163 ct 
2700 -160 2700 -157 2700 -155 ct 2701 -155 l  2703 -160 2706 -165 2710 -169 ct 
2713 -174 2717 -177 2721 -180 ct 2725 -183 2730 -186 2736 -188 ct 2741 -189 2748 -190 2755 -190 ct 
2769 -190 2780 -187 2789 -182 ct 2797 -176 2803 -167 2806 -155 ct 2806 -155 l 
2809 -160 2812 -165 2816 -169 ct 2819 -174 2823 -177 2828 -180 ct 2832 -183 2837 -186 2843 -188 ct 
2849 -189 2855 -190 2863 -190 ct 2872 -190 2880 -189 2887 -186 ct 2894 -184 2900 -180 2904 -174 ct 
2908 -169 2912 -162 2914 -154 ct 2916 -146 2917 -136 2917 -124 ct 2917 0 l  2886 0 l 
2886 -118 l  2886 -127 2886 -135 2884 -141 ct 2883 -147 2881 -152 2879 -156 ct 
2876 -160 2872 -162 2868 -164 ct 2864 -165 2858 -166 2852 -166 ct 2845 -166 2840 -165 2834 -162 ct 
2829 -160 2824 -156 2821 -151 ct 2817 -147 2814 -141 2812 -133 ct 2810 -126 2809 -118 2809 -108 ct 
2809 0 l  2778 0 l  p ef
2985 -87 m  2985 -77 2986 -68 2988 -60 ct 2990 -52 2993 -45 2997 -39 ct 3001 -33 3006 -28 3013 -25 ct 
3020 -22 3027 -20 3037 -20 ct 3050 -20 3061 -23 3069 -28 ct 3077 -34 3083 -41 3085 -49 ct 
3113 -41 l  3111 -36 3108 -31 3104 -26 ct 3101 -20 3096 -16 3090 -11 ct 3085 -7 3077 -4 3068 -1 ct 
3060 2 3049 3 3037 3 ct 3009 3 2988 -5 2974 -22 ct 2959 -38 2952 -62 2952 -95 ct 
2952 -112 2954 -127 2959 -139 ct 2963 -151 2969 -161 2976 -169 ct 2984 -176 2993 -182 3003 -185 ct 
3013 -188 3024 -190 3035 -190 ct 3051 -190 3064 -187 3075 -182 ct 3085 -177 3094 -170 3100 -162 ct 
3106 -153 3111 -142 3114 -130 ct 3116 -118 3118 -105 3118 -91 ct 3118 -87 l 
2985 -87 l  p
3086 -111 m  3084 -130 3079 -145 3071 -154 ct 3062 -163 3050 -167 3035 -167 ct 
3030 -167 3024 -166 3019 -165 ct 3013 -163 3008 -160 3003 -156 ct 2998 -152 2994 -146 2991 -139 ct 
2987 -131 2985 -122 2985 -111 ct 3086 -111 l  p ef
3250 -92 m  3250 -108 3251 -123 3254 -138 ct 3256 -152 3260 -166 3265 -180 ct 
3270 -193 3277 -206 3285 -219 ct 3293 -232 3302 -244 3314 -256 ct 3343 -256 l 
3333 -244 3323 -232 3315 -219 ct 3308 -206 3301 -193 3296 -180 ct 3291 -166 3287 -152 3285 -137 ct 
3282 -123 3281 -107 3281 -91 ct 3281 -76 3282 -60 3285 -46 ct 3287 -31 3291 -17 3296 -3 ct 
3301 10 3308 23 3315 36 ct 3323 49 3333 61 3343 73 ct 3314 73 l  3302 61 3293 49 3285 36 ct 
3277 23 3270 10 3265 -3 ct 3260 -17 3256 -31 3254 -45 ct 3251 -60 3250 -75 3250 -91 ct 
3250 -92 l  p ef
3498 -52 m  3498 -43 3496 -36 3493 -29 ct 3489 -22 3484 -16 3478 -11 ct 3471 -7 3464 -3 3454 -1 ct 
3445 2 3434 3 3422 3 ct 3411 3 3402 2 3393 1 ct 3384 -1 3377 -4 3370 -8 ct 3363 -11 3358 -16 3354 -22 ct 
3349 -28 3346 -36 3344 -44 ct 3371 -50 l  3374 -40 3379 -32 3388 -28 ct 3396 -23 3407 -21 3422 -21 ct 
3429 -21 3435 -21 3440 -22 ct 3446 -23 3451 -25 3455 -27 ct 3459 -29 3462 -32 3464 -36 ct 
3466 -39 3468 -44 3468 -50 ct 3468 -55 3466 -60 3464 -63 ct 3461 -67 3457 -70 3453 -73 ct 
3448 -75 3442 -77 3435 -79 ct 3429 -81 3421 -83 3413 -85 ct 3406 -87 3398 -89 3391 -91 ct 
3384 -94 3377 -97 3371 -101 ct 3365 -105 3360 -110 3357 -116 ct 3353 -122 3351 -129 3351 -138 ct 
3351 -155 3357 -168 3369 -177 ct 3382 -186 3399 -190 3422 -190 ct 3443 -190 3459 -186 3471 -179 ct 
3484 -172 3491 -160 3494 -144 ct 3467 -141 l  3466 -146 3464 -150 3461 -153 ct 
3458 -156 3455 -159 3451 -161 ct 3447 -163 3443 -164 3438 -165 ct 3433 -166 3428 -167 3422 -167 ct 
3408 -167 3398 -164 3391 -160 ct 3385 -156 3381 -149 3381 -141 ct 3381 -136 3383 -132 3385 -128 ct 
3388 -125 3391 -122 3395 -120 ct 3400 -118 3405 -116 3411 -114 ct 3418 -113 3424 -111 3432 -109 ct 
3437 -108 3442 -106 3447 -105 ct 3452 -103 3457 -102 3462 -100 ct 3467 -98 3472 -95 3476 -93 ct 
3480 -90 3484 -87 3487 -83 ct 3490 -79 3493 -75 3495 -70 ct 3497 -65 3498 -59 3498 -52 ct 
p ef
3567 -87 m  3567 -77 3568 -68 3570 -60 ct 3572 -52 3575 -45 3579 -39 ct 3583 -33 3588 -28 3595 -25 ct 
3602 -22 3609 -20 3619 -20 ct 3632 -20 3643 -23 3651 -28 ct 3659 -34 3665 -41 3667 -49 ct 
3695 -41 l  3693 -36 3690 -31 3686 -26 ct 3683 -20 3678 -16 3672 -11 ct 3667 -7 3659 -4 3650 -1 ct 
3642 2 3631 3 3619 3 ct 3591 3 3570 -5 3556 -22 ct 3541 -38 3534 -62 3534 -95 ct 
3534 -112 3536 -127 3541 -139 ct 3545 -151 3551 -161 3558 -169 ct 3566 -176 3575 -182 3585 -185 ct 
3595 -188 3606 -190 3617 -190 ct 3633 -190 3646 -187 3657 -182 ct 3667 -177 3676 -170 3682 -162 ct 
3688 -153 3693 -142 3696 -130 ct 3698 -118 3700 -105 3700 -91 ct 3700 -87 l 
3567 -87 l  p
3668 -111 m  3666 -130 3661 -145 3653 -154 ct 3644 -163 3632 -167 3617 -167 ct 
3612 -167 3606 -166 3601 -165 ct 3595 -163 3590 -160 3585 -156 ct 3580 -152 3576 -146 3573 -139 ct 
3569 -131 3567 -122 3567 -111 ct 3668 -111 l  p ef
3751 -95 m  3751 -84 3752 -74 3754 -65 ct 3755 -56 3758 -48 3762 -42 ct 3765 -35 3770 -30 3776 -27 ct 
3782 -23 3790 -21 3798 -21 ct 3809 -21 3819 -24 3826 -30 ct 3834 -36 3838 -45 3840 -57 ct 
3871 -57 l  3870 -49 3868 -42 3864 -34 ct 3861 -27 3856 -21 3850 -15 ct 3845 -10 3837 -5 3829 -2 ct 
3820 1 3810 3 3799 3 ct 3785 3 3772 1 3762 -4 ct 3752 -9 3744 -16 3737 -25 ct 3731 -34 3726 -44 3723 -56 ct 
3720 -67 3719 -80 3719 -94 ct 3719 -106 3720 -117 3722 -127 ct 3724 -137 3727 -145 3731 -152 ct 
3735 -159 3739 -165 3744 -170 ct 3749 -175 3755 -179 3760 -182 ct 3766 -185 3773 -187 3779 -188 ct 
3786 -190 3792 -190 3799 -190 ct 3809 -190 3819 -189 3827 -186 ct 3835 -183 3842 -179 3848 -174 ct 
3854 -169 3859 -163 3862 -157 ct 3866 -150 3869 -142 3870 -135 ct 3838 -132 l 
3837 -143 3833 -151 3826 -157 ct 3819 -163 3810 -166 3798 -166 ct 3789 -166 3782 -165 3776 -162 ct 
3770 -159 3765 -154 3762 -148 ct 3758 -142 3755 -135 3754 -126 ct 3752 -117 3751 -107 3751 -95 ct 
p ef
3985 -91 m  3985 -75 3983 -60 3981 -45 ct 3979 -31 3975 -17 3970 -3 ct 3964 10 3958 23 3950 36 ct 
3942 49 3932 61 3921 73 ct 3891 73 l  3902 61 3911 49 3919 36 ct 3927 23 3933 10 3938 -3 ct 
3944 -17 3947 -31 3950 -46 ct 3952 -60 3953 -76 3953 -91 ct 3953 -107 3952 -123 3950 -137 ct 
3947 -152 3944 -166 3938 -180 ct 3933 -193 3927 -206 3919 -219 ct 3911 -232 3902 -244 3891 -256 ct 
3921 -256 l  3932 -244 3942 -232 3950 -219 ct 3958 -206 3964 -193 3970 -180 ct 
3975 -166 3979 -152 3981 -138 ct 3983 -123 3985 -108 3985 -92 ct 3985 -91 l 
p ef
pom

pum
15066 4924 t
18 -123 m  18 -142 20 -159 25 -174 ct 31 -190 38 -203 48 -213 ct 59 -224 71 -232 86 -238 ct 
101 -244 119 -247 139 -247 ct 154 -247 167 -246 178 -243 ct 189 -240 199 -237 207 -232 ct 
215 -227 222 -221 228 -214 ct 234 -207 239 -199 243 -190 ct 211 -180 l  209 -186 205 -192 201 -197 ct 
197 -202 191 -206 185 -209 ct 179 -213 173 -215 165 -217 ct 157 -219 148 -220 138 -220 ct 
123 -220 110 -218 99 -213 ct 89 -209 80 -202 72 -194 ct 65 -185 60 -175 56 -163 ct 
53 -151 51 -138 51 -123 ct 51 -108 53 -95 57 -83 ct 61 -71 66 -60 74 -52 ct 81 -43 91 -36 102 -31 ct 
113 -26 126 -24 140 -24 ct 150 -24 158 -25 167 -26 ct 175 -28 182 -30 188 -32 ct 
195 -35 201 -38 205 -41 ct 210 -44 215 -47 218 -51 ct 218 -94 l  145 -94 l  145 -122 l 
248 -122 l  248 -38 l  243 -33 236 -27 229 -22 ct 222 -17 214 -13 205 -9 ct 
196 -5 186 -2 175 0 ct 164 2 152 3 140 3 ct 120 3 102 0 87 -6 ct 71 -13 59 -21 48 -33 ct 
38 -44 31 -57 25 -73 ct 20 -88 18 -105 18 -123 ct p ef
482 -170 m  482 -160 480 -150 477 -141 ct 473 -131 468 -124 461 -117 ct 454 -110 445 -105 435 -101 ct 
424 -97 412 -95 398 -95 ct 327 -95 l  327 -1 l  294 -1 l  294 -243 l  396 -243 l 
411 -243 423 -242 434 -238 ct 444 -235 453 -230 460 -223 ct 468 -217 473 -209 476 -200 ct 
480 -191 482 -181 482 -170 ct p
449 -170 m  449 -185 444 -197 435 -205 ct 425 -213 411 -217 392 -217 ct 327 -217 l 
327 -121 l  394 -121 l  413 -121 426 -125 435 -134 ct 444 -142 449 -154 449 -170 ct 
p ef
629 3 m  616 3 603 1 591 -2 ct 579 -6 569 -11 560 -19 ct 551 -27 543 -36 538 -48 ct 
533 -59 530 -73 530 -89 ct 530 -244 l  563 -244 l  563 -92 l  563 -79 565 -69 568 -60 ct 
571 -52 576 -45 582 -39 ct 588 -34 595 -30 603 -27 ct 611 -25 619 -24 629 -24 ct 
638 -24 647 -25 656 -28 ct 664 -30 671 -34 678 -40 ct 684 -45 689 -52 693 -61 ct 
696 -70 698 -81 698 -94 ct 698 -244 l  731 -244 l  731 -92 l  731 -76 728 -62 723 -50 ct 
717 -38 710 -28 701 -20 ct 692 -12 681 -6 669 -3 ct 656 1 643 3 629 3 ct p ef
876 0 m  876 -243 l  1060 -243 l  1060 -216 l  909 -216 l  909 -138 l 
1050 -138 l  1050 -111 l  909 -111 l  909 -27 l  1067 -27 l  1067 0 l 
876 0 l  p ef
1223 0 m  1173 -77 l  1122 0 l  1089 0 l  1155 -96 l  1092 -187 l  1126 -187 l 
1173 -114 l  1219 -187 l  1254 -187 l  1190 -96 l  1258 0 l  1223 0 l 
p ef
1318 -87 m  1318 -77 1319 -68 1321 -60 ct 1323 -52 1326 -45 1330 -39 ct 1334 -33 1339 -28 1346 -25 ct 
1353 -22 1360 -20 1370 -20 ct 1383 -20 1394 -23 1402 -28 ct 1410 -34 1416 -41 1418 -49 ct 
1446 -41 l  1444 -36 1441 -31 1437 -26 ct 1434 -20 1429 -16 1423 -11 ct 1418 -7 1410 -4 1401 -1 ct 
1393 2 1382 3 1370 3 ct 1342 3 1321 -5 1307 -22 ct 1292 -38 1285 -62 1285 -95 ct 
1285 -112 1287 -127 1292 -139 ct 1296 -151 1302 -161 1309 -169 ct 1317 -176 1326 -182 1336 -185 ct 
1346 -188 1357 -190 1368 -190 ct 1384 -190 1397 -187 1408 -182 ct 1418 -177 1427 -170 1433 -162 ct 
1439 -153 1444 -142 1447 -130 ct 1449 -118 1451 -105 1451 -91 ct 1451 -87 l 
1318 -87 l  p
1419 -111 m  1417 -130 1412 -145 1404 -154 ct 1395 -163 1383 -167 1368 -167 ct 
1363 -167 1357 -166 1352 -165 ct 1346 -163 1341 -160 1336 -156 ct 1331 -152 1327 -146 1324 -139 ct 
1320 -131 1318 -122 1318 -111 ct 1419 -111 l  p ef
1502 -95 m  1502 -84 1503 -74 1505 -65 ct 1506 -56 1509 -48 1513 -42 ct 1516 -35 1521 -30 1527 -27 ct 
1533 -23 1541 -21 1549 -21 ct 1560 -21 1570 -24 1577 -30 ct 1585 -36 1589 -45 1591 -57 ct 
1622 -57 l  1621 -49 1619 -42 1615 -34 ct 1612 -27 1607 -21 1601 -15 ct 1596 -10 1588 -5 1580 -2 ct 
1571 1 1561 3 1550 3 ct 1536 3 1523 1 1513 -4 ct 1503 -9 1495 -16 1488 -25 ct 1482 -34 1477 -44 1474 -56 ct 
1471 -67 1470 -80 1470 -94 ct 1470 -106 1471 -117 1473 -127 ct 1475 -137 1478 -145 1482 -152 ct 
1486 -159 1490 -165 1495 -170 ct 1500 -175 1506 -179 1511 -182 ct 1517 -185 1524 -187 1530 -188 ct 
1537 -190 1543 -190 1550 -190 ct 1560 -190 1570 -189 1578 -186 ct 1586 -183 1593 -179 1599 -174 ct 
1605 -169 1610 -163 1613 -157 ct 1617 -150 1620 -142 1621 -135 ct 1589 -132 l 
1588 -143 1584 -151 1577 -157 ct 1570 -163 1561 -166 1549 -166 ct 1540 -166 1533 -165 1527 -162 ct 
1521 -159 1516 -154 1513 -148 ct 1509 -142 1506 -135 1505 -126 ct 1503 -117 1502 -107 1502 -95 ct 
p ef
1694 -187 m  1694 -69 l  1694 -60 1695 -52 1696 -46 ct 1697 -40 1700 -35 1703 -31 ct 
1706 -27 1709 -25 1714 -23 ct 1719 -22 1725 -21 1733 -21 ct 1740 -21 1747 -22 1752 -25 ct 
1758 -27 1763 -31 1768 -36 ct 1772 -41 1775 -47 1777 -54 ct 1780 -61 1781 -70 1781 -79 ct 
1781 -187 l  1812 -187 l  1812 -40 l  1812 -36 1812 -32 1812 -28 ct 1812 -24 1812 -20 1812 -16 ct 
1812 -12 1812 -9 1813 -6 ct 1813 -3 1813 -1 1813 0 ct 1784 0 l  1783 -1 1783 -3 1783 -5 ct 
1783 -8 1783 -11 1783 -14 ct 1783 -17 1782 -20 1782 -24 ct 1782 -27 1782 -30 1782 -32 ct 
1782 -32 l  1779 -27 1775 -22 1772 -18 ct 1768 -13 1764 -10 1759 -7 ct 1755 -4 1749 -1 1743 1 ct 
1737 2 1730 3 1722 3 ct 1712 3 1703 2 1695 -1 ct 1688 -3 1682 -7 1677 -13 ct 1672 -18 1669 -25 1666 -33 ct 
1664 -41 1663 -51 1663 -63 ct 1663 -187 l  1694 -187 l  p ef
1921 -1 m  1917 0 1912 1 1907 2 ct 1902 3 1897 3 1890 3 ct 1865 3 1853 -11 1853 -39 ct 
1853 -164 l  1831 -164 l  1831 -187 l  1854 -187 l  1863 -228 l  1884 -228 l 
1884 -187 l  1918 -187 l  1918 -164 l  1884 -164 l  1884 -46 l  1884 -37 1885 -31 1888 -27 ct 
1891 -23 1896 -22 1904 -22 ct 1907 -22 1909 -22 1912 -22 ct 1915 -23 1918 -23 1921 -24 ct 
1921 -1 l  p ef
1955 -226 m  1955 -256 l  1986 -256 l  1986 -226 l  1955 -226 l  p
1955 0 m  1955 -187 l  1986 -187 l  1986 0 l  1955 0 l  p ef
2193 -94 m  2193 -61 2185 -37 2171 -21 ct 2157 -5 2136 3 2108 3 ct 2095 3 2084 1 2074 -3 ct 
2063 -7 2055 -13 2048 -21 ct 2041 -29 2035 -39 2031 -51 ct 2028 -63 2026 -77 2026 -94 ct 
2026 -158 2054 -190 2109 -190 ct 2124 -190 2136 -188 2147 -184 ct 2157 -180 2166 -174 2173 -166 ct 
2179 -158 2184 -148 2188 -136 ct 2191 -124 2193 -110 2193 -94 ct p
2160 -94 m  2160 -108 2159 -120 2157 -129 ct 2154 -139 2151 -146 2147 -152 ct 
2142 -158 2137 -161 2131 -164 ct 2125 -166 2118 -167 2110 -167 ct 2102 -167 2095 -166 2088 -164 ct 
2082 -161 2077 -157 2072 -152 ct 2068 -146 2064 -138 2062 -129 ct 2060 -120 2058 -108 2058 -94 ct 
2058 -79 2060 -67 2062 -58 ct 2065 -48 2068 -41 2073 -35 ct 2077 -30 2082 -26 2088 -23 ct 
2094 -21 2101 -20 2108 -20 ct 2116 -20 2123 -21 2130 -23 ct 2136 -26 2141 -29 2146 -35 ct 
2150 -41 2154 -48 2156 -58 ct 2159 -67 2160 -79 2160 -94 ct p ef
2338 0 m  2338 -118 l  2338 -127 2338 -135 2336 -141 ct 2335 -147 2333 -152 2330 -156 ct 
2327 -160 2323 -162 2318 -164 ct 2313 -165 2307 -166 2300 -166 ct 2292 -166 2286 -165 2280 -162 ct 
2274 -160 2269 -156 2265 -151 ct 2260 -146 2257 -140 2255 -133 ct 2253 -126 2252 -117 2252 -108 ct 
2252 0 l  2220 0 l  2220 -147 l  2220 -151 2220 -155 2220 -159 ct 2220 -163 2220 -167 2220 -171 ct 
2220 -175 2220 -178 2220 -181 ct 2220 -184 2220 -186 2219 -187 ct 2249 -187 l 
2249 -186 2249 -184 2249 -182 ct 2249 -179 2249 -176 2250 -173 ct 2250 -170 2250 -167 2250 -163 ct 
2250 -160 2250 -157 2250 -155 ct 2251 -155 l  2254 -160 2257 -165 2260 -169 ct 
2264 -174 2268 -177 2273 -180 ct 2278 -183 2283 -186 2289 -188 ct 2295 -189 2302 -190 2310 -190 ct 
2321 -190 2330 -189 2337 -186 ct 2344 -184 2351 -180 2355 -174 ct 2360 -169 2364 -162 2366 -154 ct 
2368 -146 2369 -136 2369 -124 ct 2369 0 l  2338 0 l  p ef
2582 -1 m  2578 0 2573 1 2568 2 ct 2563 3 2558 3 2551 3 ct 2526 3 2514 -11 2514 -39 ct 
2514 -164 l  2492 -164 l  2492 -187 l  2515 -187 l  2524 -228 l  2545 -228 l 
2545 -187 l  2579 -187 l  2579 -164 l  2545 -164 l  2545 -46 l  2545 -37 2546 -31 2549 -27 ct 
2552 -23 2557 -22 2565 -22 ct 2568 -22 2570 -22 2573 -22 ct 2576 -23 2579 -23 2582 -24 ct 
2582 -1 l  p ef
2617 -226 m  2617 -256 l  2648 -256 l  2648 -226 l  2617 -226 l  p
2617 0 m  2617 -187 l  2648 -187 l  2648 0 l  2617 0 l  p ef
2804 0 m  2804 -118 l  2804 -127 2804 -135 2803 -141 ct 2802 -147 2800 -152 2797 -156 ct 
2794 -160 2791 -162 2786 -164 ct 2782 -165 2777 -166 2770 -166 ct 2764 -166 2758 -165 2752 -162 ct 
2747 -160 2743 -156 2739 -151 ct 2735 -146 2732 -140 2730 -133 ct 2728 -126 2727 -117 2727 -108 ct 
2727 0 l  2696 0 l  2696 -147 l  2696 -151 2696 -155 2696 -159 ct 2696 -163 2696 -167 2696 -171 ct 
2696 -175 2696 -178 2696 -181 ct 2696 -184 2696 -186 2695 -187 ct 2725 -187 l 
2725 -186 2725 -184 2725 -182 ct 2725 -179 2725 -176 2726 -173 ct 2726 -170 2726 -167 2726 -163 ct 
2726 -160 2726 -157 2726 -155 ct 2727 -155 l  2729 -160 2732 -165 2736 -169 ct 
2739 -174 2743 -177 2747 -180 ct 2751 -183 2756 -186 2762 -188 ct 2767 -189 2774 -190 2781 -190 ct 
2795 -190 2806 -187 2815 -182 ct 2823 -176 2829 -167 2832 -155 ct 2832 -155 l 
2835 -160 2838 -165 2842 -169 ct 2845 -174 2849 -177 2854 -180 ct 2858 -183 2863 -186 2869 -188 ct 
2875 -189 2881 -190 2889 -190 ct 2898 -190 2906 -189 2913 -186 ct 2920 -184 2926 -180 2930 -174 ct 
2934 -169 2938 -162 2940 -154 ct 2942 -146 2943 -136 2943 -124 ct 2943 0 l  2912 0 l 
2912 -118 l  2912 -127 2912 -135 2910 -141 ct 2909 -147 2907 -152 2905 -156 ct 
2902 -160 2898 -162 2894 -164 ct 2890 -165 2884 -166 2878 -166 ct 2871 -166 2866 -165 2860 -162 ct 
2855 -160 2850 -156 2847 -151 ct 2843 -147 2840 -141 2838 -133 ct 2836 -126 2835 -118 2835 -108 ct 
2835 0 l  2804 0 l  p ef
3011 -87 m  3011 -77 3012 -68 3014 -60 ct 3016 -52 3019 -45 3023 -39 ct 3027 -33 3032 -28 3039 -25 ct 
3046 -22 3053 -20 3063 -20 ct 3076 -20 3087 -23 3095 -28 ct 3103 -34 3109 -41 3111 -49 ct 
3139 -41 l  3137 -36 3134 -31 3130 -26 ct 3127 -20 3122 -16 3116 -11 ct 3111 -7 3103 -4 3094 -1 ct 
3086 2 3075 3 3063 3 ct 3035 3 3014 -5 3000 -22 ct 2985 -38 2978 -62 2978 -95 ct 
2978 -112 2980 -127 2985 -139 ct 2989 -151 2995 -161 3002 -169 ct 3010 -176 3019 -182 3029 -185 ct 
3039 -188 3050 -190 3061 -190 ct 3077 -190 3090 -187 3101 -182 ct 3111 -177 3120 -170 3126 -162 ct 
3132 -153 3137 -142 3140 -130 ct 3142 -118 3144 -105 3144 -91 ct 3144 -87 l 
3011 -87 l  p
3112 -111 m  3110 -130 3105 -145 3097 -154 ct 3088 -163 3076 -167 3061 -167 ct 
3056 -167 3050 -166 3045 -165 ct 3039 -163 3034 -160 3029 -156 ct 3024 -152 3020 -146 3017 -139 ct 
3013 -131 3011 -122 3011 -111 ct 3112 -111 l  p ef
3276 -92 m  3276 -108 3277 -123 3280 -138 ct 3282 -152 3286 -166 3291 -180 ct 
3296 -193 3303 -206 3311 -219 ct 3319 -232 3328 -244 3340 -256 ct 3369 -256 l 
3359 -244 3349 -232 3341 -219 ct 3334 -206 3327 -193 3322 -180 ct 3317 -166 3313 -152 3311 -137 ct 
3308 -123 3307 -107 3307 -91 ct 3307 -76 3308 -60 3311 -46 ct 3313 -31 3317 -17 3322 -3 ct 
3327 10 3334 23 3341 36 ct 3349 49 3359 61 3369 73 ct 3340 73 l  3328 61 3319 49 3311 36 ct 
3303 23 3296 10 3291 -3 ct 3286 -17 3282 -31 3280 -45 ct 3277 -60 3276 -75 3276 -91 ct 
3276 -92 l  p ef
3524 -52 m  3524 -43 3522 -36 3519 -29 ct 3515 -22 3510 -16 3504 -11 ct 3497 -7 3490 -3 3480 -1 ct 
3471 2 3460 3 3448 3 ct 3437 3 3428 2 3419 1 ct 3410 -1 3403 -4 3396 -8 ct 3389 -11 3384 -16 3380 -22 ct 
3375 -28 3372 -36 3370 -44 ct 3397 -50 l  3400 -40 3405 -32 3414 -28 ct 3422 -23 3433 -21 3448 -21 ct 
3455 -21 3461 -21 3466 -22 ct 3472 -23 3477 -25 3481 -27 ct 3485 -29 3488 -32 3490 -36 ct 
3492 -39 3494 -44 3494 -50 ct 3494 -55 3492 -60 3490 -63 ct 3487 -67 3483 -70 3479 -73 ct 
3474 -75 3468 -77 3461 -79 ct 3455 -81 3447 -83 3439 -85 ct 3432 -87 3424 -89 3417 -91 ct 
3410 -94 3403 -97 3397 -101 ct 3391 -105 3386 -110 3383 -116 ct 3379 -122 3377 -129 3377 -138 ct 
3377 -155 3383 -168 3395 -177 ct 3408 -186 3425 -190 3448 -190 ct 3469 -190 3485 -186 3497 -179 ct 
3510 -172 3517 -160 3520 -144 ct 3493 -141 l  3492 -146 3490 -150 3487 -153 ct 
3484 -156 3481 -159 3477 -161 ct 3473 -163 3469 -164 3464 -165 ct 3459 -166 3454 -167 3448 -167 ct 
3434 -167 3424 -164 3417 -160 ct 3411 -156 3407 -149 3407 -141 ct 3407 -136 3409 -132 3411 -128 ct 
3414 -125 3417 -122 3421 -120 ct 3426 -118 3431 -116 3437 -114 ct 3444 -113 3450 -111 3458 -109 ct 
3463 -108 3468 -106 3473 -105 ct 3478 -103 3483 -102 3488 -100 ct 3493 -98 3498 -95 3502 -93 ct 
3506 -90 3510 -87 3513 -83 ct 3516 -79 3519 -75 3521 -70 ct 3523 -65 3524 -59 3524 -52 ct 
p ef
3593 -87 m  3593 -77 3594 -68 3596 -60 ct 3598 -52 3601 -45 3605 -39 ct 3609 -33 3614 -28 3621 -25 ct 
3628 -22 3635 -20 3645 -20 ct 3658 -20 3669 -23 3677 -28 ct 3685 -34 3691 -41 3693 -49 ct 
3721 -41 l  3719 -36 3716 -31 3712 -26 ct 3709 -20 3704 -16 3698 -11 ct 3693 -7 3685 -4 3676 -1 ct 
3668 2 3657 3 3645 3 ct 3617 3 3596 -5 3582 -22 ct 3567 -38 3560 -62 3560 -95 ct 
3560 -112 3562 -127 3567 -139 ct 3571 -151 3577 -161 3584 -169 ct 3592 -176 3601 -182 3611 -185 ct 
3621 -188 3632 -190 3643 -190 ct 3659 -190 3672 -187 3683 -182 ct 3693 -177 3702 -170 3708 -162 ct 
3714 -153 3719 -142 3722 -130 ct 3724 -118 3726 -105 3726 -91 ct 3726 -87 l 
3593 -87 l  p
3694 -111 m  3692 -130 3687 -145 3679 -154 ct 3670 -163 3658 -167 3643 -167 ct 
3638 -167 3632 -166 3627 -165 ct 3621 -163 3616 -160 3611 -156 ct 3606 -152 3602 -146 3599 -139 ct 
3595 -131 3593 -122 3593 -111 ct 3694 -111 l  p ef
3778 -95 m  3778 -84 3779 -74 3781 -65 ct 3782 -56 3785 -48 3789 -42 ct 3792 -35 3797 -30 3803 -27 ct 
3809 -23 3817 -21 3825 -21 ct 3836 -21 3846 -24 3853 -30 ct 3861 -36 3865 -45 3867 -57 ct 
3898 -57 l  3897 -49 3895 -42 3891 -34 ct 3888 -27 3883 -21 3877 -15 ct 3872 -10 3864 -5 3856 -2 ct 
3847 1 3837 3 3826 3 ct 3812 3 3799 1 3789 -4 ct 3779 -9 3771 -16 3764 -25 ct 3758 -34 3753 -44 3750 -56 ct 
3747 -67 3746 -80 3746 -94 ct 3746 -106 3747 -117 3749 -127 ct 3751 -137 3754 -145 3758 -152 ct 
3762 -159 3766 -165 3771 -170 ct 3776 -175 3782 -179 3787 -182 ct 3793 -185 3800 -187 3806 -188 ct 
3813 -190 3819 -190 3826 -190 ct 3836 -190 3846 -189 3854 -186 ct 3862 -183 3869 -179 3875 -174 ct 
3881 -169 3886 -163 3889 -157 ct 3893 -150 3896 -142 3897 -135 ct 3865 -132 l 
3864 -143 3860 -151 3853 -157 ct 3846 -163 3837 -166 3825 -166 ct 3816 -166 3809 -165 3803 -162 ct 
3797 -159 3792 -154 3789 -148 ct 3785 -142 3782 -135 3781 -126 ct 3779 -117 3778 -107 3778 -95 ct 
p ef
4012 -91 m  4012 -75 4010 -60 4008 -45 ct 4006 -31 4002 -17 3997 -3 ct 3991 10 3985 23 3977 36 ct 
3969 49 3959 61 3948 73 ct 3918 73 l  3929 61 3938 49 3946 36 ct 3954 23 3960 10 3965 -3 ct 
3971 -17 3974 -31 3977 -46 ct 3979 -60 3980 -76 3980 -91 ct 3980 -107 3979 -123 3977 -137 ct 
3974 -152 3971 -166 3965 -180 ct 3960 -193 3954 -206 3946 -219 ct 3938 -232 3929 -244 3918 -256 ct 
3948 -256 l  3959 -244 3969 -232 3977 -219 ct 3985 -206 3991 -193 3997 -180 ct 
4002 -166 4006 -152 4008 -138 ct 4010 -123 4012 -108 4012 -92 ct 4012 -91 l 
p ef
pom
gr
gs
0 0 m 19494 0 l 19494 9113 l 0 9113 l 0 0 l eoclip newpath
gr
gr
gr
gr
0 9114 t 
pom
count op_count sub {pop} repeat countdictstack dict_count sub {end} repeat b4_inc_state restore
%%PageTrailer
%%Trailer
%%EOF
