%!PS-Adobe-3.0 EPSF-3.0 
%%BoundingBox: 0 0 500 266
%%Pages: 0
%%Creator: LibreOffice 3.5
%%Title: none
%%CreationDate: none
%%LanguageLevel: 2
%%EndComments
%%BeginProlog
%%BeginResource: procset SDRes-Prolog 1.0 0
/b4_inc_state save def
/dict_count countdictstack def
/op_count count 1 sub def
userdict begin
0 setgray 0 setlinecap 1 setlinewidth 0 setlinejoin 10 setmiterlimit[] 0 setdash newpath
/languagelevel where {pop languagelevel 1 ne {false setstrokeadjust false setoverprint} if} if
/bdef {bind def} bind def
/c {setrgbcolor} bdef
/l {neg lineto} bdef
/rl {neg rlineto} bdef
/lc {setlinecap} bdef
/lj {setlinejoin} bdef
/lw {setlinewidth} bdef
/ml {setmiterlimit} bdef
/ld {setdash} bdef
/m {neg moveto} bdef
/ct {6 2 roll neg 6 2 roll neg 6 2 roll neg curveto} bdef
/r {rotate} bdef
/t {neg translate} bdef
/s {scale} bdef
/sw {show} bdef
/gs {gsave} bdef
/gr {grestore} bdef
/f {findfont dup length dict begin
{1 index /FID ne {def} {pop pop} ifelse} forall /Encoding ISOLatin1Encoding def
currentdict end /NFont exch definefont pop /NFont findfont} bdef
/p {closepath} bdef
/sf {scalefont setfont} bdef
/ef {eofill}bdef
/pc {closepath stroke}bdef
/ps {stroke}bdef
/pum {matrix currentmatrix}bdef
/pom {setmatrix}bdef
/bs {/aString exch def /nXOfs exch def /nWidth exch def currentpoint nXOfs 0 rmoveto pum nWidth aString stringwidth pop div 1 scale aString show pom moveto} bdef
%%EndResource
%%EndProlog
%%BeginSetup
%%EndSetup
%%Page: 1 1
%%BeginPageSetup
%%EndPageSetup
pum
0.02832 0.02834 s 
0 -9385 t
/tm matrix currentmatrix def
tm setmatrix
-1762 -1521 t 
1 1 s 

gs
tm setmatrix
0 0 t 
1 1 s 
gs
gs
0 0 m 17652 0 l 17652 9384 l 0 9384 l 0 0 l eoclip newpath
gs
0 0 m 17652 0 l 17652 9384 l 0 9384 l 0 0 l eoclip newpath
1.000 1.000 1.000 c 8826 9385 m  0 9385 l  0 0 l  17653 0 l  17653 9385 l 
8826 9385 l  p ef



0 lw 1 lj 0.703 0.703 0.703 c 7160 7733 m  1861 7733 l  1861 1081 l  12458 1081 l 
12458 7733 l  7160 7733 l  pc
12458 7732 m  1861 7732 l  ps
12458 6992 m  1861 6992 l  ps
12458 6253 m  1861 6253 l  ps
12458 5514 m  1861 5514 l  ps
12458 4775 m  1861 4775 l  ps
12458 4036 m  1861 4036 l  ps
12458 3297 m  1861 3297 l  ps
12458 2558 m  1861 2558 l  ps
12458 1819 m  1861 1819 l  ps
12458 1080 m  1861 1080 l  ps

1861 7882 m  1861 7732 l  ps
1861 7882 m  1861 7732 l  ps
3374 7882 m  3374 7732 l  ps
3374 7882 m  3374 7732 l  ps
4888 7882 m  4888 7732 l  ps
4888 7882 m  4888 7732 l  ps
6402 7882 m  6402 7732 l  ps
6402 7882 m  6402 7732 l  ps
7916 7882 m  7916 7732 l  ps
7916 7882 m  7916 7732 l  ps
9430 7882 m  9430 7732 l  ps
9430 7882 m  9430 7732 l  ps
10944 7882 m  10944 7732 l  ps
10944 7882 m  10944 7732 l  ps
12458 7882 m  12458 7732 l  ps
12458 7882 m  12458 7732 l  ps
1861 7732 m  12458 7732 l  ps
1711 7732 m  1861 7732 l  ps
1711 7732 m  1861 7732 l  ps
1711 6992 m  1861 6992 l  ps
1711 6992 m  1861 6992 l  ps
1711 6253 m  1861 6253 l  ps
1711 6253 m  1861 6253 l  ps
1711 5514 m  1861 5514 l  ps
1711 5514 m  1861 5514 l  ps
1711 4775 m  1861 4775 l  ps
1711 4775 m  1861 4775 l  ps
1711 4036 m  1861 4036 l  ps
1711 4036 m  1861 4036 l  ps
1711 3297 m  1861 3297 l  ps
1711 3297 m  1861 3297 l  ps
1711 2558 m  1861 2558 l  ps
1711 2558 m  1861 2558 l  ps
1711 1819 m  1861 1819 l  ps
1711 1819 m  1861 1819 l  ps
1711 1080 m  1861 1080 l  ps
1711 1080 m  1861 1080 l  ps
1861 7732 m  1861 1080 l  ps
80 lw 0.003 0.273 0.527 c 1861 1937 m  3374 3489 l  4888 3489 l  6402 4051 l 
7916 4864 l  9430 4864 l  10944 6283 l  12458 6283 l  ps
1736 1812 m  1736 2062 l  1986 2062 l  1986 1812 l  1736 1812 l  p ef
0 lw 1736 1812 m  1736 2062 l  1986 2062 l  1986 1812 l  1736 1812 l  pc
3249 3364 m  3249 3614 l  3499 3614 l  3499 3364 l  3249 3364 l  p ef
3249 3364 m  3249 3614 l  3499 3614 l  3499 3364 l  3249 3364 l  pc
4763 3364 m  4763 3614 l  5013 3614 l  5013 3364 l  4763 3364 l  p ef
4763 3364 m  4763 3614 l  5013 3614 l  5013 3364 l  4763 3364 l  pc
6277 3926 m  6277 4176 l  6527 4176 l  6527 3926 l  6277 3926 l  p ef
6277 3926 m  6277 4176 l  6527 4176 l  6527 3926 l  6277 3926 l  pc
7791 4739 m  7791 4989 l  8041 4989 l  8041 4739 l  7791 4739 l  p ef
7791 4739 m  7791 4989 l  8041 4989 l  8041 4739 l  7791 4739 l  pc
9305 4739 m  9305 4989 l  9555 4989 l  9555 4739 l  9305 4739 l  p ef
9305 4739 m  9305 4989 l  9555 4989 l  9555 4739 l  9305 4739 l  pc
10819 6158 m  10819 6408 l  11069 6408 l  11069 6158 l  10819 6158 l  p ef
10819 6158 m  10819 6408 l  11069 6408 l  11069 6158 l  10819 6158 l  pc
12333 6158 m  12333 6408 l  12583 6408 l  12583 6158 l  12333 6158 l  p ef
12333 6158 m  12333 6408 l  12583 6408 l  12583 6158 l  12333 6158 l  pc

pum
804 8698 t
0.003 0.003 0.003 c 187 0 m  57 -207 l  57 -201 57 -196 57 -190 ct 58 -185 58 -181 58 -175 ct 
58 -170 58 -165 58 -161 ct 58 0 l  29 0 l  29 -243 l  67 -243 l  199 -35 l 
198 -40 198 -46 198 -52 ct 197 -56 197 -62 197 -67 ct 197 -73 197 -78 197 -84 ct 
197 -243 l  226 -243 l  226 0 l  187 0 l  p ef
420 -94 m  420 -61 412 -37 398 -21 ct 384 -5 363 3 335 3 ct 322 3 311 1 301 -3 ct 
290 -7 282 -13 275 -21 ct 268 -29 262 -39 258 -51 ct 255 -63 253 -77 253 -94 ct 
253 -158 281 -190 336 -190 ct 351 -190 363 -188 374 -184 ct 384 -180 393 -174 400 -166 ct 
406 -158 411 -148 415 -136 ct 418 -124 420 -110 420 -94 ct p
387 -94 m  387 -108 386 -120 384 -129 ct 381 -139 378 -146 374 -152 ct 369 -158 364 -161 358 -164 ct 
352 -166 345 -167 337 -167 ct 329 -167 322 -166 315 -164 ct 309 -161 304 -157 299 -152 ct 
295 -146 291 -138 289 -129 ct 287 -120 285 -108 285 -94 ct 285 -79 287 -67 289 -58 ct 
292 -48 295 -41 300 -35 ct 304 -30 309 -26 315 -23 ct 321 -21 328 -20 335 -20 ct 
343 -20 350 -21 357 -23 ct 363 -26 368 -29 373 -35 ct 377 -41 381 -48 383 -58 ct 
386 -67 387 -79 387 -94 ct p ef
518 -1 m  514 0 509 1 504 2 ct 499 3 494 3 487 3 ct 462 3 450 -11 450 -39 ct 450 -164 l 
428 -164 l  428 -187 l  451 -187 l  460 -228 l  481 -228 l  481 -187 l 
515 -187 l  515 -164 l  481 -164 l  481 -46 l  481 -37 482 -31 485 -27 ct 
488 -23 493 -22 501 -22 ct 504 -22 506 -22 509 -22 ct 512 -23 515 -23 518 -24 ct 
518 -1 l  p ef
893 -123 m  893 -104 890 -87 885 -71 ct 879 -56 871 -43 861 -31 ct 850 -20 838 -12 823 -6 ct 
808 0 791 3 772 3 ct 752 3 735 0 719 -6 ct 704 -13 692 -21 682 -33 ct 672 -44 664 -57 659 -73 ct 
654 -88 652 -105 652 -123 ct 652 -142 654 -159 660 -174 ct 665 -190 673 -203 683 -213 ct 
693 -224 706 -232 721 -238 ct 736 -244 753 -247 772 -247 ct 792 -247 809 -244 824 -238 ct 
839 -232 851 -224 862 -213 ct 872 -202 879 -189 885 -174 ct 890 -159 893 -142 893 -123 ct 
p
859 -123 m  859 -138 857 -151 853 -163 ct 850 -175 844 -185 837 -194 ct 830 -202 821 -209 810 -213 ct 
799 -218 787 -220 772 -220 ct 758 -220 745 -218 734 -213 ct 723 -209 714 -202 707 -194 ct 
700 -185 694 -175 691 -163 ct 687 -151 685 -138 685 -123 ct 685 -108 687 -95 691 -83 ct 
694 -71 700 -60 707 -52 ct 715 -43 724 -36 735 -31 ct 745 -26 758 -24 772 -24 ct 
787 -24 800 -26 811 -31 ct 822 -36 831 -43 838 -52 ct 845 -61 851 -71 854 -83 ct 
857 -95 859 -109 859 -123 ct p ef
1082 -94 m  1082 -80 1080 -67 1078 -55 ct 1076 -43 1072 -33 1067 -25 ct 1061 -16 1054 -9 1045 -4 ct 
1037 1 1026 3 1013 3 ct 1000 3 988 0 978 -5 ct 968 -10 960 -18 955 -29 ct 954 -29 l 
954 -29 954 -28 954 -26 ct 954 -24 955 -22 955 -19 ct 955 -17 955 -14 955 -10 ct 
955 -7 955 -3 955 0 ct 955 73 l  924 73 l  924 -149 l  924 -153 924 -158 924 -162 ct 
924 -166 924 -170 923 -173 ct 923 -176 923 -179 923 -182 ct 923 -184 923 -186 923 -187 ct 
953 -187 l  953 -187 953 -185 953 -183 ct 953 -181 954 -179 954 -176 ct 954 -173 954 -170 954 -166 ct 
954 -163 954 -160 954 -157 ct 955 -157 l  958 -163 961 -168 965 -172 ct 969 -176 973 -180 978 -182 ct 
982 -185 988 -187 993 -188 ct 999 -189 1006 -190 1013 -190 ct 1026 -190 1037 -188 1045 -183 ct 
1054 -179 1061 -172 1067 -164 ct 1072 -155 1076 -145 1078 -134 ct 1080 -122 1082 -109 1082 -94 ct 
p
1049 -94 m  1049 -105 1048 -115 1047 -124 ct 1045 -133 1043 -141 1040 -147 ct 
1036 -153 1032 -158 1026 -161 ct 1021 -164 1013 -166 1005 -166 ct 998 -166 992 -165 985 -163 ct 
979 -161 974 -157 970 -152 ct 965 -146 961 -139 959 -129 ct 956 -119 955 -107 955 -91 ct 
955 -78 956 -67 958 -58 ct 960 -49 963 -41 968 -36 ct 972 -30 977 -26 983 -24 ct 
989 -21 997 -20 1005 -20 ct 1013 -20 1020 -22 1026 -25 ct 1032 -28 1036 -33 1040 -39 ct 
1043 -46 1045 -53 1047 -63 ct 1048 -72 1049 -82 1049 -94 ct p ef
1180 -1 m  1176 0 1171 1 1166 2 ct 1161 3 1156 3 1149 3 ct 1124 3 1112 -11 1112 -39 ct 
1112 -164 l  1090 -164 l  1090 -187 l  1113 -187 l  1122 -228 l  1143 -228 l 
1143 -187 l  1177 -187 l  1177 -164 l  1143 -164 l  1143 -46 l  1143 -37 1144 -31 1147 -27 ct 
1150 -23 1155 -22 1163 -22 ct 1166 -22 1168 -22 1171 -22 ct 1174 -23 1177 -23 1180 -24 ct 
1180 -1 l  p ef
1215 -226 m  1215 -256 l  1246 -256 l  1246 -226 l  1215 -226 l  p
1215 0 m  1215 -187 l  1246 -187 l  1246 0 l  1215 0 l  p ef
1402 0 m  1402 -118 l  1402 -127 1402 -135 1401 -141 ct 1400 -147 1398 -152 1395 -156 ct 
1392 -160 1389 -162 1384 -164 ct 1380 -165 1375 -166 1368 -166 ct 1362 -166 1356 -165 1350 -162 ct 
1345 -160 1341 -156 1337 -151 ct 1333 -146 1330 -140 1328 -133 ct 1326 -126 1325 -117 1325 -108 ct 
1325 0 l  1294 0 l  1294 -147 l  1294 -151 1294 -155 1294 -159 ct 1294 -163 1294 -167 1294 -171 ct 
1294 -175 1294 -178 1294 -181 ct 1294 -184 1294 -186 1293 -187 ct 1323 -187 l 
1323 -186 1323 -184 1323 -182 ct 1323 -179 1323 -176 1324 -173 ct 1324 -170 1324 -167 1324 -163 ct 
1324 -160 1324 -157 1324 -155 ct 1325 -155 l  1327 -160 1330 -165 1334 -169 ct 
1337 -174 1341 -177 1345 -180 ct 1349 -183 1354 -186 1360 -188 ct 1365 -189 1372 -190 1379 -190 ct 
1393 -190 1404 -187 1413 -182 ct 1421 -176 1427 -167 1430 -155 ct 1430 -155 l 
1433 -160 1436 -165 1440 -169 ct 1443 -174 1447 -177 1452 -180 ct 1456 -183 1461 -186 1467 -188 ct 
1473 -189 1479 -190 1487 -190 ct 1496 -190 1504 -189 1511 -186 ct 1518 -184 1524 -180 1528 -174 ct 
1532 -169 1536 -162 1538 -154 ct 1540 -146 1541 -136 1541 -124 ct 1541 0 l  1510 0 l 
1510 -118 l  1510 -127 1510 -135 1508 -141 ct 1507 -147 1505 -152 1503 -156 ct 
1500 -160 1496 -162 1492 -164 ct 1488 -165 1482 -166 1476 -166 ct 1469 -166 1464 -165 1458 -162 ct 
1453 -160 1448 -156 1445 -151 ct 1441 -147 1438 -141 1436 -133 ct 1434 -126 1433 -118 1433 -108 ct 
1433 0 l  1402 0 l  p ef
1569 0 m  1569 -24 l  1683 -163 l  1576 -163 l  1576 -187 l  1718 -187 l 
1718 -163 l  1604 -24 l  1725 -24 l  1725 0 l  1569 0 l  p ef
1794 -87 m  1794 -77 1795 -68 1797 -60 ct 1799 -52 1802 -45 1806 -39 ct 1810 -33 1815 -28 1822 -25 ct 
1829 -22 1836 -20 1846 -20 ct 1859 -20 1870 -23 1878 -28 ct 1886 -34 1892 -41 1894 -49 ct 
1922 -41 l  1920 -36 1917 -31 1913 -26 ct 1910 -20 1905 -16 1899 -11 ct 1894 -7 1886 -4 1877 -1 ct 
1869 2 1858 3 1846 3 ct 1818 3 1797 -5 1783 -22 ct 1768 -38 1761 -62 1761 -95 ct 
1761 -112 1763 -127 1768 -139 ct 1772 -151 1778 -161 1785 -169 ct 1793 -176 1802 -182 1812 -185 ct 
1822 -188 1833 -190 1844 -190 ct 1860 -190 1873 -187 1884 -182 ct 1894 -177 1903 -170 1909 -162 ct 
1915 -153 1920 -142 1923 -130 ct 1925 -118 1927 -105 1927 -91 ct 1927 -87 l 
1794 -87 l  p
1895 -111 m  1893 -130 1888 -145 1880 -154 ct 1871 -163 1859 -167 1844 -167 ct 
1839 -167 1833 -166 1828 -165 ct 1822 -163 1817 -160 1812 -156 ct 1807 -152 1803 -146 1800 -139 ct 
1796 -131 1794 -122 1794 -111 ct 1895 -111 l  p ef
2073 -30 m  2067 -18 2059 -10 2050 -5 ct 2040 0 2028 3 2014 3 ct 1991 3 1974 -5 1962 -21 ct 
1951 -37 1946 -61 1946 -93 ct 1946 -158 1969 -190 2014 -190 ct 2029 -190 2040 -187 2050 -182 ct 
2059 -177 2067 -169 2073 -158 ct 2073 -158 l  2073 -159 2073 -161 2073 -163 ct 
2073 -166 2073 -168 2073 -171 ct 2073 -174 2073 -176 2073 -179 ct 2073 -181 2073 -183 2073 -184 ct 
2073 -256 l  2104 -256 l  2104 -39 l  2104 -34 2104 -30 2104 -26 ct 2104 -22 2104 -18 2104 -14 ct 
2104 -11 2104 -8 2104 -5 ct 2104 -3 2104 -1 2105 0 ct 2075 0 l  2075 -1 2074 -3 2074 -5 ct 
2074 -7 2074 -10 2074 -12 ct 2074 -15 2073 -18 2073 -21 ct 2073 -24 2073 -27 2073 -30 ct 
2073 -30 l  p
1978 -94 m  1978 -81 1979 -70 1981 -61 ct 1982 -52 1985 -44 1989 -38 ct 1992 -32 1997 -28 2002 -25 ct 
2008 -22 2014 -21 2022 -21 ct 2031 -21 2038 -22 2044 -25 ct 2050 -28 2055 -32 2060 -38 ct 
2064 -44 2067 -51 2069 -61 ct 2071 -70 2073 -82 2073 -96 ct 2073 -109 2071 -120 2069 -129 ct 
2067 -138 2064 -146 2060 -151 ct 2055 -157 2050 -161 2044 -163 ct 2038 -166 2031 -167 2023 -167 ct 
2015 -167 2009 -166 2003 -163 ct 1998 -160 1993 -156 1989 -150 ct 1986 -145 1983 -137 1981 -128 ct 
1979 -118 1978 -107 1978 -94 ct p ef
pom

pum
3130 8300 t
217 -68 m  217 -56 214 -46 210 -37 ct 205 -28 198 -21 190 -16 ct 182 -10 172 -6 162 -4 ct 
151 -1 140 0 128 0 ct 29 0 l  29 -243 l  117 -243 l  131 -243 143 -242 153 -240 ct 
164 -237 173 -234 180 -229 ct 187 -224 193 -218 197 -211 ct 201 -203 203 -194 203 -184 ct 
203 -177 202 -171 200 -165 ct 198 -159 195 -153 191 -149 ct 187 -144 183 -140 177 -136 ct 
171 -132 164 -130 157 -128 ct 166 -127 175 -125 182 -121 ct 190 -118 196 -114 201 -109 ct 
206 -103 210 -97 213 -91 ct 216 -84 217 -76 217 -68 ct p
170 -180 m  170 -193 165 -203 156 -208 ct 147 -214 134 -217 117 -217 ct 62 -217 l 
62 -140 l  117 -140 l  127 -140 135 -141 142 -143 ct 148 -144 154 -147 158 -151 ct 
162 -154 165 -158 167 -163 ct 169 -168 170 -174 170 -180 ct p
184 -71 m  184 -79 182 -85 179 -91 ct 177 -96 172 -101 167 -104 ct 162 -107 156 -110 148 -112 ct 
141 -113 132 -114 123 -114 ct 62 -114 l  62 -26 l  126 -26 l  134 -26 142 -27 149 -28 ct 
156 -30 162 -32 167 -36 ct 172 -39 176 -44 179 -49 ct 182 -55 184 -62 184 -71 ct 
p ef
342 0 m  338 11 333 21 329 30 ct 324 39 319 47 313 53 ct 308 60 302 65 295 68 ct 
288 71 280 73 271 73 ct 267 73 263 73 260 73 ct 257 73 253 72 250 71 ct 250 48 l 
252 49 254 49 257 49 ct 260 49 262 49 264 49 ct 273 49 282 46 289 39 ct 297 32 304 21 310 6 ct 
313 -1 l  239 -187 l  272 -187 l  311 -83 l  312 -80 314 -76 316 -71 ct 317 -66 319 -61 321 -55 ct 
323 -50 324 -46 326 -41 ct 327 -37 328 -35 328 -34 ct 328 -35 329 -37 331 -41 ct 
332 -45 333 -49 335 -54 ct 337 -58 338 -63 340 -68 ct 342 -72 343 -76 345 -80 ct 
381 -187 l  414 -187 l  342 0 l  p ef
605 -94 m  605 -80 603 -67 601 -55 ct 599 -43 595 -33 590 -25 ct 584 -16 577 -9 568 -4 ct 
560 1 549 3 536 3 ct 523 3 511 0 501 -5 ct 491 -10 483 -18 478 -29 ct 477 -29 l 
477 -29 477 -28 477 -26 ct 477 -24 478 -22 478 -19 ct 478 -17 478 -14 478 -10 ct 
478 -7 478 -3 478 0 ct 478 73 l  447 73 l  447 -149 l  447 -153 447 -158 447 -162 ct 
447 -166 447 -170 446 -173 ct 446 -176 446 -179 446 -182 ct 446 -184 446 -186 446 -187 ct 
476 -187 l  476 -187 476 -185 476 -183 ct 476 -181 477 -179 477 -176 ct 477 -173 477 -170 477 -166 ct 
477 -163 477 -160 477 -157 ct 478 -157 l  481 -163 484 -168 488 -172 ct 492 -176 496 -180 501 -182 ct 
505 -185 511 -187 516 -188 ct 522 -189 529 -190 536 -190 ct 549 -190 560 -188 568 -183 ct 
577 -179 584 -172 590 -164 ct 595 -155 599 -145 601 -134 ct 603 -122 605 -109 605 -94 ct 
p
572 -94 m  572 -105 571 -115 570 -124 ct 568 -133 566 -141 563 -147 ct 559 -153 555 -158 549 -161 ct 
544 -164 536 -166 528 -166 ct 521 -166 515 -165 508 -163 ct 502 -161 497 -157 493 -152 ct 
488 -146 484 -139 482 -129 ct 479 -119 478 -107 478 -91 ct 478 -78 479 -67 481 -58 ct 
483 -49 486 -41 491 -36 ct 495 -30 500 -26 506 -24 ct 512 -21 520 -20 528 -20 ct 
536 -20 543 -22 549 -25 ct 555 -28 559 -33 563 -39 ct 566 -46 568 -53 570 -63 ct 
571 -72 572 -82 572 -94 ct p ef
680 3 m  662 3 648 -2 638 -12 ct 629 -22 624 -35 624 -53 ct 624 -65 626 -75 631 -83 ct 
636 -91 642 -97 649 -102 ct 657 -106 665 -109 675 -111 ct 685 -113 695 -114 704 -114 ct 
746 -114 l  746 -124 l  746 -132 746 -138 744 -144 ct 742 -149 740 -154 737 -157 ct 
733 -161 729 -163 724 -165 ct 719 -166 713 -167 706 -167 ct 700 -167 695 -167 690 -166 ct 
685 -165 681 -163 678 -161 ct 674 -159 671 -156 669 -152 ct 667 -148 665 -143 665 -137 ct 
632 -140 l  633 -148 636 -154 639 -160 ct 642 -167 647 -172 653 -176 ct 658 -181 666 -184 675 -187 ct 
684 -189 694 -191 707 -191 ct 731 -191 748 -185 760 -175 ct 772 -164 778 -148 778 -128 ct 
778 -48 l  778 -38 779 -31 781 -27 ct 784 -22 788 -20 795 -20 ct 797 -20 799 -20 800 -20 ct 
802 -20 804 -21 805 -21 ct 805 -2 l  801 -1 798 0 794 0 ct 790 1 786 1 781 1 ct 
776 1 770 0 766 -1 ct 762 -3 759 -5 756 -8 ct 753 -11 751 -15 750 -20 ct 749 -25 748 -30 747 -36 ct 
746 -36 l  743 -30 739 -25 735 -20 ct 731 -15 727 -11 722 -8 ct 716 -4 710 -2 704 0 ct 
697 2 689 3 680 3 ct p
687 -20 m  697 -20 706 -22 713 -26 ct 721 -29 727 -34 732 -39 ct 737 -45 740 -51 743 -58 ct 
745 -64 746 -71 746 -77 ct 746 -92 l  712 -92 l  705 -92 698 -92 691 -91 ct 
684 -90 678 -88 673 -85 ct 668 -82 664 -78 660 -73 ct 657 -67 656 -61 656 -52 ct 
656 -42 659 -34 664 -29 ct 670 -23 677 -20 687 -20 ct p ef
958 -52 m  958 -43 956 -36 953 -29 ct 949 -22 944 -16 938 -11 ct 931 -7 924 -3 914 -1 ct 
905 2 894 3 882 3 ct 871 3 862 2 853 1 ct 844 -1 837 -4 830 -8 ct 823 -11 818 -16 814 -22 ct 
809 -28 806 -36 804 -44 ct 831 -50 l  834 -40 839 -32 848 -28 ct 856 -23 867 -21 882 -21 ct 
889 -21 895 -21 900 -22 ct 906 -23 911 -25 915 -27 ct 919 -29 922 -32 924 -36 ct 
926 -39 928 -44 928 -50 ct 928 -55 926 -60 924 -63 ct 921 -67 917 -70 913 -73 ct 
908 -75 902 -77 895 -79 ct 889 -81 881 -83 873 -85 ct 866 -87 858 -89 851 -91 ct 
844 -94 837 -97 831 -101 ct 825 -105 820 -110 817 -116 ct 813 -122 811 -129 811 -138 ct 
811 -155 817 -168 829 -177 ct 842 -186 859 -190 882 -190 ct 903 -190 919 -186 931 -179 ct 
944 -172 951 -160 954 -144 ct 927 -141 l  926 -146 924 -150 921 -153 ct 918 -156 915 -159 911 -161 ct 
907 -163 903 -164 898 -165 ct 893 -166 888 -167 882 -167 ct 868 -167 858 -164 851 -160 ct 
845 -156 841 -149 841 -141 ct 841 -136 843 -132 845 -128 ct 848 -125 851 -122 855 -120 ct 
860 -118 865 -116 871 -114 ct 878 -113 884 -111 892 -109 ct 897 -108 902 -106 907 -105 ct 
912 -103 917 -102 922 -100 ct 927 -98 932 -95 936 -93 ct 940 -90 944 -87 947 -83 ct 
950 -79 953 -75 955 -70 ct 957 -65 958 -59 958 -52 ct p ef
1143 -52 m  1143 -43 1141 -36 1138 -29 ct 1134 -22 1129 -16 1123 -11 ct 1116 -7 1109 -3 1099 -1 ct 
1090 2 1079 3 1067 3 ct 1056 3 1047 2 1038 1 ct 1029 -1 1022 -4 1015 -8 ct 1008 -11 1003 -16 999 -22 ct 
994 -28 991 -36 989 -44 ct 1016 -50 l  1019 -40 1024 -32 1033 -28 ct 1041 -23 1052 -21 1067 -21 ct 
1074 -21 1080 -21 1085 -22 ct 1091 -23 1096 -25 1100 -27 ct 1104 -29 1107 -32 1109 -36 ct 
1111 -39 1113 -44 1113 -50 ct 1113 -55 1111 -60 1109 -63 ct 1106 -67 1102 -70 1098 -73 ct 
1093 -75 1087 -77 1080 -79 ct 1074 -81 1066 -83 1058 -85 ct 1051 -87 1043 -89 1036 -91 ct 
1029 -94 1022 -97 1016 -101 ct 1010 -105 1005 -110 1002 -116 ct 998 -122 996 -129 996 -138 ct 
996 -155 1002 -168 1014 -177 ct 1027 -186 1044 -190 1067 -190 ct 1088 -190 1104 -186 1116 -179 ct 
1129 -172 1136 -160 1139 -144 ct 1112 -141 l  1111 -146 1109 -150 1106 -153 ct 
1103 -156 1100 -159 1096 -161 ct 1092 -163 1088 -164 1083 -165 ct 1078 -166 1073 -167 1067 -167 ct 
1053 -167 1043 -164 1036 -160 ct 1030 -156 1026 -149 1026 -141 ct 1026 -136 1028 -132 1030 -128 ct 
1033 -125 1036 -122 1040 -120 ct 1045 -118 1050 -116 1056 -114 ct 1063 -113 1069 -111 1077 -109 ct 
1082 -108 1087 -106 1092 -105 ct 1097 -103 1102 -102 1107 -100 ct 1112 -98 1117 -95 1121 -93 ct 
1125 -90 1129 -87 1132 -83 ct 1135 -79 1138 -75 1140 -70 ct 1142 -65 1143 -59 1143 -52 ct 
p ef
1434 -52 m  1434 -43 1432 -36 1429 -29 ct 1425 -22 1420 -16 1414 -11 ct 1407 -7 1400 -3 1390 -1 ct 
1381 2 1370 3 1358 3 ct 1347 3 1338 2 1329 1 ct 1320 -1 1313 -4 1306 -8 ct 1299 -11 1294 -16 1290 -22 ct 
1285 -28 1282 -36 1280 -44 ct 1307 -50 l  1310 -40 1315 -32 1324 -28 ct 1332 -23 1343 -21 1358 -21 ct 
1365 -21 1371 -21 1376 -22 ct 1382 -23 1387 -25 1391 -27 ct 1395 -29 1398 -32 1400 -36 ct 
1402 -39 1404 -44 1404 -50 ct 1404 -55 1402 -60 1400 -63 ct 1397 -67 1393 -70 1389 -73 ct 
1384 -75 1378 -77 1371 -79 ct 1365 -81 1357 -83 1349 -85 ct 1342 -87 1334 -89 1327 -91 ct 
1320 -94 1313 -97 1307 -101 ct 1301 -105 1296 -110 1293 -116 ct 1289 -122 1287 -129 1287 -138 ct 
1287 -155 1293 -168 1305 -177 ct 1318 -186 1335 -190 1358 -190 ct 1379 -190 1395 -186 1407 -179 ct 
1420 -172 1427 -160 1430 -144 ct 1403 -141 l  1402 -146 1400 -150 1397 -153 ct 
1394 -156 1391 -159 1387 -161 ct 1383 -163 1379 -164 1374 -165 ct 1369 -166 1364 -167 1358 -167 ct 
1344 -167 1334 -164 1327 -160 ct 1321 -156 1317 -149 1317 -141 ct 1317 -136 1319 -132 1321 -128 ct 
1324 -125 1327 -122 1331 -120 ct 1336 -118 1341 -116 1347 -114 ct 1354 -113 1360 -111 1368 -109 ct 
1373 -108 1378 -106 1383 -105 ct 1388 -103 1393 -102 1398 -100 ct 1403 -98 1408 -95 1412 -93 ct 
1416 -90 1420 -87 1423 -83 ct 1426 -79 1429 -75 1431 -70 ct 1433 -65 1434 -59 1434 -52 ct 
p ef
1510 -155 m  1513 -161 1517 -166 1521 -171 ct 1525 -175 1529 -179 1534 -182 ct 
1539 -185 1544 -187 1550 -188 ct 1556 -189 1562 -190 1569 -190 ct 1581 -190 1591 -188 1599 -185 ct 
1606 -182 1612 -177 1617 -172 ct 1621 -166 1624 -159 1626 -151 ct 1628 -143 1628 -134 1628 -124 ct 
1628 0 l  1597 0 l  1597 -118 l  1597 -126 1597 -133 1596 -139 ct 1595 -145 1593 -150 1590 -154 ct 
1587 -158 1583 -161 1578 -163 ct 1573 -165 1567 -166 1559 -166 ct 1551 -166 1545 -165 1539 -162 ct 
1533 -159 1528 -156 1524 -151 ct 1519 -146 1516 -140 1514 -133 ct 1512 -126 1511 -119 1511 -110 ct 
1511 0 l  1479 0 l  1479 -256 l  1511 -256 l  1511 -189 l  1511 -186 1510 -182 1510 -178 ct 
1510 -174 1510 -171 1510 -167 ct 1510 -164 1510 -162 1509 -159 ct 1509 -157 1509 -155 1509 -155 ct 
1510 -155 l  p ef
1822 -94 m  1822 -61 1814 -37 1800 -21 ct 1786 -5 1765 3 1737 3 ct 1724 3 1713 1 1703 -3 ct 
1692 -7 1684 -13 1677 -21 ct 1670 -29 1664 -39 1660 -51 ct 1657 -63 1655 -77 1655 -94 ct 
1655 -158 1683 -190 1738 -190 ct 1753 -190 1765 -188 1776 -184 ct 1786 -180 1795 -174 1802 -166 ct 
1808 -158 1813 -148 1817 -136 ct 1820 -124 1822 -110 1822 -94 ct p
1789 -94 m  1789 -108 1788 -120 1786 -129 ct 1783 -139 1780 -146 1776 -152 ct 
1771 -158 1766 -161 1760 -164 ct 1754 -166 1747 -167 1739 -167 ct 1731 -167 1724 -166 1717 -164 ct 
1711 -161 1706 -157 1701 -152 ct 1697 -146 1693 -138 1691 -129 ct 1689 -120 1687 -108 1687 -94 ct 
1687 -79 1689 -67 1691 -58 ct 1694 -48 1697 -41 1702 -35 ct 1706 -30 1711 -26 1717 -23 ct 
1723 -21 1730 -20 1737 -20 ct 1745 -20 1752 -21 1759 -23 ct 1765 -26 1770 -29 1775 -35 ct 
1779 -41 1783 -48 1785 -58 ct 1788 -67 1789 -79 1789 -94 ct p ef
1850 0 m  1850 -143 l  1850 -147 1850 -151 1850 -155 ct 1850 -159 1850 -163 1850 -167 ct 
1850 -171 1850 -174 1850 -178 ct 1850 -181 1850 -184 1849 -187 ct 1879 -187 l 
1879 -184 1879 -181 1879 -178 ct 1879 -174 1880 -171 1880 -167 ct 1880 -164 1880 -160 1880 -157 ct 
1880 -154 1880 -151 1880 -148 ct 1881 -148 l  1883 -156 1885 -162 1888 -167 ct 
1890 -172 1893 -177 1897 -180 ct 1900 -183 1904 -186 1908 -188 ct 1913 -189 1919 -190 1925 -190 ct 
1928 -190 1930 -190 1932 -189 ct 1935 -189 1936 -189 1938 -188 ct 1938 -160 l 
1936 -160 1933 -161 1930 -161 ct 1928 -161 1925 -162 1921 -162 ct 1914 -162 1908 -160 1903 -157 ct 
1898 -154 1894 -149 1891 -143 ct 1888 -138 1885 -131 1884 -123 ct 1882 -115 1882 -107 1882 -97 ct 
1882 0 l  1850 0 l  p ef
2026 -1 m  2022 0 2017 1 2012 2 ct 2007 3 2002 3 1995 3 ct 1970 3 1958 -11 1958 -39 ct 
1958 -164 l  1936 -164 l  1936 -187 l  1959 -187 l  1968 -228 l  1989 -228 l 
1989 -187 l  2023 -187 l  2023 -164 l  1989 -164 l  1989 -46 l  1989 -37 1990 -31 1993 -27 ct 
1996 -23 2001 -22 2009 -22 ct 2012 -22 2014 -22 2017 -22 ct 2020 -23 2023 -23 2026 -24 ct 
2026 -1 l  p ef
2053 -80 m  2053 -108 l  2139 -108 l  2139 -80 l  2053 -80 l  p ef
2190 -95 m  2190 -84 2191 -74 2193 -65 ct 2194 -56 2197 -48 2201 -42 ct 2204 -35 2209 -30 2215 -27 ct 
2221 -23 2229 -21 2237 -21 ct 2248 -21 2258 -24 2265 -30 ct 2273 -36 2277 -45 2279 -57 ct 
2310 -57 l  2309 -49 2307 -42 2303 -34 ct 2300 -27 2295 -21 2289 -15 ct 2284 -10 2276 -5 2268 -2 ct 
2259 1 2249 3 2238 3 ct 2224 3 2211 1 2201 -4 ct 2191 -9 2183 -16 2176 -25 ct 2170 -34 2165 -44 2162 -56 ct 
2159 -67 2158 -80 2158 -94 ct 2158 -106 2159 -117 2161 -127 ct 2163 -137 2166 -145 2170 -152 ct 
2174 -159 2178 -165 2183 -170 ct 2188 -175 2194 -179 2199 -182 ct 2205 -185 2212 -187 2218 -188 ct 
2225 -190 2231 -190 2238 -190 ct 2248 -190 2258 -189 2266 -186 ct 2274 -183 2281 -179 2287 -174 ct 
2293 -169 2298 -163 2301 -157 ct 2305 -150 2308 -142 2309 -135 ct 2277 -132 l 
2276 -143 2272 -151 2265 -157 ct 2258 -163 2249 -166 2237 -166 ct 2228 -166 2221 -165 2215 -162 ct 
2209 -159 2204 -154 2201 -148 ct 2197 -142 2194 -135 2193 -126 ct 2191 -117 2190 -107 2190 -95 ct 
p ef
2352 -226 m  2352 -256 l  2383 -256 l  2383 -226 l  2352 -226 l  p
2352 0 m  2352 -187 l  2383 -187 l  2383 0 l  2352 0 l  p ef
2432 0 m  2432 -143 l  2432 -147 2432 -151 2432 -155 ct 2432 -159 2432 -163 2432 -167 ct 
2432 -171 2432 -174 2432 -178 ct 2432 -181 2432 -184 2431 -187 ct 2461 -187 l 
2461 -184 2461 -181 2461 -178 ct 2461 -174 2462 -171 2462 -167 ct 2462 -164 2462 -160 2462 -157 ct 
2462 -154 2462 -151 2462 -148 ct 2463 -148 l  2465 -156 2467 -162 2470 -167 ct 
2472 -172 2475 -177 2479 -180 ct 2482 -183 2486 -186 2490 -188 ct 2495 -189 2501 -190 2507 -190 ct 
2510 -190 2512 -190 2514 -189 ct 2517 -189 2518 -189 2520 -188 ct 2520 -160 l 
2518 -160 2515 -161 2512 -161 ct 2510 -161 2507 -162 2503 -162 ct 2496 -162 2490 -160 2485 -157 ct 
2480 -154 2476 -149 2473 -143 ct 2470 -138 2467 -131 2466 -123 ct 2464 -115 2464 -107 2464 -97 ct 
2464 0 l  2432 0 l  p ef
2561 -95 m  2561 -84 2562 -74 2564 -65 ct 2565 -56 2568 -48 2572 -42 ct 2575 -35 2580 -30 2586 -27 ct 
2592 -23 2600 -21 2608 -21 ct 2619 -21 2629 -24 2636 -30 ct 2644 -36 2648 -45 2650 -57 ct 
2681 -57 l  2680 -49 2678 -42 2674 -34 ct 2671 -27 2666 -21 2660 -15 ct 2655 -10 2647 -5 2639 -2 ct 
2630 1 2620 3 2609 3 ct 2595 3 2582 1 2572 -4 ct 2562 -9 2554 -16 2547 -25 ct 2541 -34 2536 -44 2533 -56 ct 
2530 -67 2529 -80 2529 -94 ct 2529 -106 2530 -117 2532 -127 ct 2534 -137 2537 -145 2541 -152 ct 
2545 -159 2549 -165 2554 -170 ct 2559 -175 2565 -179 2570 -182 ct 2576 -185 2583 -187 2589 -188 ct 
2596 -190 2602 -190 2609 -190 ct 2619 -190 2629 -189 2637 -186 ct 2645 -183 2652 -179 2658 -174 ct 
2664 -169 2669 -163 2672 -157 ct 2676 -150 2679 -142 2680 -135 ct 2648 -132 l 
2647 -143 2643 -151 2636 -157 ct 2629 -163 2620 -166 2608 -166 ct 2599 -166 2592 -165 2586 -162 ct 
2580 -159 2575 -154 2572 -148 ct 2568 -142 2565 -135 2564 -126 ct 2562 -117 2561 -107 2561 -95 ct 
p ef
2753 -187 m  2753 -69 l  2753 -60 2754 -52 2755 -46 ct 2756 -40 2759 -35 2762 -31 ct 
2765 -27 2768 -25 2773 -23 ct 2778 -22 2784 -21 2792 -21 ct 2799 -21 2806 -22 2811 -25 ct 
2817 -27 2822 -31 2827 -36 ct 2831 -41 2834 -47 2836 -54 ct 2839 -61 2840 -70 2840 -79 ct 
2840 -187 l  2871 -187 l  2871 -40 l  2871 -36 2871 -32 2871 -28 ct 2871 -24 2871 -20 2871 -16 ct 
2871 -12 2871 -9 2872 -6 ct 2872 -3 2872 -1 2872 0 ct 2843 0 l  2842 -1 2842 -3 2842 -5 ct 
2842 -8 2842 -11 2842 -14 ct 2842 -17 2841 -20 2841 -24 ct 2841 -27 2841 -30 2841 -32 ct 
2841 -32 l  2838 -27 2834 -22 2831 -18 ct 2827 -13 2823 -10 2818 -7 ct 2814 -4 2808 -1 2802 1 ct 
2796 2 2789 3 2781 3 ct 2771 3 2762 2 2754 -1 ct 2747 -3 2741 -7 2736 -13 ct 2731 -18 2728 -25 2725 -33 ct 
2723 -41 2722 -51 2722 -63 ct 2722 -187 l  2753 -187 l  p ef
2908 -226 m  2908 -256 l  2939 -256 l  2939 -226 l  2908 -226 l  p
2908 0 m  2908 -187 l  2939 -187 l  2939 0 l  2908 0 l  p ef
3058 -1 m  3054 0 3049 1 3044 2 ct 3039 3 3034 3 3027 3 ct 3002 3 2990 -11 2990 -39 ct 
2990 -164 l  2968 -164 l  2968 -187 l  2991 -187 l  3000 -228 l  3021 -228 l 
3021 -187 l  3055 -187 l  3055 -164 l  3021 -164 l  3021 -46 l  3021 -37 3022 -31 3025 -27 ct 
3028 -23 3033 -22 3041 -22 ct 3044 -22 3046 -22 3049 -22 ct 3052 -23 3055 -23 3058 -24 ct 
3058 -1 l  p ef
3093 -226 m  3093 -256 l  3124 -256 l  3124 -226 l  3093 -226 l  p
3093 0 m  3093 -187 l  3124 -187 l  3124 0 l  3093 0 l  p ef
3291 0 m  3291 -118 l  3291 -127 3291 -135 3289 -141 ct 3288 -147 3286 -152 3283 -156 ct 
3280 -160 3276 -162 3271 -164 ct 3266 -165 3260 -166 3253 -166 ct 3245 -166 3239 -165 3233 -162 ct 
3227 -160 3222 -156 3218 -151 ct 3213 -146 3210 -140 3208 -133 ct 3206 -126 3205 -117 3205 -108 ct 
3205 0 l  3173 0 l  3173 -147 l  3173 -151 3173 -155 3173 -159 ct 3173 -163 3173 -167 3173 -171 ct 
3173 -175 3173 -178 3173 -181 ct 3173 -184 3173 -186 3172 -187 ct 3202 -187 l 
3202 -186 3202 -184 3202 -182 ct 3202 -179 3202 -176 3203 -173 ct 3203 -170 3203 -167 3203 -163 ct 
3203 -160 3203 -157 3203 -155 ct 3204 -155 l  3207 -160 3210 -165 3213 -169 ct 
3217 -174 3221 -177 3226 -180 ct 3231 -183 3236 -186 3242 -188 ct 3248 -189 3255 -190 3263 -190 ct 
3274 -190 3283 -189 3290 -186 ct 3297 -184 3304 -180 3308 -174 ct 3313 -169 3317 -162 3319 -154 ct 
3321 -146 3322 -136 3322 -124 ct 3322 0 l  3291 0 l  p ef
3428 73 m  3418 73 3408 72 3400 70 ct 3392 68 3385 64 3379 60 ct 3373 56 3368 51 3365 46 ct 
3361 40 3358 34 3357 27 ct 3388 22 l  3390 31 3394 38 3401 42 ct 3409 47 3418 49 3429 49 ct 
3436 49 3443 48 3448 46 ct 3454 44 3459 41 3463 37 ct 3467 33 3470 27 3472 20 ct 
3475 13 3476 5 3476 -5 ct 3476 -35 l  3475 -35 l  3473 -30 3470 -26 3467 -22 ct 
3463 -17 3459 -13 3454 -10 ct 3450 -7 3444 -4 3437 -2 ct 3431 0 3424 1 3415 1 ct 
3404 1 3393 -1 3385 -5 ct 3376 -9 3370 -15 3364 -23 ct 3359 -31 3355 -41 3353 -52 ct 
3350 -64 3349 -78 3349 -93 ct 3349 -108 3350 -122 3353 -134 ct 3355 -146 3359 -156 3365 -164 ct 
3370 -173 3377 -179 3386 -183 ct 3395 -188 3406 -190 3419 -190 ct 3432 -190 3443 -187 3453 -181 ct 
3463 -175 3470 -166 3476 -155 ct 3476 -155 l  3476 -158 3476 -161 3476 -165 ct 
3476 -168 3477 -172 3477 -175 ct 3477 -178 3477 -181 3477 -183 ct 3478 -185 3478 -187 3478 -187 ct 
3508 -187 l  3507 -186 3507 -184 3507 -182 ct 3507 -179 3507 -176 3507 -173 ct 
3507 -169 3507 -166 3507 -161 ct 3507 -157 3507 -153 3507 -148 ct 3507 -6 l 
3507 20 3500 40 3487 53 ct 3475 66 3455 73 3428 73 ct p
3476 -94 m  3476 -107 3474 -118 3471 -127 ct 3469 -136 3465 -144 3460 -150 ct 
3456 -156 3450 -160 3445 -163 ct 3439 -166 3433 -167 3426 -167 ct 3418 -167 3412 -166 3406 -163 ct 
3400 -160 3396 -156 3392 -150 ct 3388 -144 3385 -136 3384 -127 ct 3382 -118 3381 -107 3381 -94 ct 
3381 -80 3382 -69 3384 -60 ct 3385 -51 3388 -43 3392 -38 ct 3395 -32 3400 -28 3406 -26 ct 
3411 -23 3418 -22 3426 -22 ct 3432 -22 3438 -23 3444 -26 ct 3450 -29 3455 -33 3460 -38 ct 
3465 -44 3469 -52 3471 -61 ct 3474 -70 3476 -81 3476 -94 ct p ef
pom

pum
6555 8698 t
135 0 m  101 0 l  2 -243 l  36 -243 l  103 -72 l  105 -67 107 -62 109 -56 ct 
110 -51 112 -47 113 -43 ct 115 -38 116 -33 118 -29 ct 119 -33 121 -38 122 -42 ct 
124 -46 125 -51 127 -56 ct 129 -61 130 -66 132 -72 ct 199 -243 l  234 -243 l 
135 0 l  p ef
286 -87 m  286 -77 287 -68 289 -60 ct 291 -52 294 -45 298 -39 ct 302 -33 307 -28 314 -25 ct 
321 -22 328 -20 338 -20 ct 351 -20 362 -23 370 -28 ct 378 -34 384 -41 386 -49 ct 
414 -41 l  412 -36 409 -31 405 -26 ct 402 -20 397 -16 391 -11 ct 386 -7 378 -4 369 -1 ct 
361 2 350 3 338 3 ct 310 3 289 -5 275 -22 ct 260 -38 253 -62 253 -95 ct 253 -112 255 -127 260 -139 ct 
264 -151 270 -161 277 -169 ct 285 -176 294 -182 304 -185 ct 314 -188 325 -190 336 -190 ct 
352 -190 365 -187 376 -182 ct 386 -177 395 -170 401 -162 ct 407 -153 412 -142 415 -130 ct 
417 -118 419 -105 419 -91 ct 419 -87 l  286 -87 l  p
387 -111 m  385 -130 380 -145 372 -154 ct 363 -163 351 -167 336 -167 ct 331 -167 325 -166 320 -165 ct 
314 -163 309 -160 304 -156 ct 299 -152 295 -146 292 -139 ct 288 -131 286 -122 286 -111 ct 
387 -111 l  p ef
470 -95 m  470 -84 471 -74 473 -65 ct 474 -56 477 -48 481 -42 ct 484 -35 489 -30 495 -27 ct 
501 -23 509 -21 517 -21 ct 528 -21 538 -24 545 -30 ct 553 -36 557 -45 559 -57 ct 
590 -57 l  589 -49 587 -42 583 -34 ct 580 -27 575 -21 569 -15 ct 564 -10 556 -5 548 -2 ct 
539 1 529 3 518 3 ct 504 3 491 1 481 -4 ct 471 -9 463 -16 456 -25 ct 450 -34 445 -44 442 -56 ct 
439 -67 438 -80 438 -94 ct 438 -106 439 -117 441 -127 ct 443 -137 446 -145 450 -152 ct 
454 -159 458 -165 463 -170 ct 468 -175 474 -179 479 -182 ct 485 -185 492 -187 498 -188 ct 
505 -190 511 -190 518 -190 ct 528 -190 538 -189 546 -186 ct 554 -183 561 -179 567 -174 ct 
573 -169 578 -163 581 -157 ct 585 -150 588 -142 589 -135 ct 557 -132 l  556 -143 552 -151 545 -157 ct 
538 -163 529 -166 517 -166 ct 508 -166 501 -165 495 -162 ct 489 -159 484 -154 481 -148 ct 
477 -142 474 -135 473 -126 ct 471 -117 470 -107 470 -95 ct p ef
704 -1 m  700 0 695 1 690 2 ct 685 3 680 3 673 3 ct 648 3 636 -11 636 -39 ct 636 -164 l 
614 -164 l  614 -187 l  637 -187 l  646 -228 l  667 -228 l  667 -187 l 
701 -187 l  701 -164 l  667 -164 l  667 -46 l  667 -37 668 -31 671 -27 ct 
674 -23 679 -22 687 -22 ct 690 -22 692 -22 695 -22 ct 698 -23 701 -23 704 -24 ct 
704 -1 l  p ef
896 -94 m  896 -61 888 -37 874 -21 ct 860 -5 839 3 811 3 ct 798 3 787 1 777 -3 ct 
766 -7 758 -13 751 -21 ct 744 -29 738 -39 734 -51 ct 731 -63 729 -77 729 -94 ct 
729 -158 757 -190 812 -190 ct 827 -190 839 -188 850 -184 ct 860 -180 869 -174 876 -166 ct 
882 -158 887 -148 891 -136 ct 894 -124 896 -110 896 -94 ct p
863 -94 m  863 -108 862 -120 860 -129 ct 857 -139 854 -146 850 -152 ct 845 -158 840 -161 834 -164 ct 
828 -166 821 -167 813 -167 ct 805 -167 798 -166 791 -164 ct 785 -161 780 -157 775 -152 ct 
771 -146 767 -138 765 -129 ct 763 -120 761 -108 761 -94 ct 761 -79 763 -67 765 -58 ct 
768 -48 771 -41 776 -35 ct 780 -30 785 -26 791 -23 ct 797 -21 804 -20 811 -20 ct 
819 -20 826 -21 833 -23 ct 839 -26 844 -29 849 -35 ct 853 -41 857 -48 859 -58 ct 
862 -67 863 -79 863 -94 ct p ef
924 0 m  924 -143 l  924 -147 924 -151 924 -155 ct 924 -159 924 -163 924 -167 ct 
924 -171 924 -174 924 -178 ct 924 -181 924 -184 923 -187 ct 953 -187 l  953 -184 953 -181 953 -178 ct 
953 -174 954 -171 954 -167 ct 954 -164 954 -160 954 -157 ct 954 -154 954 -151 954 -148 ct 
955 -148 l  957 -156 959 -162 962 -167 ct 964 -172 967 -177 971 -180 ct 974 -183 978 -186 982 -188 ct 
987 -189 993 -190 999 -190 ct 1002 -190 1004 -190 1006 -189 ct 1009 -189 1010 -189 1012 -188 ct 
1012 -160 l  1010 -160 1007 -161 1004 -161 ct 1002 -161 999 -162 995 -162 ct 
988 -162 982 -160 977 -157 ct 972 -154 968 -149 965 -143 ct 962 -138 959 -131 958 -123 ct 
956 -115 956 -107 956 -97 ct 956 0 l  924 0 l  p ef
1253 -30 m  1247 -18 1239 -10 1230 -5 ct 1220 0 1208 3 1194 3 ct 1171 3 1154 -5 1142 -21 ct 
1131 -37 1126 -61 1126 -93 ct 1126 -158 1149 -190 1194 -190 ct 1209 -190 1220 -187 1230 -182 ct 
1239 -177 1247 -169 1253 -158 ct 1253 -158 l  1253 -159 1253 -161 1253 -163 ct 
1253 -166 1253 -168 1253 -171 ct 1253 -174 1253 -176 1253 -179 ct 1253 -181 1253 -183 1253 -184 ct 
1253 -256 l  1284 -256 l  1284 -39 l  1284 -34 1284 -30 1284 -26 ct 1284 -22 1284 -18 1284 -14 ct 
1284 -11 1284 -8 1284 -5 ct 1284 -3 1284 -1 1285 0 ct 1255 0 l  1255 -1 1254 -3 1254 -5 ct 
1254 -7 1254 -10 1254 -12 ct 1254 -15 1253 -18 1253 -21 ct 1253 -24 1253 -27 1253 -30 ct 
1253 -30 l  p
1158 -94 m  1158 -81 1159 -70 1161 -61 ct 1162 -52 1165 -44 1169 -38 ct 1172 -32 1177 -28 1182 -25 ct 
1188 -22 1194 -21 1202 -21 ct 1211 -21 1218 -22 1224 -25 ct 1230 -28 1235 -32 1240 -38 ct 
1244 -44 1247 -51 1249 -61 ct 1251 -70 1253 -82 1253 -96 ct 1253 -109 1251 -120 1249 -129 ct 
1247 -138 1244 -146 1240 -151 ct 1235 -157 1230 -161 1224 -163 ct 1218 -166 1211 -167 1203 -167 ct 
1195 -167 1189 -166 1183 -163 ct 1178 -160 1173 -156 1169 -150 ct 1166 -145 1163 -137 1161 -128 ct 
1159 -118 1158 -107 1158 -94 ct p ef
1367 3 m  1349 3 1335 -2 1325 -12 ct 1316 -22 1311 -35 1311 -53 ct 1311 -65 1313 -75 1318 -83 ct 
1323 -91 1329 -97 1336 -102 ct 1344 -106 1352 -109 1362 -111 ct 1372 -113 1382 -114 1391 -114 ct 
1433 -114 l  1433 -124 l  1433 -132 1433 -138 1431 -144 ct 1429 -149 1427 -154 1424 -157 ct 
1420 -161 1416 -163 1411 -165 ct 1406 -166 1400 -167 1393 -167 ct 1387 -167 1382 -167 1377 -166 ct 
1372 -165 1368 -163 1365 -161 ct 1361 -159 1358 -156 1356 -152 ct 1354 -148 1352 -143 1352 -137 ct 
1319 -140 l  1320 -148 1323 -154 1326 -160 ct 1329 -167 1334 -172 1340 -176 ct 
1345 -181 1353 -184 1362 -187 ct 1371 -189 1381 -191 1394 -191 ct 1418 -191 1435 -185 1447 -175 ct 
1459 -164 1465 -148 1465 -128 ct 1465 -48 l  1465 -38 1466 -31 1468 -27 ct 1471 -22 1475 -20 1482 -20 ct 
1484 -20 1486 -20 1487 -20 ct 1489 -20 1491 -21 1492 -21 ct 1492 -2 l  1488 -1 1485 0 1481 0 ct 
1477 1 1473 1 1468 1 ct 1463 1 1457 0 1453 -1 ct 1449 -3 1446 -5 1443 -8 ct 1440 -11 1438 -15 1437 -20 ct 
1436 -25 1435 -30 1434 -36 ct 1433 -36 l  1430 -30 1426 -25 1422 -20 ct 1418 -15 1414 -11 1409 -8 ct 
1403 -4 1397 -2 1391 0 ct 1384 2 1376 3 1367 3 ct p
1374 -20 m  1384 -20 1393 -22 1400 -26 ct 1408 -29 1414 -34 1419 -39 ct 1424 -45 1427 -51 1430 -58 ct 
1432 -64 1433 -71 1433 -77 ct 1433 -92 l  1399 -92 l  1392 -92 1385 -92 1378 -91 ct 
1371 -90 1365 -88 1360 -85 ct 1355 -82 1351 -78 1347 -73 ct 1344 -67 1343 -61 1343 -52 ct 
1343 -42 1346 -34 1351 -29 ct 1357 -23 1364 -20 1374 -20 ct p ef
1577 -1 m  1573 0 1568 1 1563 2 ct 1558 3 1553 3 1546 3 ct 1521 3 1509 -11 1509 -39 ct 
1509 -164 l  1487 -164 l  1487 -187 l  1510 -187 l  1519 -228 l  1540 -228 l 
1540 -187 l  1574 -187 l  1574 -164 l  1540 -164 l  1540 -46 l  1540 -37 1541 -31 1544 -27 ct 
1547 -23 1552 -22 1560 -22 ct 1563 -22 1565 -22 1568 -22 ct 1571 -23 1574 -23 1577 -24 ct 
1577 -1 l  p ef
1659 3 m  1641 3 1627 -2 1617 -12 ct 1608 -22 1603 -35 1603 -53 ct 1603 -65 1605 -75 1610 -83 ct 
1615 -91 1621 -97 1628 -102 ct 1636 -106 1644 -109 1654 -111 ct 1664 -113 1674 -114 1683 -114 ct 
1725 -114 l  1725 -124 l  1725 -132 1725 -138 1723 -144 ct 1721 -149 1719 -154 1716 -157 ct 
1712 -161 1708 -163 1703 -165 ct 1698 -166 1692 -167 1685 -167 ct 1679 -167 1674 -167 1669 -166 ct 
1664 -165 1660 -163 1657 -161 ct 1653 -159 1650 -156 1648 -152 ct 1646 -148 1644 -143 1644 -137 ct 
1611 -140 l  1612 -148 1615 -154 1618 -160 ct 1621 -167 1626 -172 1632 -176 ct 
1637 -181 1645 -184 1654 -187 ct 1663 -189 1673 -191 1686 -191 ct 1710 -191 1727 -185 1739 -175 ct 
1751 -164 1757 -148 1757 -128 ct 1757 -48 l  1757 -38 1758 -31 1760 -27 ct 1763 -22 1767 -20 1774 -20 ct 
1776 -20 1778 -20 1779 -20 ct 1781 -20 1783 -21 1784 -21 ct 1784 -2 l  1780 -1 1777 0 1773 0 ct 
1769 1 1765 1 1760 1 ct 1755 1 1749 0 1745 -1 ct 1741 -3 1738 -5 1735 -8 ct 1732 -11 1730 -15 1729 -20 ct 
1728 -25 1727 -30 1726 -36 ct 1725 -36 l  1722 -30 1718 -25 1714 -20 ct 1710 -15 1706 -11 1701 -8 ct 
1695 -4 1689 -2 1683 0 ct 1676 2 1668 3 1659 3 ct p
1666 -20 m  1676 -20 1685 -22 1692 -26 ct 1700 -29 1706 -34 1711 -39 ct 1716 -45 1719 -51 1722 -58 ct 
1724 -64 1725 -71 1725 -77 ct 1725 -92 l  1691 -92 l  1684 -92 1677 -92 1670 -91 ct 
1663 -90 1657 -88 1652 -85 ct 1647 -82 1643 -78 1639 -73 ct 1636 -67 1635 -61 1635 -52 ct 
1635 -42 1638 -34 1643 -29 ct 1649 -23 1656 -20 1666 -20 ct p ef
1974 -1 m  1970 0 1965 1 1960 2 ct 1955 3 1950 3 1943 3 ct 1918 3 1906 -11 1906 -39 ct 
1906 -164 l  1884 -164 l  1884 -187 l  1907 -187 l  1916 -228 l  1937 -228 l 
1937 -187 l  1971 -187 l  1971 -164 l  1937 -164 l  1937 -46 l  1937 -37 1938 -31 1941 -27 ct 
1944 -23 1949 -22 1957 -22 ct 1960 -22 1962 -22 1965 -22 ct 1968 -23 1971 -23 1974 -24 ct 
1974 -1 l  p ef
2088 0 m  2084 11 2079 21 2075 30 ct 2070 39 2065 47 2059 53 ct 2054 60 2048 65 2041 68 ct 
2034 71 2026 73 2017 73 ct 2013 73 2009 73 2006 73 ct 2003 73 1999 72 1996 71 ct 
1996 48 l  1998 49 2000 49 2003 49 ct 2006 49 2008 49 2010 49 ct 2019 49 2028 46 2035 39 ct 
2043 32 2050 21 2056 6 ct 2059 -1 l  1985 -187 l  2018 -187 l  2057 -83 l 
2058 -80 2060 -76 2062 -71 ct 2063 -66 2065 -61 2067 -55 ct 2069 -50 2070 -46 2072 -41 ct 
2073 -37 2074 -35 2074 -34 ct 2074 -35 2075 -37 2077 -41 ct 2078 -45 2079 -49 2081 -54 ct 
2083 -58 2084 -63 2086 -68 ct 2088 -72 2089 -76 2091 -80 ct 2127 -187 l  2160 -187 l 
2088 0 l  p ef
2352 -94 m  2352 -80 2350 -67 2348 -55 ct 2346 -43 2342 -33 2337 -25 ct 2331 -16 2324 -9 2315 -4 ct 
2307 1 2296 3 2283 3 ct 2270 3 2258 0 2248 -5 ct 2238 -10 2230 -18 2225 -29 ct 
2224 -29 l  2224 -29 2224 -28 2224 -26 ct 2224 -24 2225 -22 2225 -19 ct 2225 -17 2225 -14 2225 -10 ct 
2225 -7 2225 -3 2225 0 ct 2225 73 l  2194 73 l  2194 -149 l  2194 -153 2194 -158 2194 -162 ct 
2194 -166 2194 -170 2193 -173 ct 2193 -176 2193 -179 2193 -182 ct 2193 -184 2193 -186 2193 -187 ct 
2223 -187 l  2223 -187 2223 -185 2223 -183 ct 2223 -181 2224 -179 2224 -176 ct 
2224 -173 2224 -170 2224 -166 ct 2224 -163 2224 -160 2224 -157 ct 2225 -157 l 
2228 -163 2231 -168 2235 -172 ct 2239 -176 2243 -180 2248 -182 ct 2252 -185 2258 -187 2263 -188 ct 
2269 -189 2276 -190 2283 -190 ct 2296 -190 2307 -188 2315 -183 ct 2324 -179 2331 -172 2337 -164 ct 
2342 -155 2346 -145 2348 -134 ct 2350 -122 2352 -109 2352 -94 ct p
2319 -94 m  2319 -105 2318 -115 2317 -124 ct 2315 -133 2313 -141 2310 -147 ct 
2306 -153 2302 -158 2296 -161 ct 2291 -164 2283 -166 2275 -166 ct 2268 -166 2262 -165 2255 -163 ct 
2249 -161 2244 -157 2240 -152 ct 2235 -146 2231 -139 2229 -129 ct 2226 -119 2225 -107 2225 -91 ct 
2225 -78 2226 -67 2228 -58 ct 2230 -49 2233 -41 2238 -36 ct 2242 -30 2247 -26 2253 -24 ct 
2259 -21 2267 -20 2275 -20 ct 2283 -20 2290 -22 2296 -25 ct 2302 -28 2306 -33 2310 -39 ct 
2313 -46 2315 -53 2317 -63 ct 2318 -72 2319 -82 2319 -94 ct p ef
2403 -87 m  2403 -77 2404 -68 2406 -60 ct 2408 -52 2411 -45 2415 -39 ct 2419 -33 2424 -28 2431 -25 ct 
2438 -22 2445 -20 2455 -20 ct 2468 -20 2479 -23 2487 -28 ct 2495 -34 2501 -41 2503 -49 ct 
2531 -41 l  2529 -36 2526 -31 2522 -26 ct 2519 -20 2514 -16 2508 -11 ct 2503 -7 2495 -4 2486 -1 ct 
2478 2 2467 3 2455 3 ct 2427 3 2406 -5 2392 -22 ct 2377 -38 2370 -62 2370 -95 ct 
2370 -112 2372 -127 2377 -139 ct 2381 -151 2387 -161 2394 -169 ct 2402 -176 2411 -182 2421 -185 ct 
2431 -188 2442 -190 2453 -190 ct 2469 -190 2482 -187 2493 -182 ct 2503 -177 2512 -170 2518 -162 ct 
2524 -153 2529 -142 2532 -130 ct 2534 -118 2536 -105 2536 -91 ct 2536 -87 l 
2403 -87 l  p
2504 -111 m  2502 -130 2497 -145 2489 -154 ct 2480 -163 2468 -167 2453 -167 ct 
2448 -167 2442 -166 2437 -165 ct 2431 -163 2426 -160 2421 -156 ct 2416 -152 2412 -146 2409 -139 ct 
2405 -131 2403 -122 2403 -111 ct 2504 -111 l  p ef
2704 -52 m  2704 -43 2702 -36 2699 -29 ct 2695 -22 2690 -16 2684 -11 ct 2677 -7 2670 -3 2660 -1 ct 
2651 2 2640 3 2628 3 ct 2617 3 2608 2 2599 1 ct 2590 -1 2583 -4 2576 -8 ct 2569 -11 2564 -16 2560 -22 ct 
2555 -28 2552 -36 2550 -44 ct 2577 -50 l  2580 -40 2585 -32 2594 -28 ct 2602 -23 2613 -21 2628 -21 ct 
2635 -21 2641 -21 2646 -22 ct 2652 -23 2657 -25 2661 -27 ct 2665 -29 2668 -32 2670 -36 ct 
2672 -39 2674 -44 2674 -50 ct 2674 -55 2672 -60 2670 -63 ct 2667 -67 2663 -70 2659 -73 ct 
2654 -75 2648 -77 2641 -79 ct 2635 -81 2627 -83 2619 -85 ct 2612 -87 2604 -89 2597 -91 ct 
2590 -94 2583 -97 2577 -101 ct 2571 -105 2566 -110 2563 -116 ct 2559 -122 2557 -129 2557 -138 ct 
2557 -155 2563 -168 2575 -177 ct 2588 -186 2605 -190 2628 -190 ct 2649 -190 2665 -186 2677 -179 ct 
2690 -172 2697 -160 2700 -144 ct 2673 -141 l  2672 -146 2670 -150 2667 -153 ct 
2664 -156 2661 -159 2657 -161 ct 2653 -163 2649 -164 2644 -165 ct 2639 -166 2634 -167 2628 -167 ct 
2614 -167 2604 -164 2597 -160 ct 2591 -156 2587 -149 2587 -141 ct 2587 -136 2589 -132 2591 -128 ct 
2594 -125 2597 -122 2601 -120 ct 2606 -118 2611 -116 2617 -114 ct 2624 -113 2630 -111 2638 -109 ct 
2643 -108 2648 -106 2653 -105 ct 2658 -103 2663 -102 2668 -100 ct 2673 -98 2678 -95 2682 -93 ct 
2686 -90 2690 -87 2693 -83 ct 2696 -79 2699 -75 2701 -70 ct 2703 -65 2704 -59 2704 -52 ct 
p ef
pom

pum
8907 8300 t
258 -123 m  258 -104 255 -87 250 -71 ct 244 -56 236 -43 226 -31 ct 215 -20 203 -12 188 -6 ct 
173 0 156 3 137 3 ct 117 3 100 0 84 -6 ct 69 -13 57 -21 47 -33 ct 37 -44 29 -57 24 -73 ct 
19 -88 17 -105 17 -123 ct 17 -142 19 -159 25 -174 ct 30 -190 38 -203 48 -213 ct 
58 -224 71 -232 86 -238 ct 101 -244 118 -247 137 -247 ct 157 -247 174 -244 189 -238 ct 
204 -232 216 -224 227 -213 ct 237 -202 244 -189 250 -174 ct 255 -159 258 -142 258 -123 ct 
p
224 -123 m  224 -138 222 -151 218 -163 ct 215 -175 209 -185 202 -194 ct 195 -202 186 -209 175 -213 ct 
164 -218 152 -220 137 -220 ct 123 -220 110 -218 99 -213 ct 88 -209 79 -202 72 -194 ct 
65 -185 59 -175 56 -163 ct 52 -151 50 -138 50 -123 ct 50 -108 52 -95 56 -83 ct 
59 -71 65 -60 72 -52 ct 80 -43 89 -36 100 -31 ct 110 -26 123 -24 137 -24 ct 152 -24 165 -26 176 -31 ct 
187 -36 196 -43 203 -52 ct 210 -61 216 -71 219 -83 ct 222 -95 224 -109 224 -123 ct 
p ef
447 -94 m  447 -80 445 -67 443 -55 ct 441 -43 437 -33 432 -25 ct 426 -16 419 -9 410 -4 ct 
402 1 391 3 378 3 ct 365 3 353 0 343 -5 ct 333 -10 325 -18 320 -29 ct 319 -29 l 
319 -29 319 -28 319 -26 ct 319 -24 320 -22 320 -19 ct 320 -17 320 -14 320 -10 ct 
320 -7 320 -3 320 0 ct 320 73 l  289 73 l  289 -149 l  289 -153 289 -158 289 -162 ct 
289 -166 289 -170 288 -173 ct 288 -176 288 -179 288 -182 ct 288 -184 288 -186 288 -187 ct 
318 -187 l  318 -187 318 -185 318 -183 ct 318 -181 319 -179 319 -176 ct 319 -173 319 -170 319 -166 ct 
319 -163 319 -160 319 -157 ct 320 -157 l  323 -163 326 -168 330 -172 ct 334 -176 338 -180 343 -182 ct 
347 -185 353 -187 358 -188 ct 364 -189 371 -190 378 -190 ct 391 -190 402 -188 410 -183 ct 
419 -179 426 -172 432 -164 ct 437 -155 441 -145 443 -134 ct 445 -122 447 -109 447 -94 ct 
p
414 -94 m  414 -105 413 -115 412 -124 ct 410 -133 408 -141 405 -147 ct 401 -153 397 -158 391 -161 ct 
386 -164 378 -166 370 -166 ct 363 -166 357 -165 350 -163 ct 344 -161 339 -157 335 -152 ct 
330 -146 326 -139 324 -129 ct 321 -119 320 -107 320 -91 ct 320 -78 321 -67 323 -58 ct 
325 -49 328 -41 333 -36 ct 337 -30 342 -26 348 -24 ct 354 -21 362 -20 370 -20 ct 
378 -20 385 -22 391 -25 ct 397 -28 401 -33 405 -39 ct 408 -46 410 -53 412 -63 ct 
413 -72 414 -82 414 -94 ct p ef
545 -1 m  541 0 536 1 531 2 ct 526 3 521 3 514 3 ct 489 3 477 -11 477 -39 ct 477 -164 l 
455 -164 l  455 -187 l  478 -187 l  487 -228 l  508 -228 l  508 -187 l 
542 -187 l  542 -164 l  508 -164 l  508 -46 l  508 -37 509 -31 512 -27 ct 
515 -23 520 -22 528 -22 ct 531 -22 533 -22 536 -22 ct 539 -23 542 -23 545 -24 ct 
545 -1 l  p ef
580 -226 m  580 -256 l  611 -256 l  611 -226 l  580 -226 l  p
580 0 m  580 -187 l  611 -187 l  611 0 l  580 0 l  p ef
767 0 m  767 -118 l  767 -127 767 -135 766 -141 ct 765 -147 763 -152 760 -156 ct 
757 -160 754 -162 749 -164 ct 745 -165 740 -166 733 -166 ct 727 -166 721 -165 715 -162 ct 
710 -160 706 -156 702 -151 ct 698 -146 695 -140 693 -133 ct 691 -126 690 -117 690 -108 ct 
690 0 l  659 0 l  659 -147 l  659 -151 659 -155 659 -159 ct 659 -163 659 -167 659 -171 ct 
659 -175 659 -178 659 -181 ct 659 -184 659 -186 658 -187 ct 688 -187 l  688 -186 688 -184 688 -182 ct 
688 -179 688 -176 689 -173 ct 689 -170 689 -167 689 -163 ct 689 -160 689 -157 689 -155 ct 
690 -155 l  692 -160 695 -165 699 -169 ct 702 -174 706 -177 710 -180 ct 714 -183 719 -186 725 -188 ct 
730 -189 737 -190 744 -190 ct 758 -190 769 -187 778 -182 ct 786 -176 792 -167 795 -155 ct 
795 -155 l  798 -160 801 -165 805 -169 ct 808 -174 812 -177 817 -180 ct 821 -183 826 -186 832 -188 ct 
838 -189 844 -190 852 -190 ct 861 -190 869 -189 876 -186 ct 883 -184 889 -180 893 -174 ct 
897 -169 901 -162 903 -154 ct 905 -146 906 -136 906 -124 ct 906 0 l  875 0 l 
875 -118 l  875 -127 875 -135 873 -141 ct 872 -147 870 -152 868 -156 ct 865 -160 861 -162 857 -164 ct 
853 -165 847 -166 841 -166 ct 834 -166 829 -165 823 -162 ct 818 -160 813 -156 810 -151 ct 
806 -147 803 -141 801 -133 ct 799 -126 798 -118 798 -108 ct 798 0 l  767 0 l 
p ef
950 -226 m  950 -256 l  981 -256 l  981 -226 l  950 -226 l  p
950 0 m  950 -187 l  981 -187 l  981 0 l  950 0 l  p ef
1013 0 m  1013 -24 l  1127 -163 l  1020 -163 l  1020 -187 l  1162 -187 l 
1162 -163 l  1048 -24 l  1169 -24 l  1169 0 l  1013 0 l  p ef
1239 -87 m  1239 -77 1240 -68 1242 -60 ct 1244 -52 1247 -45 1251 -39 ct 1255 -33 1260 -28 1267 -25 ct 
1274 -22 1281 -20 1291 -20 ct 1304 -20 1315 -23 1323 -28 ct 1331 -34 1337 -41 1339 -49 ct 
1367 -41 l  1365 -36 1362 -31 1358 -26 ct 1355 -20 1350 -16 1344 -11 ct 1339 -7 1331 -4 1322 -1 ct 
1314 2 1303 3 1291 3 ct 1263 3 1242 -5 1228 -22 ct 1213 -38 1206 -62 1206 -95 ct 
1206 -112 1208 -127 1213 -139 ct 1217 -151 1223 -161 1230 -169 ct 1238 -176 1247 -182 1257 -185 ct 
1267 -188 1278 -190 1289 -190 ct 1305 -190 1318 -187 1329 -182 ct 1339 -177 1348 -170 1354 -162 ct 
1360 -153 1365 -142 1368 -130 ct 1370 -118 1372 -105 1372 -91 ct 1372 -87 l 
1239 -87 l  p
1340 -111 m  1338 -130 1333 -145 1325 -154 ct 1316 -163 1304 -167 1289 -167 ct 
1284 -167 1278 -166 1273 -165 ct 1267 -163 1262 -160 1257 -156 ct 1252 -152 1248 -146 1245 -139 ct 
1241 -131 1239 -122 1239 -111 ct 1340 -111 l  p ef
1518 -30 m  1512 -18 1504 -10 1495 -5 ct 1485 0 1473 3 1459 3 ct 1436 3 1419 -5 1407 -21 ct 
1396 -37 1391 -61 1391 -93 ct 1391 -158 1414 -190 1459 -190 ct 1474 -190 1485 -187 1495 -182 ct 
1504 -177 1512 -169 1518 -158 ct 1518 -158 l  1518 -159 1518 -161 1518 -163 ct 
1518 -166 1518 -168 1518 -171 ct 1518 -174 1518 -176 1518 -179 ct 1518 -181 1518 -183 1518 -184 ct 
1518 -256 l  1549 -256 l  1549 -39 l  1549 -34 1549 -30 1549 -26 ct 1549 -22 1549 -18 1549 -14 ct 
1549 -11 1549 -8 1549 -5 ct 1549 -3 1549 -1 1550 0 ct 1520 0 l  1520 -1 1519 -3 1519 -5 ct 
1519 -7 1519 -10 1519 -12 ct 1519 -15 1518 -18 1518 -21 ct 1518 -24 1518 -27 1518 -30 ct 
1518 -30 l  p
1423 -94 m  1423 -81 1424 -70 1426 -61 ct 1427 -52 1430 -44 1434 -38 ct 1437 -32 1442 -28 1447 -25 ct 
1453 -22 1459 -21 1467 -21 ct 1476 -21 1483 -22 1489 -25 ct 1495 -28 1500 -32 1505 -38 ct 
1509 -44 1512 -51 1514 -61 ct 1516 -70 1518 -82 1518 -96 ct 1518 -109 1516 -120 1514 -129 ct 
1512 -138 1509 -146 1505 -151 ct 1500 -157 1495 -161 1489 -163 ct 1483 -166 1476 -167 1468 -167 ct 
1460 -167 1454 -166 1448 -163 ct 1443 -160 1438 -156 1434 -150 ct 1431 -145 1428 -137 1426 -128 ct 
1424 -118 1423 -107 1423 -94 ct p ef
1869 0 m  1833 0 l  1804 -120 l  1803 -123 1802 -127 1801 -132 ct 1800 -136 1799 -141 1798 -145 ct 
1797 -150 1796 -156 1795 -161 ct 1794 -156 1792 -151 1791 -146 ct 1790 -141 1789 -137 1788 -132 ct 
1787 -127 1786 -123 1785 -120 ct 1755 0 l  1719 0 l  1666 -187 l  1697 -187 l 
1729 -60 l  1730 -57 1730 -54 1731 -50 ct 1732 -46 1733 -42 1734 -39 ct 1734 -35 1735 -30 1736 -26 ct 
1737 -30 1738 -34 1739 -38 ct 1740 -42 1741 -46 1742 -49 ct 1743 -53 1744 -56 1744 -58 ct 
1778 -187 l  1811 -187 l  1844 -58 l  1845 -55 1846 -52 1846 -48 ct 1847 -44 1848 -41 1849 -38 ct 
1850 -34 1851 -30 1852 -26 ct 1853 -30 1854 -34 1855 -38 ct 1855 -42 1856 -46 1857 -50 ct 
1858 -53 1859 -57 1860 -60 ct 1892 -187 l  1923 -187 l  1869 0 l  p ef
2087 -94 m  2087 -61 2079 -37 2065 -21 ct 2051 -5 2030 3 2002 3 ct 1989 3 1978 1 1968 -3 ct 
1957 -7 1949 -13 1942 -21 ct 1935 -29 1929 -39 1925 -51 ct 1922 -63 1920 -77 1920 -94 ct 
1920 -158 1948 -190 2003 -190 ct 2018 -190 2030 -188 2041 -184 ct 2051 -180 2060 -174 2067 -166 ct 
2073 -158 2078 -148 2082 -136 ct 2085 -124 2087 -110 2087 -94 ct p
2054 -94 m  2054 -108 2053 -120 2051 -129 ct 2048 -139 2045 -146 2041 -152 ct 
2036 -158 2031 -161 2025 -164 ct 2019 -166 2012 -167 2004 -167 ct 1996 -167 1989 -166 1982 -164 ct 
1976 -161 1971 -157 1966 -152 ct 1962 -146 1958 -138 1956 -129 ct 1954 -120 1952 -108 1952 -94 ct 
1952 -79 1954 -67 1956 -58 ct 1959 -48 1962 -41 1967 -35 ct 1971 -30 1976 -26 1982 -23 ct 
1988 -21 1995 -20 2002 -20 ct 2010 -20 2017 -21 2024 -23 ct 2030 -26 2035 -29 2040 -35 ct 
2044 -41 2048 -48 2050 -58 ct 2053 -67 2054 -79 2054 -94 ct p ef
2114 0 m  2114 -143 l  2114 -147 2114 -151 2114 -155 ct 2114 -159 2114 -163 2114 -167 ct 
2114 -171 2114 -174 2114 -178 ct 2114 -181 2114 -184 2113 -187 ct 2143 -187 l 
2143 -184 2143 -181 2143 -178 ct 2143 -174 2144 -171 2144 -167 ct 2144 -164 2144 -160 2144 -157 ct 
2144 -154 2144 -151 2144 -148 ct 2145 -148 l  2147 -156 2149 -162 2152 -167 ct 
2154 -172 2157 -177 2161 -180 ct 2164 -183 2168 -186 2172 -188 ct 2177 -189 2183 -190 2189 -190 ct 
2192 -190 2194 -190 2196 -189 ct 2199 -189 2200 -189 2202 -188 ct 2202 -160 l 
2200 -160 2197 -161 2194 -161 ct 2192 -161 2189 -162 2185 -162 ct 2178 -162 2172 -160 2167 -157 ct 
2162 -154 2158 -149 2155 -143 ct 2152 -138 2149 -131 2148 -123 ct 2146 -115 2146 -107 2146 -97 ct 
2146 0 l  2114 0 l  p ef
2337 0 m  2274 -85 l  2251 -67 l  2251 0 l  2220 0 l  2220 -256 l  2251 -256 l 
2251 -96 l  2333 -187 l  2369 -187 l  2293 -107 l  2373 0 l  2337 0 l 
p ef
2581 73 m  2571 73 2561 72 2553 70 ct 2545 68 2538 64 2532 60 ct 2526 56 2521 51 2518 46 ct 
2514 40 2511 34 2510 27 ct 2541 22 l  2543 31 2547 38 2554 42 ct 2562 47 2571 49 2582 49 ct 
2589 49 2596 48 2601 46 ct 2607 44 2612 41 2616 37 ct 2620 33 2623 27 2625 20 ct 
2628 13 2629 5 2629 -5 ct 2629 -35 l  2628 -35 l  2626 -30 2623 -26 2620 -22 ct 
2616 -17 2612 -13 2607 -10 ct 2603 -7 2597 -4 2590 -2 ct 2584 0 2577 1 2568 1 ct 
2557 1 2546 -1 2538 -5 ct 2529 -9 2523 -15 2517 -23 ct 2512 -31 2508 -41 2506 -52 ct 
2503 -64 2502 -78 2502 -93 ct 2502 -108 2503 -122 2506 -134 ct 2508 -146 2512 -156 2518 -164 ct 
2523 -173 2530 -179 2539 -183 ct 2548 -188 2559 -190 2572 -190 ct 2585 -190 2596 -187 2606 -181 ct 
2616 -175 2623 -166 2629 -155 ct 2629 -155 l  2629 -158 2629 -161 2629 -165 ct 
2629 -168 2630 -172 2630 -175 ct 2630 -178 2630 -181 2630 -183 ct 2631 -185 2631 -187 2631 -187 ct 
2661 -187 l  2660 -186 2660 -184 2660 -182 ct 2660 -179 2660 -176 2660 -173 ct 
2660 -169 2660 -166 2660 -161 ct 2660 -157 2660 -153 2660 -148 ct 2660 -6 l 
2660 20 2653 40 2640 53 ct 2628 66 2608 73 2581 73 ct p
2629 -94 m  2629 -107 2627 -118 2624 -127 ct 2622 -136 2618 -144 2613 -150 ct 
2609 -156 2603 -160 2598 -163 ct 2592 -166 2586 -167 2579 -167 ct 2571 -167 2565 -166 2559 -163 ct 
2553 -160 2549 -156 2545 -150 ct 2541 -144 2538 -136 2537 -127 ct 2535 -118 2534 -107 2534 -94 ct 
2534 -80 2535 -69 2537 -60 ct 2538 -51 2541 -43 2545 -38 ct 2548 -32 2553 -28 2559 -26 ct 
2564 -23 2571 -22 2579 -22 ct 2585 -22 2591 -23 2597 -26 ct 2603 -29 2608 -33 2613 -38 ct 
2618 -44 2622 -52 2624 -61 ct 2627 -70 2629 -81 2629 -94 ct p ef
2696 0 m  2696 -143 l  2696 -147 2696 -151 2696 -155 ct 2696 -159 2696 -163 2696 -167 ct 
2696 -171 2696 -174 2696 -178 ct 2696 -181 2696 -184 2695 -187 ct 2725 -187 l 
2725 -184 2725 -181 2725 -178 ct 2725 -174 2726 -171 2726 -167 ct 2726 -164 2726 -160 2726 -157 ct 
2726 -154 2726 -151 2726 -148 ct 2727 -148 l  2729 -156 2731 -162 2734 -167 ct 
2736 -172 2739 -177 2743 -180 ct 2746 -183 2750 -186 2754 -188 ct 2759 -189 2765 -190 2771 -190 ct 
2774 -190 2776 -190 2778 -189 ct 2781 -189 2782 -189 2784 -188 ct 2784 -160 l 
2782 -160 2779 -161 2776 -161 ct 2774 -161 2771 -162 2767 -162 ct 2760 -162 2754 -160 2749 -157 ct 
2744 -154 2740 -149 2737 -143 ct 2734 -138 2731 -131 2730 -123 ct 2728 -115 2728 -107 2728 -97 ct 
2728 0 l  2696 0 l  p ef
2960 -94 m  2960 -61 2952 -37 2938 -21 ct 2924 -5 2903 3 2875 3 ct 2862 3 2851 1 2841 -3 ct 
2830 -7 2822 -13 2815 -21 ct 2808 -29 2802 -39 2798 -51 ct 2795 -63 2793 -77 2793 -94 ct 
2793 -158 2821 -190 2876 -190 ct 2891 -190 2903 -188 2914 -184 ct 2924 -180 2933 -174 2940 -166 ct 
2946 -158 2951 -148 2955 -136 ct 2958 -124 2960 -110 2960 -94 ct p
2927 -94 m  2927 -108 2926 -120 2924 -129 ct 2921 -139 2918 -146 2914 -152 ct 
2909 -158 2904 -161 2898 -164 ct 2892 -166 2885 -167 2877 -167 ct 2869 -167 2862 -166 2855 -164 ct 
2849 -161 2844 -157 2839 -152 ct 2835 -146 2831 -138 2829 -129 ct 2827 -120 2825 -108 2825 -94 ct 
2825 -79 2827 -67 2829 -58 ct 2832 -48 2835 -41 2840 -35 ct 2844 -30 2849 -26 2855 -23 ct 
2861 -21 2868 -20 2875 -20 ct 2883 -20 2890 -21 2897 -23 ct 2903 -26 2908 -29 2913 -35 ct 
2917 -41 2921 -48 2923 -58 ct 2926 -67 2927 -79 2927 -94 ct p ef
3017 -187 m  3017 -69 l  3017 -60 3018 -52 3019 -46 ct 3020 -40 3023 -35 3026 -31 ct 
3029 -27 3032 -25 3037 -23 ct 3042 -22 3048 -21 3056 -21 ct 3063 -21 3070 -22 3075 -25 ct 
3081 -27 3086 -31 3091 -36 ct 3095 -41 3098 -47 3100 -54 ct 3103 -61 3104 -70 3104 -79 ct 
3104 -187 l  3135 -187 l  3135 -40 l  3135 -36 3135 -32 3135 -28 ct 3135 -24 3135 -20 3135 -16 ct 
3135 -12 3135 -9 3136 -6 ct 3136 -3 3136 -1 3136 0 ct 3107 0 l  3106 -1 3106 -3 3106 -5 ct 
3106 -8 3106 -11 3106 -14 ct 3106 -17 3105 -20 3105 -24 ct 3105 -27 3105 -30 3105 -32 ct 
3105 -32 l  3102 -27 3098 -22 3095 -18 ct 3091 -13 3087 -10 3082 -7 ct 3078 -4 3072 -1 3066 1 ct 
3060 2 3053 3 3045 3 ct 3035 3 3026 2 3018 -1 ct 3011 -3 3005 -7 3000 -13 ct 2995 -18 2992 -25 2989 -33 ct 
2987 -41 2986 -51 2986 -63 ct 2986 -187 l  3017 -187 l  p ef
3331 -94 m  3331 -80 3329 -67 3327 -55 ct 3325 -43 3321 -33 3316 -25 ct 3310 -16 3303 -9 3294 -4 ct 
3286 1 3275 3 3262 3 ct 3249 3 3237 0 3227 -5 ct 3217 -10 3209 -18 3204 -29 ct 
3203 -29 l  3203 -29 3203 -28 3203 -26 ct 3203 -24 3204 -22 3204 -19 ct 3204 -17 3204 -14 3204 -10 ct 
3204 -7 3204 -3 3204 0 ct 3204 73 l  3173 73 l  3173 -149 l  3173 -153 3173 -158 3173 -162 ct 
3173 -166 3173 -170 3172 -173 ct 3172 -176 3172 -179 3172 -182 ct 3172 -184 3172 -186 3172 -187 ct 
3202 -187 l  3202 -187 3202 -185 3202 -183 ct 3202 -181 3203 -179 3203 -176 ct 
3203 -173 3203 -170 3203 -166 ct 3203 -163 3203 -160 3203 -157 ct 3204 -157 l 
3207 -163 3210 -168 3214 -172 ct 3218 -176 3222 -180 3227 -182 ct 3231 -185 3237 -187 3242 -188 ct 
3248 -189 3255 -190 3262 -190 ct 3275 -190 3286 -188 3294 -183 ct 3303 -179 3310 -172 3316 -164 ct 
3321 -155 3325 -145 3327 -134 ct 3329 -122 3331 -109 3331 -94 ct p
3298 -94 m  3298 -105 3297 -115 3296 -124 ct 3294 -133 3292 -141 3289 -147 ct 
3285 -153 3281 -158 3275 -161 ct 3270 -164 3262 -166 3254 -166 ct 3247 -166 3241 -165 3234 -163 ct 
3228 -161 3223 -157 3219 -152 ct 3214 -146 3210 -139 3208 -129 ct 3205 -119 3204 -107 3204 -91 ct 
3204 -78 3205 -67 3207 -58 ct 3209 -49 3212 -41 3217 -36 ct 3221 -30 3226 -26 3232 -24 ct 
3238 -21 3246 -20 3254 -20 ct 3262 -20 3269 -22 3275 -25 ct 3281 -28 3285 -33 3289 -39 ct 
3292 -46 3294 -53 3296 -63 ct 3297 -72 3298 -82 3298 -94 ct p ef
3604 -52 m  3604 -43 3602 -36 3599 -29 ct 3595 -22 3590 -16 3584 -11 ct 3577 -7 3570 -3 3560 -1 ct 
3551 2 3540 3 3528 3 ct 3517 3 3508 2 3499 1 ct 3490 -1 3483 -4 3476 -8 ct 3469 -11 3464 -16 3460 -22 ct 
3455 -28 3452 -36 3450 -44 ct 3477 -50 l  3480 -40 3485 -32 3494 -28 ct 3502 -23 3513 -21 3528 -21 ct 
3535 -21 3541 -21 3546 -22 ct 3552 -23 3557 -25 3561 -27 ct 3565 -29 3568 -32 3570 -36 ct 
3572 -39 3574 -44 3574 -50 ct 3574 -55 3572 -60 3570 -63 ct 3567 -67 3563 -70 3559 -73 ct 
3554 -75 3548 -77 3541 -79 ct 3535 -81 3527 -83 3519 -85 ct 3512 -87 3504 -89 3497 -91 ct 
3490 -94 3483 -97 3477 -101 ct 3471 -105 3466 -110 3463 -116 ct 3459 -122 3457 -129 3457 -138 ct 
3457 -155 3463 -168 3475 -177 ct 3488 -186 3505 -190 3528 -190 ct 3549 -190 3565 -186 3577 -179 ct 
3590 -172 3597 -160 3600 -144 ct 3573 -141 l  3572 -146 3570 -150 3567 -153 ct 
3564 -156 3561 -159 3557 -161 ct 3553 -163 3549 -164 3544 -165 ct 3539 -166 3534 -167 3528 -167 ct 
3514 -167 3504 -164 3497 -160 ct 3491 -156 3487 -149 3487 -141 ct 3487 -136 3489 -132 3491 -128 ct 
3494 -125 3497 -122 3501 -120 ct 3506 -118 3511 -116 3517 -114 ct 3524 -113 3530 -111 3538 -109 ct 
3543 -108 3548 -106 3553 -105 ct 3558 -103 3563 -102 3568 -100 ct 3573 -98 3578 -95 3582 -93 ct 
3586 -90 3590 -87 3593 -83 ct 3596 -79 3599 -75 3601 -70 ct 3603 -65 3604 -59 3604 -52 ct 
p ef
3649 -226 m  3649 -256 l  3680 -256 l  3680 -226 l  3649 -226 l  p
3649 0 m  3649 -187 l  3680 -187 l  3680 0 l  3649 0 l  p ef
3712 0 m  3712 -24 l  3826 -163 l  3719 -163 l  3719 -187 l  3861 -187 l 
3861 -163 l  3747 -24 l  3868 -24 l  3868 0 l  3712 0 l  p ef
3937 -87 m  3937 -77 3938 -68 3940 -60 ct 3942 -52 3945 -45 3949 -39 ct 3953 -33 3958 -28 3965 -25 ct 
3972 -22 3979 -20 3989 -20 ct 4002 -20 4013 -23 4021 -28 ct 4029 -34 4035 -41 4037 -49 ct 
4065 -41 l  4063 -36 4060 -31 4056 -26 ct 4053 -20 4048 -16 4042 -11 ct 4037 -7 4029 -4 4020 -1 ct 
4012 2 4001 3 3989 3 ct 3961 3 3940 -5 3926 -22 ct 3911 -38 3904 -62 3904 -95 ct 
3904 -112 3906 -127 3911 -139 ct 3915 -151 3921 -161 3928 -169 ct 3936 -176 3945 -182 3955 -185 ct 
3965 -188 3976 -190 3987 -190 ct 4003 -190 4016 -187 4027 -182 ct 4037 -177 4046 -170 4052 -162 ct 
4058 -153 4063 -142 4066 -130 ct 4068 -118 4070 -105 4070 -91 ct 4070 -87 l 
3937 -87 l  p
4038 -111 m  4036 -130 4031 -145 4023 -154 ct 4014 -163 4002 -167 3987 -167 ct 
3982 -167 3976 -166 3971 -165 ct 3965 -163 3960 -160 3955 -156 ct 3950 -152 3946 -146 3943 -139 ct 
3939 -131 3937 -122 3937 -111 ct 4038 -111 l  p ef
pom

pum
1427 7853 t
183 -122 m  183 -99 180 -79 176 -63 ct 171 -47 165 -34 158 -25 ct 150 -15 141 -8 131 -3 ct 
120 1 109 3 98 3 ct 86 3 75 1 65 -3 ct 54 -8 46 -15 38 -24 ct 30 -34 25 -47 20 -63 ct 
16 -79 14 -99 14 -122 ct 14 -146 16 -167 20 -183 ct 25 -199 31 -212 38 -221 ct 
46 -231 55 -237 65 -241 ct 75 -245 87 -247 99 -247 ct 110 -247 121 -245 131 -241 ct 
142 -237 150 -231 158 -221 ct 166 -212 172 -199 176 -183 ct 180 -167 183 -146 183 -122 ct 
p
151 -122 m  151 -141 150 -157 148 -170 ct 145 -183 142 -193 137 -201 ct 133 -209 127 -214 121 -217 ct 
114 -220 107 -222 99 -222 ct 90 -222 82 -220 76 -217 ct 69 -214 63 -208 59 -201 ct 
54 -193 51 -183 49 -170 ct 46 -157 45 -141 45 -122 ct 45 -103 46 -88 49 -75 ct 
51 -62 54 -52 59 -44 ct 64 -36 69 -31 76 -27 ct 82 -24 90 -22 98 -22 ct 106 -22 114 -24 120 -27 ct 
127 -31 132 -36 137 -44 ct 141 -52 145 -62 147 -75 ct 150 -88 151 -103 151 -122 ct 
p ef
pom

pum
1136 7113 t
183 -122 m  183 -99 180 -79 176 -63 ct 171 -47 165 -34 158 -25 ct 150 -15 141 -8 131 -3 ct 
120 1 109 3 98 3 ct 86 3 75 1 65 -3 ct 54 -8 46 -15 38 -24 ct 30 -34 25 -47 20 -63 ct 
16 -79 14 -99 14 -122 ct 14 -146 16 -167 20 -183 ct 25 -199 31 -212 38 -221 ct 
46 -231 55 -237 65 -241 ct 75 -245 87 -247 99 -247 ct 110 -247 121 -245 131 -241 ct 
142 -237 150 -231 158 -221 ct 166 -212 172 -199 176 -183 ct 180 -167 183 -146 183 -122 ct 
p
151 -122 m  151 -141 150 -157 148 -170 ct 145 -183 142 -193 137 -201 ct 133 -209 127 -214 121 -217 ct 
114 -220 107 -222 99 -222 ct 90 -222 82 -220 76 -217 ct 69 -214 63 -208 59 -201 ct 
54 -193 51 -183 49 -170 ct 46 -157 45 -141 45 -122 ct 45 -103 46 -88 49 -75 ct 
51 -62 54 -52 59 -44 ct 64 -36 69 -31 76 -27 ct 82 -24 90 -22 98 -22 ct 106 -22 114 -24 120 -27 ct 
127 -31 132 -36 137 -44 ct 141 -52 145 -62 147 -75 ct 150 -88 151 -103 151 -122 ct 
p ef
217 0 m  217 -38 l  251 -38 l  251 0 l  217 0 l  p ef
473 -80 m  473 -67 471 -56 467 -46 ct 463 -36 458 -27 451 -20 ct 443 -13 434 -7 424 -3 ct 
413 1 400 3 386 3 ct 374 3 362 1 353 -1 ct 343 -4 335 -9 329 -14 ct 322 -19 317 -25 313 -32 ct 
309 -39 307 -47 305 -55 ct 337 -58 l  338 -54 340 -49 342 -45 ct 344 -41 347 -37 351 -33 ct 
355 -30 360 -27 366 -25 ct 372 -23 379 -22 387 -22 ct 395 -22 402 -24 409 -26 ct 
415 -29 421 -32 426 -37 ct 430 -42 434 -48 436 -55 ct 439 -62 440 -70 440 -79 ct 
440 -86 439 -93 437 -99 ct 434 -106 431 -111 426 -116 ct 422 -120 416 -124 410 -126 ct 
403 -129 396 -130 388 -130 ct 383 -130 378 -130 373 -129 ct 369 -128 365 -126 361 -125 ct 
358 -123 354 -121 351 -119 ct 348 -117 345 -115 343 -113 ct 312 -113 l  320 -243 l 
458 -243 l  458 -217 l  349 -217 l  344 -140 l  349 -144 356 -148 365 -151 ct 
373 -154 383 -155 394 -155 ct 406 -155 417 -154 427 -150 ct 436 -146 445 -141 451 -134 ct 
458 -128 463 -120 467 -110 ct 471 -101 473 -91 473 -80 ct p ef
pom

pum
1427 6374 t
27 0 m  27 -26 l  89 -26 l  89 -213 l  34 -174 l  34 -204 l  91 -243 l 
120 -243 l  120 -26 l  179 -26 l  179 0 l  27 0 l  p ef
pom

pum
1136 5635 t
27 0 m  27 -26 l  89 -26 l  89 -213 l  34 -174 l  34 -204 l  91 -243 l 
120 -243 l  120 -26 l  179 -26 l  179 0 l  27 0 l  p ef
217 0 m  217 -38 l  251 -38 l  251 0 l  217 0 l  p ef
473 -80 m  473 -67 471 -56 467 -46 ct 463 -36 458 -27 451 -20 ct 443 -13 434 -7 424 -3 ct 
413 1 400 3 386 3 ct 374 3 362 1 353 -1 ct 343 -4 335 -9 329 -14 ct 322 -19 317 -25 313 -32 ct 
309 -39 307 -47 305 -55 ct 337 -58 l  338 -54 340 -49 342 -45 ct 344 -41 347 -37 351 -33 ct 
355 -30 360 -27 366 -25 ct 372 -23 379 -22 387 -22 ct 395 -22 402 -24 409 -26 ct 
415 -29 421 -32 426 -37 ct 430 -42 434 -48 436 -55 ct 439 -62 440 -70 440 -79 ct 
440 -86 439 -93 437 -99 ct 434 -106 431 -111 426 -116 ct 422 -120 416 -124 410 -126 ct 
403 -129 396 -130 388 -130 ct 383 -130 378 -130 373 -129 ct 369 -128 365 -126 361 -125 ct 
358 -123 354 -121 351 -119 ct 348 -117 345 -115 343 -113 ct 312 -113 l  320 -243 l 
458 -243 l  458 -217 l  349 -217 l  344 -140 l  349 -144 356 -148 365 -151 ct 
373 -154 383 -155 394 -155 ct 406 -155 417 -154 427 -150 ct 436 -146 445 -141 451 -134 ct 
458 -128 463 -120 467 -110 ct 471 -101 473 -91 473 -80 ct p ef
pom

pum
1427 4896 t
18 0 m  18 -22 l  24 -35 31 -47 39 -58 ct 48 -68 57 -77 66 -85 ct 75 -94 84 -101 94 -109 ct 
103 -116 111 -123 118 -130 ct 126 -137 132 -145 136 -152 ct 141 -160 143 -169 143 -179 ct 
143 -186 142 -192 140 -197 ct 138 -202 135 -207 131 -210 ct 127 -214 122 -217 117 -218 ct 
111 -220 105 -221 99 -221 ct 92 -221 87 -220 81 -218 ct 76 -217 71 -214 67 -211 ct 
62 -207 59 -203 56 -198 ct 53 -193 52 -187 51 -180 ct 19 -183 l  20 -192 23 -200 26 -208 ct 
30 -215 35 -222 42 -228 ct 49 -234 57 -238 66 -242 ct 75 -245 86 -247 99 -247 ct 
111 -247 121 -245 131 -242 ct 140 -239 148 -235 155 -229 ct 161 -224 166 -217 170 -209 ct 
173 -200 175 -191 175 -180 ct 175 -172 173 -164 170 -157 ct 167 -149 164 -142 159 -136 ct 
154 -129 148 -123 142 -116 ct 135 -110 129 -104 122 -98 ct 115 -92 107 -86 100 -81 ct 
93 -75 87 -69 80 -63 ct 74 -57 68 -51 63 -45 ct 58 -39 55 -33 52 -26 ct 179 -26 l 
179 0 l  18 0 l  p ef
pom

pum
1136 4158 t
18 0 m  18 -22 l  24 -35 31 -47 39 -58 ct 48 -68 57 -77 66 -85 ct 75 -94 84 -101 94 -109 ct 
103 -116 111 -123 118 -130 ct 126 -137 132 -145 136 -152 ct 141 -160 143 -169 143 -179 ct 
143 -186 142 -192 140 -197 ct 138 -202 135 -207 131 -210 ct 127 -214 122 -217 117 -218 ct 
111 -220 105 -221 99 -221 ct 92 -221 87 -220 81 -218 ct 76 -217 71 -214 67 -211 ct 
62 -207 59 -203 56 -198 ct 53 -193 52 -187 51 -180 ct 19 -183 l  20 -192 23 -200 26 -208 ct 
30 -215 35 -222 42 -228 ct 49 -234 57 -238 66 -242 ct 75 -245 86 -247 99 -247 ct 
111 -247 121 -245 131 -242 ct 140 -239 148 -235 155 -229 ct 161 -224 166 -217 170 -209 ct 
173 -200 175 -191 175 -180 ct 175 -172 173 -164 170 -157 ct 167 -149 164 -142 159 -136 ct 
154 -129 148 -123 142 -116 ct 135 -110 129 -104 122 -98 ct 115 -92 107 -86 100 -81 ct 
93 -75 87 -69 80 -63 ct 74 -57 68 -51 63 -45 ct 58 -39 55 -33 52 -26 ct 179 -26 l 
179 0 l  18 0 l  p ef
217 0 m  217 -38 l  251 -38 l  251 0 l  217 0 l  p ef
473 -80 m  473 -67 471 -56 467 -46 ct 463 -36 458 -27 451 -20 ct 443 -13 434 -7 424 -3 ct 
413 1 400 3 386 3 ct 374 3 362 1 353 -1 ct 343 -4 335 -9 329 -14 ct 322 -19 317 -25 313 -32 ct 
309 -39 307 -47 305 -55 ct 337 -58 l  338 -54 340 -49 342 -45 ct 344 -41 347 -37 351 -33 ct 
355 -30 360 -27 366 -25 ct 372 -23 379 -22 387 -22 ct 395 -22 402 -24 409 -26 ct 
415 -29 421 -32 426 -37 ct 430 -42 434 -48 436 -55 ct 439 -62 440 -70 440 -79 ct 
440 -86 439 -93 437 -99 ct 434 -106 431 -111 426 -116 ct 422 -120 416 -124 410 -126 ct 
403 -129 396 -130 388 -130 ct 383 -130 378 -130 373 -129 ct 369 -128 365 -126 361 -125 ct 
358 -123 354 -121 351 -119 ct 348 -117 345 -115 343 -113 ct 312 -113 l  320 -243 l 
458 -243 l  458 -217 l  349 -217 l  344 -140 l  349 -144 356 -148 365 -151 ct 
373 -154 383 -155 394 -155 ct 406 -155 417 -154 427 -150 ct 436 -146 445 -141 451 -134 ct 
458 -128 463 -120 467 -110 ct 471 -101 473 -91 473 -80 ct p ef
pom

pum
1427 3419 t
181 -68 m  181 -57 179 -47 175 -38 ct 172 -29 166 -22 160 -16 ct 153 -10 144 -5 134 -2 ct 
123 1 112 3 98 3 ct 83 3 71 1 60 -3 ct 50 -6 42 -11 35 -17 ct 28 -24 23 -31 20 -39 ct 
17 -46 14 -55 13 -63 ct 46 -66 l  46 -60 48 -54 51 -48 ct 53 -43 56 -38 61 -35 ct 
65 -31 70 -28 76 -26 ct 83 -24 90 -23 98 -23 ct 114 -23 126 -27 135 -34 ct 144 -42 149 -54 149 -69 ct 
149 -78 147 -85 143 -90 ct 139 -96 134 -100 128 -103 ct 122 -106 115 -108 109 -109 ct 
102 -110 95 -111 89 -111 ct 72 -111 l  72 -138 l  89 -138 l  94 -138 101 -139 107 -140 ct 
113 -141 119 -143 124 -146 ct 129 -149 134 -154 137 -159 ct 141 -164 142 -171 142 -180 ct 
142 -193 138 -203 131 -210 ct 123 -218 112 -221 97 -221 ct 83 -221 72 -218 64 -211 ct 
55 -204 50 -194 49 -182 ct 18 -184 l  19 -195 22 -204 26 -212 ct 31 -220 37 -226 44 -231 ct 
51 -237 59 -241 68 -243 ct 77 -246 87 -247 97 -247 ct 111 -247 122 -245 132 -242 ct 
142 -239 150 -234 156 -228 ct 162 -222 167 -216 170 -208 ct 173 -200 174 -192 174 -183 ct 
174 -176 173 -169 171 -163 ct 169 -157 166 -151 162 -146 ct 158 -141 153 -137 146 -134 ct 
140 -130 132 -127 123 -125 ct 123 -125 l  133 -124 142 -122 149 -118 ct 156 -115 162 -111 167 -105 ct 
171 -100 175 -95 177 -88 ct 180 -82 181 -75 181 -68 ct p ef
pom

pum
1136 2680 t
181 -68 m  181 -57 179 -47 175 -38 ct 172 -29 166 -22 160 -16 ct 153 -10 144 -5 134 -2 ct 
123 1 112 3 98 3 ct 83 3 71 1 60 -3 ct 50 -6 42 -11 35 -17 ct 28 -24 23 -31 20 -39 ct 
17 -46 14 -55 13 -63 ct 46 -66 l  46 -60 48 -54 51 -48 ct 53 -43 56 -38 61 -35 ct 
65 -31 70 -28 76 -26 ct 83 -24 90 -23 98 -23 ct 114 -23 126 -27 135 -34 ct 144 -42 149 -54 149 -69 ct 
149 -78 147 -85 143 -90 ct 139 -96 134 -100 128 -103 ct 122 -106 115 -108 109 -109 ct 
102 -110 95 -111 89 -111 ct 72 -111 l  72 -138 l  89 -138 l  94 -138 101 -139 107 -140 ct 
113 -141 119 -143 124 -146 ct 129 -149 134 -154 137 -159 ct 141 -164 142 -171 142 -180 ct 
142 -193 138 -203 131 -210 ct 123 -218 112 -221 97 -221 ct 83 -221 72 -218 64 -211 ct 
55 -204 50 -194 49 -182 ct 18 -184 l  19 -195 22 -204 26 -212 ct 31 -220 37 -226 44 -231 ct 
51 -237 59 -241 68 -243 ct 77 -246 87 -247 97 -247 ct 111 -247 122 -245 132 -242 ct 
142 -239 150 -234 156 -228 ct 162 -222 167 -216 170 -208 ct 173 -200 174 -192 174 -183 ct 
174 -176 173 -169 171 -163 ct 169 -157 166 -151 162 -146 ct 158 -141 153 -137 146 -134 ct 
140 -130 132 -127 123 -125 ct 123 -125 l  133 -124 142 -122 149 -118 ct 156 -115 162 -111 167 -105 ct 
171 -100 175 -95 177 -88 ct 180 -82 181 -75 181 -68 ct p ef
217 0 m  217 -38 l  251 -38 l  251 0 l  217 0 l  p ef
473 -80 m  473 -67 471 -56 467 -46 ct 463 -36 458 -27 451 -20 ct 443 -13 434 -7 424 -3 ct 
413 1 400 3 386 3 ct 374 3 362 1 353 -1 ct 343 -4 335 -9 329 -14 ct 322 -19 317 -25 313 -32 ct 
309 -39 307 -47 305 -55 ct 337 -58 l  338 -54 340 -49 342 -45 ct 344 -41 347 -37 351 -33 ct 
355 -30 360 -27 366 -25 ct 372 -23 379 -22 387 -22 ct 395 -22 402 -24 409 -26 ct 
415 -29 421 -32 426 -37 ct 430 -42 434 -48 436 -55 ct 439 -62 440 -70 440 -79 ct 
440 -86 439 -93 437 -99 ct 434 -106 431 -111 426 -116 ct 422 -120 416 -124 410 -126 ct 
403 -129 396 -130 388 -130 ct 383 -130 378 -130 373 -129 ct 369 -128 365 -126 361 -125 ct 
358 -123 354 -121 351 -119 ct 348 -117 345 -115 343 -113 ct 312 -113 l  320 -243 l 
458 -243 l  458 -217 l  349 -217 l  344 -140 l  349 -144 356 -148 365 -151 ct 
373 -154 383 -155 394 -155 ct 406 -155 417 -154 427 -150 ct 436 -146 445 -141 451 -134 ct 
458 -128 463 -120 467 -110 ct 471 -101 473 -91 473 -80 ct p ef
pom

pum
1427 1941 t
152 -55 m  152 0 l  123 0 l  123 -55 l  8 -55 l  8 -79 l  119 -243 l  152 -243 l 
152 -79 l  186 -79 l  186 -55 l  152 -55 l  p
123 -208 m  122 -207 122 -206 121 -205 ct 120 -203 119 -201 118 -199 ct 117 -197 115 -195 114 -193 ct 
113 -191 112 -189 111 -187 ct 49 -96 l  48 -95 47 -94 46 -92 ct 45 -91 44 -89 43 -88 ct 
42 -86 41 -84 39 -83 ct 38 -81 37 -80 37 -79 ct 123 -79 l  123 -208 l  p ef
pom

pum
1136 1202 t
152 -55 m  152 0 l  123 0 l  123 -55 l  8 -55 l  8 -79 l  119 -243 l  152 -243 l 
152 -79 l  186 -79 l  186 -55 l  152 -55 l  p
123 -208 m  122 -207 122 -206 121 -205 ct 120 -203 119 -201 118 -199 ct 117 -197 115 -195 114 -193 ct 
113 -191 112 -189 111 -187 ct 49 -96 l  48 -95 47 -94 46 -92 ct 45 -91 44 -89 43 -88 ct 
42 -86 41 -84 39 -83 ct 38 -81 37 -80 37 -79 ct 123 -79 l  123 -208 l  p ef
217 0 m  217 -38 l  251 -38 l  251 0 l  217 0 l  p ef
473 -80 m  473 -67 471 -56 467 -46 ct 463 -36 458 -27 451 -20 ct 443 -13 434 -7 424 -3 ct 
413 1 400 3 386 3 ct 374 3 362 1 353 -1 ct 343 -4 335 -9 329 -14 ct 322 -19 317 -25 313 -32 ct 
309 -39 307 -47 305 -55 ct 337 -58 l  338 -54 340 -49 342 -45 ct 344 -41 347 -37 351 -33 ct 
355 -30 360 -27 366 -25 ct 372 -23 379 -22 387 -22 ct 395 -22 402 -24 409 -26 ct 
415 -29 421 -32 426 -37 ct 430 -42 434 -48 436 -55 ct 439 -62 440 -70 440 -79 ct 
440 -86 439 -93 437 -99 ct 434 -106 431 -111 426 -116 ct 422 -120 416 -124 410 -126 ct 
403 -129 396 -130 388 -130 ct 383 -130 378 -130 373 -129 ct 369 -128 365 -126 361 -125 ct 
358 -123 354 -121 351 -119 ct 348 -117 345 -115 343 -113 ct 312 -113 l  320 -243 l 
458 -243 l  458 -217 l  349 -217 l  344 -140 l  349 -144 356 -148 365 -151 ct 
373 -154 383 -155 394 -155 ct 406 -155 417 -154 427 -150 ct 436 -146 445 -141 451 -134 ct 
458 -128 463 -120 467 -110 ct 471 -101 473 -91 473 -80 ct p ef
pom


80 lw 0.003 0.273 0.527 c 14017 4691 m  14817 4691 l  ps
14311 4586 m  14311 4796 l  14522 4796 l  14522 4586 l  14311 4586 l  p ef
0 lw 14311 4586 m  14311 4796 l  14522 4796 l  14522 4586 l  14311 4586 l 
pc

pum
14917 4811 t
0.003 0.003 0.003 c 29 0 m  29 -243 l  213 -243 l  213 -216 l  62 -216 l  62 -138 l 
203 -138 l  203 -111 l  62 -111 l  62 -27 l  220 -27 l  220 0 l  29 0 l 
p ef
376 0 m  326 -77 l  275 0 l  242 0 l  308 -96 l  245 -187 l  279 -187 l 
326 -114 l  372 -187 l  407 -187 l  343 -96 l  411 0 l  376 0 l  p ef
471 -87 m  471 -77 472 -68 474 -60 ct 476 -52 479 -45 483 -39 ct 487 -33 492 -28 499 -25 ct 
506 -22 513 -20 523 -20 ct 536 -20 547 -23 555 -28 ct 563 -34 569 -41 571 -49 ct 
599 -41 l  597 -36 594 -31 590 -26 ct 587 -20 582 -16 576 -11 ct 571 -7 563 -4 554 -1 ct 
546 2 535 3 523 3 ct 495 3 474 -5 460 -22 ct 445 -38 438 -62 438 -95 ct 438 -112 440 -127 445 -139 ct 
449 -151 455 -161 462 -169 ct 470 -176 479 -182 489 -185 ct 499 -188 510 -190 521 -190 ct 
537 -190 550 -187 561 -182 ct 571 -177 580 -170 586 -162 ct 592 -153 597 -142 600 -130 ct 
602 -118 604 -105 604 -91 ct 604 -87 l  471 -87 l  p
572 -111 m  570 -130 565 -145 557 -154 ct 548 -163 536 -167 521 -167 ct 516 -167 510 -166 505 -165 ct 
499 -163 494 -160 489 -156 ct 484 -152 480 -146 477 -139 ct 473 -131 471 -122 471 -111 ct 
572 -111 l  p ef
656 -95 m  656 -84 657 -74 659 -65 ct 660 -56 663 -48 667 -42 ct 670 -35 675 -30 681 -27 ct 
687 -23 695 -21 703 -21 ct 714 -21 724 -24 731 -30 ct 739 -36 743 -45 745 -57 ct 
776 -57 l  775 -49 773 -42 769 -34 ct 766 -27 761 -21 755 -15 ct 750 -10 742 -5 734 -2 ct 
725 1 715 3 704 3 ct 690 3 677 1 667 -4 ct 657 -9 649 -16 642 -25 ct 636 -34 631 -44 628 -56 ct 
625 -67 624 -80 624 -94 ct 624 -106 625 -117 627 -127 ct 629 -137 632 -145 636 -152 ct 
640 -159 644 -165 649 -170 ct 654 -175 660 -179 665 -182 ct 671 -185 678 -187 684 -188 ct 
691 -190 697 -190 704 -190 ct 714 -190 724 -189 732 -186 ct 740 -183 747 -179 753 -174 ct 
759 -169 764 -163 767 -157 ct 771 -150 774 -142 775 -135 ct 743 -132 l  742 -143 738 -151 731 -157 ct 
724 -163 715 -166 703 -166 ct 694 -166 687 -165 681 -162 ct 675 -159 670 -154 667 -148 ct 
663 -142 660 -135 659 -126 ct 657 -117 656 -107 656 -95 ct p ef
848 -187 m  848 -69 l  848 -60 849 -52 850 -46 ct 851 -40 854 -35 857 -31 ct 
860 -27 863 -25 868 -23 ct 873 -22 879 -21 887 -21 ct 894 -21 901 -22 906 -25 ct 
912 -27 917 -31 922 -36 ct 926 -41 929 -47 931 -54 ct 934 -61 935 -70 935 -79 ct 
935 -187 l  966 -187 l  966 -40 l  966 -36 966 -32 966 -28 ct 966 -24 966 -20 966 -16 ct 
966 -12 966 -9 967 -6 ct 967 -3 967 -1 967 0 ct 938 0 l  937 -1 937 -3 937 -5 ct 
937 -8 937 -11 937 -14 ct 937 -17 936 -20 936 -24 ct 936 -27 936 -30 936 -32 ct 
936 -32 l  933 -27 929 -22 926 -18 ct 922 -13 918 -10 913 -7 ct 909 -4 903 -1 897 1 ct 
891 2 884 3 876 3 ct 866 3 857 2 849 -1 ct 842 -3 836 -7 831 -13 ct 826 -18 823 -25 820 -33 ct 
818 -41 817 -51 817 -63 ct 817 -187 l  848 -187 l  p ef
1074 -1 m  1070 0 1065 1 1060 2 ct 1055 3 1050 3 1043 3 ct 1018 3 1006 -11 1006 -39 ct 
1006 -164 l  984 -164 l  984 -187 l  1007 -187 l  1016 -228 l  1037 -228 l 
1037 -187 l  1071 -187 l  1071 -164 l  1037 -164 l  1037 -46 l  1037 -37 1038 -31 1041 -27 ct 
1044 -23 1049 -22 1057 -22 ct 1060 -22 1062 -22 1065 -22 ct 1068 -23 1071 -23 1074 -24 ct 
1074 -1 l  p ef
1109 -226 m  1109 -256 l  1140 -256 l  1140 -226 l  1109 -226 l  p
1109 0 m  1109 -187 l  1140 -187 l  1140 0 l  1109 0 l  p ef
1346 -94 m  1346 -61 1338 -37 1324 -21 ct 1310 -5 1289 3 1261 3 ct 1248 3 1237 1 1227 -3 ct 
1216 -7 1208 -13 1201 -21 ct 1194 -29 1188 -39 1184 -51 ct 1181 -63 1179 -77 1179 -94 ct 
1179 -158 1207 -190 1262 -190 ct 1277 -190 1289 -188 1300 -184 ct 1310 -180 1319 -174 1326 -166 ct 
1332 -158 1337 -148 1341 -136 ct 1344 -124 1346 -110 1346 -94 ct p
1313 -94 m  1313 -108 1312 -120 1310 -129 ct 1307 -139 1304 -146 1300 -152 ct 
1295 -158 1290 -161 1284 -164 ct 1278 -166 1271 -167 1263 -167 ct 1255 -167 1248 -166 1241 -164 ct 
1235 -161 1230 -157 1225 -152 ct 1221 -146 1217 -138 1215 -129 ct 1213 -120 1211 -108 1211 -94 ct 
1211 -79 1213 -67 1215 -58 ct 1218 -48 1221 -41 1226 -35 ct 1230 -30 1235 -26 1241 -23 ct 
1247 -21 1254 -20 1261 -20 ct 1269 -20 1276 -21 1283 -23 ct 1289 -26 1294 -29 1299 -35 ct 
1303 -41 1307 -48 1309 -58 ct 1312 -67 1313 -79 1313 -94 ct p ef
1491 0 m  1491 -118 l  1491 -127 1491 -135 1489 -141 ct 1488 -147 1486 -152 1483 -156 ct 
1480 -160 1476 -162 1471 -164 ct 1466 -165 1460 -166 1453 -166 ct 1445 -166 1439 -165 1433 -162 ct 
1427 -160 1422 -156 1418 -151 ct 1413 -146 1410 -140 1408 -133 ct 1406 -126 1405 -117 1405 -108 ct 
1405 0 l  1373 0 l  1373 -147 l  1373 -151 1373 -155 1373 -159 ct 1373 -163 1373 -167 1373 -171 ct 
1373 -175 1373 -178 1373 -181 ct 1373 -184 1373 -186 1372 -187 ct 1402 -187 l 
1402 -186 1402 -184 1402 -182 ct 1402 -179 1402 -176 1403 -173 ct 1403 -170 1403 -167 1403 -163 ct 
1403 -160 1403 -157 1403 -155 ct 1404 -155 l  1407 -160 1410 -165 1413 -169 ct 
1417 -174 1421 -177 1426 -180 ct 1431 -183 1436 -186 1442 -188 ct 1448 -189 1455 -190 1463 -190 ct 
1474 -190 1483 -189 1490 -186 ct 1497 -184 1504 -180 1508 -174 ct 1513 -169 1517 -162 1519 -154 ct 
1521 -146 1522 -136 1522 -124 ct 1522 0 l  1491 0 l  p ef
1764 -216 m  1764 0 l  1731 0 l  1731 -216 l  1648 -216 l  1648 -243 l 
1848 -243 l  1848 -216 l  1764 -216 l  p ef
1876 -226 m  1876 -256 l  1907 -256 l  1907 -226 l  1876 -226 l  p
1876 0 m  1876 -187 l  1907 -187 l  1907 0 l  1876 0 l  p ef
2063 0 m  2063 -118 l  2063 -127 2063 -135 2062 -141 ct 2061 -147 2059 -152 2056 -156 ct 
2053 -160 2050 -162 2045 -164 ct 2041 -165 2036 -166 2029 -166 ct 2023 -166 2017 -165 2011 -162 ct 
2006 -160 2002 -156 1998 -151 ct 1994 -146 1991 -140 1989 -133 ct 1987 -126 1986 -117 1986 -108 ct 
1986 0 l  1955 0 l  1955 -147 l  1955 -151 1955 -155 1955 -159 ct 1955 -163 1955 -167 1955 -171 ct 
1955 -175 1955 -178 1955 -181 ct 1955 -184 1955 -186 1954 -187 ct 1984 -187 l 
1984 -186 1984 -184 1984 -182 ct 1984 -179 1984 -176 1985 -173 ct 1985 -170 1985 -167 1985 -163 ct 
1985 -160 1985 -157 1985 -155 ct 1986 -155 l  1988 -160 1991 -165 1995 -169 ct 
1998 -174 2002 -177 2006 -180 ct 2010 -183 2015 -186 2021 -188 ct 2026 -189 2033 -190 2040 -190 ct 
2054 -190 2065 -187 2074 -182 ct 2082 -176 2088 -167 2091 -155 ct 2091 -155 l 
2094 -160 2097 -165 2101 -169 ct 2104 -174 2108 -177 2113 -180 ct 2117 -183 2122 -186 2128 -188 ct 
2134 -189 2140 -190 2148 -190 ct 2157 -190 2165 -189 2172 -186 ct 2179 -184 2185 -180 2189 -174 ct 
2193 -169 2197 -162 2199 -154 ct 2201 -146 2202 -136 2202 -124 ct 2202 0 l  2171 0 l 
2171 -118 l  2171 -127 2171 -135 2169 -141 ct 2168 -147 2166 -152 2164 -156 ct 
2161 -160 2157 -162 2153 -164 ct 2149 -165 2143 -166 2137 -166 ct 2130 -166 2125 -165 2119 -162 ct 
2114 -160 2109 -156 2106 -151 ct 2102 -147 2099 -141 2097 -133 ct 2095 -126 2094 -118 2094 -108 ct 
2094 0 l  2063 0 l  p ef
2271 -87 m  2271 -77 2272 -68 2274 -60 ct 2276 -52 2279 -45 2283 -39 ct 2287 -33 2292 -28 2299 -25 ct 
2306 -22 2313 -20 2323 -20 ct 2336 -20 2347 -23 2355 -28 ct 2363 -34 2369 -41 2371 -49 ct 
2399 -41 l  2397 -36 2394 -31 2390 -26 ct 2387 -20 2382 -16 2376 -11 ct 2371 -7 2363 -4 2354 -1 ct 
2346 2 2335 3 2323 3 ct 2295 3 2274 -5 2260 -22 ct 2245 -38 2238 -62 2238 -95 ct 
2238 -112 2240 -127 2245 -139 ct 2249 -151 2255 -161 2262 -169 ct 2270 -176 2279 -182 2289 -185 ct 
2299 -188 2310 -190 2321 -190 ct 2337 -190 2350 -187 2361 -182 ct 2371 -177 2380 -170 2386 -162 ct 
2392 -153 2397 -142 2400 -130 ct 2402 -118 2404 -105 2404 -91 ct 2404 -87 l 
2271 -87 l  p
2372 -111 m  2370 -130 2365 -145 2357 -154 ct 2348 -163 2336 -167 2321 -167 ct 
2316 -167 2310 -166 2305 -165 ct 2299 -163 2294 -160 2289 -156 ct 2284 -152 2280 -146 2277 -139 ct 
2273 -131 2271 -122 2271 -111 ct 2372 -111 l  p ef
pom
gr
gs
0 0 m 17652 0 l 17652 9384 l 0 9384 l 0 0 l eoclip newpath
gr
gr
gr
gr
0 9385 t 
pom
count op_count sub {pop} repeat countdictstack dict_count sub {end} repeat b4_inc_state restore
%%PageTrailer
%%Trailer
%%EOF
