WIDTH, HEIGHT, BLOCK_WIDTH, BLOCK_HEIGHT, LOOPS_OUT_KERNEL, LOOPS_IN_KERNEL, COPY_BANDWIDTH, NAIVE_BANDWIDTH, COALESCED_BANDWIDTH, DIAGONAL_BANDWIDTH
64,64,4,4,10,200,0.307026,0.560456,0.357801,0.386312
128,128,4,4,10,200,0.48309,0.469359,0.367028,0.413388
256,256,4,4,10,200,0.780238,0.4365,0.375318,0.42813
512,512,4,4,10,200,0.675406,0.290356,0.325972,0.416444
1024,1024,4,4,10,200,0.659113,0.193139,0.268009,0.396863
2048,2048,4,4,10,200,0.550458,0.172792,0.249459,0.36017
